#File	1-SAT_S1_mixed_with_25%_10-KPN_S9_R1.fastq.gz
#Total	1363956
#Matched	952706	69.84873%
#Name	Reads	ReadsPct
NZ_CP011394.1 Salmonella enterica subsp. enterica serovar Enteritidis str. 18569, complete genome	477769	35.02818%
NC_003198.1 Salmonella enterica subsp. enterica serovar Typhi str. CT18, complete genome	474185	34.76542%
NC_003384.1 Salmonella enterica subsp. enterica serovar Typhi str. CT18 plasmid pHCM1, complete sequence	566	0.04150%
NC_002946.2 Neisseria gonorrhoeae FA 1090 chromosome, complete genome	186	0.01364%
