#File	1-SAT_S1_mixed_with_10%_2-SAT_S2_R1.fastq.gz
#Total	1463824
#Matched	1228236	83.90599%
#Name	Reads	ReadsPct
NZ_CP011394.1 Salmonella enterica subsp. enterica serovar Enteritidis str. 18569, complete genome	614044	41.94794%
NC_003198.1 Salmonella enterica subsp. enterica serovar Typhi str. CT18, complete genome	614073	41.94992%
NC_002946.2 Neisseria gonorrhoeae FA 1090 chromosome, complete genome	119	0.00813%
