#File	1-SAT_S1_mixed_with_10%_7-GC_S7_R1.fastq.gz
#Total	1463824
#Matched	1172389	80.09084%
#Name	Reads	ReadsPct
NZ_CP011394.1 Salmonella enterica subsp. enterica serovar Enteritidis str. 18569, complete genome	553495	37.81158%
NC_003198.1 Salmonella enterica subsp. enterica serovar Typhi str. CT18, complete genome	553725	37.82729%
NC_002946.2 Neisseria gonorrhoeae FA 1090 chromosome, complete genome	64568	4.41091%
NC_003384.1 Salmonella enterica subsp. enterica serovar Typhi str. CT18 plasmid pHCM1, complete sequence	601	0.04106%
