filename	accession	GCF_accession	GCF_accession_without_version	length	num_contigs	info	organism_name	full_organism_name	taxid	species_taxid	bioproject	biosample	refseq_category	infraspecific_name	assembly_level	asm_name	submitter	ftp_path	count
GCF_001018835.2_ASM101883v2_genomic.fna.gz	NZ_CP026064.1	GCF_001018835.2	GCF_001018835	2879053	2	Staphylococcus aureus strain NRS271 chromosome, complete genome	Staphylococcus aureus	Staphylococcus aureus	1280	1280	PRJNA224116	SAMN03255458	na	strain=NRS271	Complete Genome	ASM101883v2	University of Maryland School of Medicine Institute for Genome Sciences (IGS) - sequencing center	ftp://ftp.ncbi.nlm.nih.gov/genomes/all/GCF/001/018/835/GCF_001018835.2_ASM101883v2/GCF_001018835.2_ASM101883v2_genomic.fna.gz	32
GCF_002786535.1_ASM278653v1_genomic.fna.gz	NZ_CP022291.1	GCF_002786535.1	GCF_002786535	2762859	1	Staphylococcus aureus subsp. aureus strain EDCC5464 chromosome, complete genome	Staphylococcus aureus	Staphylococcus aureus subsp. aureus	46170	1280	PRJNA224116	SAMN07310553	na	strain=EDCC5464	Complete Genome	ASM278653v1	Justus Liebig University	ftp://ftp.ncbi.nlm.nih.gov/genomes/all/GCF/002/786/535/GCF_002786535.1_ASM278653v1/GCF_002786535.1_ASM278653v1_genomic.fna.gz	17
GCF_000695215.1_ASM69521v1_genomic.fna.gz	NZ_CP007659.1	GCF_000695215.1	GCF_000695215	2846320	1	Staphylococcus aureus subsp. aureus strain H-EMRSA-15, complete genome	Staphylococcus aureus	Staphylococcus aureus subsp. aureus	46170	1280	PRJNA224116	SAMN02767598	na	strain=H-EMRSA-15	Complete Genome	ASM69521v1	University of Antwerpen	ftp://ftp.ncbi.nlm.nih.gov/genomes/all/GCF/000/695/215/GCF_000695215.1_ASM69521v1/GCF_000695215.1_ASM69521v1_genomic.fna.gz	14
GCF_900620235.1_BPH2900_genomic.fna.gz	NZ_LR130513.1	GCF_900620235.1	GCF_900620235	2825765	2	Staphylococcus aureus strain BPH2900 genome assembly, chromosome: 1	Staphylococcus aureus	Staphylococcus aureus	1280	1280	PRJNA224116	SAMEA5099552	na	strain=BPH2900	Complete Genome	BPH2900	Bioplatforms Australia	ftp://ftp.ncbi.nlm.nih.gov/genomes/all/GCF/900/620/235/GCF_900620235.1_BPH2900/GCF_900620235.1_BPH2900_genomic.fna.gz	7
GCF_000284535.1_ASM28453v1_genomic.fna.gz	NC_017763.1	GCF_000284535.1	GCF_000284535	2832299	1	Staphylococcus aureus subsp. aureus HO 5096 0412 complete genome	Staphylococcus aureus	Staphylococcus aureus subsp. aureus HO 5096 0412	1074252	1280	PRJNA224116	SAMEA2272552	na	strain=HO 5096 0412	Complete Genome	ASM28453v1	Wellcome Trust Sanger Insititute	ftp://ftp.ncbi.nlm.nih.gov/genomes/all/GCF/000/284/535/GCF_000284535.1_ASM28453v1/GCF_000284535.1_ASM28453v1_genomic.fna.gz	5
GCF_003185005.1_ASM318500v1_genomic.fna.gz	NZ_CP028470.1	GCF_003185005.1	GCF_003185005	2808627	2	Staphylococcus aureus strain IT4-R chromosome, complete genome	Staphylococcus aureus	Staphylococcus aureus	1280	1280	PRJNA224116	SAMN08580907	na	strain=IT4-R	Complete Genome	ASM318500v1	University of Groningen, University Medical Center Groningen	ftp://ftp.ncbi.nlm.nih.gov/genomes/all/GCF/003/185/005/GCF_003185005.1_ASM318500v1/GCF_003185005.1_ASM318500v1_genomic.fna.gz	3
GCF_001611325.1_ASM161132v1_genomic.fna.gz	NZ_CP012979.1	GCF_001611325.1	GCF_001611325	2700362	2	Staphylococcus aureus strain ST20130940, complete genome	Staphylococcus aureus	Staphylococcus aureus	1280	1280	PRJNA224116	SAMN04166494	na	strain=ST20130940	Complete Genome	ASM161132v1	LNCC	ftp://ftp.ncbi.nlm.nih.gov/genomes/all/GCF/001/611/325/GCF_001611325.1_ASM161132v1/GCF_001611325.1_ASM161132v1_genomic.fna.gz	2
