# KrakenUniq v0.5.7 DATE:2019-04-15T14:23:39Z DB:/home/biouser/SAM/DBDIR/LIBRARY_MINIKRAKEN/minikraken_20171019_8GB DB_SIZE:8053064728 WD:/home/biouser/SAM
# CL:perl /home/biouser/miniconda3/bin/krakenuniq --db /home/biouser/SAM/DBDIR/LIBRARY_MINIKRAKEN/minikraken_20171019_8GB -paired /home/biouser/SAM/data/1-SAT_S1_mixed_with_1%_7-GC_S7_R1.fastq.gz /home/biouser/SAM/data/1-SAT_S1_mixed_with_1%_7-GC_S7_R2.fastq.gz --report-file /home/biouser/SAM/data/1-SAT_S1_mixed_with_1%_7-GC_S7.krakenuniq.report.tsv

%	reads	taxReads	kmers	dup	cov	taxID	rank	taxName
0.3591	5257	5257	16931833	25.6	1.973	0	no rank	unclassified
99.64	1458567	2053	302609	67	0.0004568	1	no rank	root
99.5	1456512	3	301582	66.8	0.0004616	131567	no rank	  cellular organisms
99.5	1456509	396	301582	66.8	0.0004775	2	superkingdom	    Bacteria
99.46	1455876	211	300318	66.8	0.0009452	1224	phylum	      Proteobacteria
98.44	1440966	1413	227186	87.4	0.001486	1236	class	        Gammaproteobacteria
98.34	1439518	4940	225789	87.4	0.005373	91347	order	          Enterobacterales
98	1434552	32952	220415	87.1	0.01058	543	family	            Enterobacteriaceae
95.74	1401435	16870	196176	87.7	0.09555	590	genus	              Salmonella
94.58	1384555	750890	180653	87.2	0.1006	28901	species	                Salmonella enterica
43.23	632771	283038	33854	79.9	0.04496	59201	subspecies	                  Salmonella enterica subsp. enterica
23.78	348092	343263	11841	89.2	0.5202	90370	no rank	                    Salmonella enterica subsp. enterica serovar Typhi
0.3298	4827	4827	120	88.5	0.2256	220341	no rank	                      Salmonella enterica subsp. enterica serovar Typhi str. CT18
6.831e-05	1	1	3	1	0.004184	527001	no rank	                      Salmonella enterica subsp. enterica serovar Typhi str. Ty21a
6.831e-05	1	1	1	1	0.02632	1132507	no rank	                      Salmonella enterica subsp. enterica serovar Typhi str. P-stx-12
0.01059	155	120	117	6.15	0.007167	90105	no rank	                    Salmonella enterica subsp. enterica serovar Saintpaul
0.002391	35	35	53	1.15	0.006833	702982	no rank	                      Salmonella enterica subsp. enterica serovar Saintpaul str. SARA26
0.009154	134	0	252	1.13	0.005474	1242085	no rank	                    Salmonella enterica subsp. enterica serovar Macclesfield
0.009154	134	134	252	1.13	0.005474	1242107	no rank	                      Salmonella enterica subsp. enterica serovar Macclesfield str. S-1643
0.00772	113	90	178	1.2	0.006721	90371	no rank	                    Salmonella enterica subsp. enterica serovar Typhimurium
0.0003416	5	5	10	1.2	0.0128	568709	no rank	                      Salmonella enterica subsp. enterica serovar Typhimurium str. DT2
0.0003416	5	5	3	1.67	0.01515	1008297	no rank	                      Salmonella enterica subsp. enterica serovar Typhimurium str. 798
0.0002049	3	3	4	1.5	0.04124	1454647	no rank	                      Salmonella enterica subsp. enterica serovar Typhimurium str. USDA-ARS-USMARC-1810
0.0001366	2	2	5	1	0.007236	568708	no rank	                      Salmonella enterica subsp. enterica serovar Typhimurium str. D23580
0.0001366	2	2	3	1	0.075	1454641	no rank	                      Salmonella enterica subsp. enterica serovar Typhimurium str. CDC 2010K-1587
6.831e-05	1	1	3	2	0.01145	718274	no rank	                      Salmonella enterica subsp. enterica serovar Typhimurium str. T000240
6.831e-05	1	1	4	1	0.1212	1454644	no rank	                      Salmonella enterica subsp. enterica serovar Typhimurium str. CDC 2009K-1640
6.831e-05	1	1	3	1.33	0.008499	1029978	no rank	                      Salmonella enterica subsp. enterica serovar Typhimurium str. SARA13
6.831e-05	1	1	3	1	0.008174	1454639	no rank	                      Salmonella enterica subsp. enterica serovar Typhimurium str. USDA-ARS-USMARC-1899
6.831e-05	1	1	1	1	0.001353	1454638	no rank	                      Salmonella enterica subsp. enterica serovar Typhimurium str. USDA-ARS-USMARC-1898
6.831e-05	1	1	1	1	0.01316	1454636	no rank	                      Salmonella enterica subsp. enterica serovar Typhimurium str. USDA-ARS-USMARC-1896
0.005738	84	83	16	19.1	0.0009177	70803	no rank	                    Salmonella enterica subsp. enterica serovar Minnesota
6.831e-05	1	1	2	1	0.002714	1124956	no rank	                      Salmonella enterica subsp. enterica serovar Minnesota str. ATCC 49284
0.005397	79	49	119	1.26	0.01682	149539	no rank	                    Salmonella enterica subsp. enterica serovar Enteritidis
0.0002049	3	3	3	1.67	0.04	1412594	no rank	                      Salmonella enterica subsp. enterica serovar Enteritidis str. EC20121177
0.0001366	2	2	3	1.33	0.02439	1412600	no rank	                      Salmonella enterica subsp. enterica serovar Enteritidis str. EC20100325
0.0001366	2	2	2	2	0.04082	1244119	no rank	                      Salmonella enterica subsp. enterica serovar Enteritidis str. EC20110361
0.0001366	2	2	4	1	0.06897	1412582	no rank	                      Salmonella enterica subsp. enterica serovar Enteritidis str. EC20121970
0.0001366	2	2	2	2	0.0339	1412555	no rank	                      Salmonella enterica subsp. enterica serovar Enteritidis str. EC20121765
0.0001366	2	2	3	1	0.1579	1412514	no rank	                      Salmonella enterica subsp. enterica serovar Enteritidis str. SA20093421
0.0001366	2	2	3	1	0.1429	1412571	no rank	                      Salmonella enterica subsp. enterica serovar Enteritidis str. EC20121812
6.831e-05	1	1	3	1	0.03704	1412580	no rank	                      Salmonella enterica subsp. enterica serovar Enteritidis str. EC20121986
6.831e-05	1	1	3	1	0.03125	1244111	no rank	                      Salmonella enterica subsp. enterica serovar Enteritidis str. EC20110357
6.831e-05	1	1	2	1	0.06452	1412569	no rank	                      Salmonella enterica subsp. enterica serovar Enteritidis str. EC20120994
6.831e-05	1	1	2	1	0.125	1412535	no rank	                      Salmonella enterica subsp. enterica serovar Enteritidis str. EC20111576
6.831e-05	1	1	2	1	0.01299	1412618	no rank	                      Salmonella enterica subsp. enterica serovar Enteritidis str. EC20120929
6.831e-05	1	1	2	1	0.06667	1412494	no rank	                      Salmonella enterica subsp. enterica serovar Enteritidis str. SA19943269
6.831e-05	1	1	1	2	0.04762	1412593	no rank	                      Salmonella enterica subsp. enterica serovar Enteritidis str. EC20121176
6.831e-05	1	1	1	1	0.003185	926034	no rank	                      Salmonella enterica subsp. enterica serovar Enteritidis str. 77-1427
6.831e-05	1	1	1	1	0.125	1244122	no rank	                      Salmonella enterica subsp. enterica serovar Enteritidis str. EC20111174
6.831e-05	1	1	1	1	0.04762	1243621	no rank	                      Salmonella enterica subsp. enterica serovar Enteritidis str. EC20110356
6.831e-05	1	1	1	1	0.02778	1412452	no rank	                      Salmonella enterica subsp. enterica serovar Enteritidis str. SA19992322
6.831e-05	1	1	1	1	0.01818	1412481	no rank	                      Salmonella enterica subsp. enterica serovar Enteritidis str. SA20100239
6.831e-05	1	1	1	1	0.04	1412493	no rank	                      Salmonella enterica subsp. enterica serovar Enteritidis str. SA19942384
6.831e-05	1	1	1	1	0.01515	1412495	no rank	                      Salmonella enterica subsp. enterica serovar Enteritidis str. SA20123395
6.831e-05	1	1	1	1	1	1412523	no rank	                      Salmonella enterica subsp. enterica serovar Enteritidis str. SA20091739
0.004577	67	67	101	1.26	0.007268	28150	no rank	                    Salmonella enterica subsp. enterica serovar Senftenberg
0.004372	64	52	109	1.19	0.01069	54388	no rank	                    Salmonella enterica subsp. enterica serovar Paratyphi A
0.0004099	6	6	6	1.17	0.009375	941189	no rank	                      Salmonella enterica subsp. enterica serovar Paratyphi A str. ATCC 11511
0.0002733	4	4	6	1	0.06316	295319	no rank	                      Salmonella enterica subsp. enterica serovar Paratyphi A str. ATCC 9150
0.0001366	2	2	2	1	0.01418	554290	no rank	                      Salmonella enterica subsp. enterica serovar Paratyphi A str. AKU_12601
0.003484	51	0	71	1.23	0.005567	1242080	no rank	                    Salmonella enterica subsp. enterica serovar Djakarta
0.003484	51	51	71	1.23	0.005567	1242091	no rank	                      Salmonella enterica subsp. enterica serovar Djakarta str. S-1087
0.003006	44	23	75	1.08	0.003402	108619	no rank	                    Salmonella enterica subsp. enterica serovar Newport
0.0004099	6	6	9	1.22	0.002812	1454627	no rank	                      Salmonella enterica subsp. enterica serovar Newport str. CDC 2010K-2159
0.0003416	5	5	7	1.29	0.006375	1454620	no rank	                      Salmonella enterica subsp. enterica serovar Newport str. USDA-ARS-USMARC-1927
0.0002733	4	4	5	1	0.002762	930779	no rank	                      Salmonella enterica subsp. enterica serovar Newport str. Levine 15
0.0002049	3	3	7	1	0.003091	930778	no rank	                      Salmonella enterica subsp. enterica serovar Newport str. Levine 1
0.0001366	2	2	3	1	0.0283	796731	no rank	                      Salmonella enterica subsp. enterica serovar Newport str. CVM 21538
6.831e-05	1	1	2	1	0.2222	423368	no rank	                      Salmonella enterica subsp. enterica serovar Newport str. SL254
0.002938	43	42	72	1.21	0.006355	119912	no rank	                    Salmonella enterica subsp. enterica serovar Choleraesuis
6.831e-05	1	1	2	1.5	0.0004137	938142	no rank	                      Salmonella enterica subsp. enterica serovar Choleraesuis str. ATCC 10708
0.002323	34	0	56	1.18	0.005952	1242079	no rank	                    Salmonella enterica subsp. enterica serovar Apapa
0.002323	34	34	56	1.18	0.005952	1242088	no rank	                      Salmonella enterica subsp. enterica serovar Apapa str. SA20060561
0.002186	32	29	60	1.17	0.003407	57743	no rank	                    Salmonella enterica subsp. enterica serovar Weltevreden
0.0002049	3	3	5	1.2	0.00994	1173939	no rank	                      Salmonella enterica subsp. enterica serovar Weltevreden str. 1655
0.002049	30	0	56	1.2	0.005402	189201	no rank	                    Salmonella enterica subsp. enterica serovar Cubana
0.002049	30	30	56	1.2	0.005402	1271863	no rank	                      Salmonella enterica subsp. enterica serovar Cubana str. CFSAN002050
0.002049	30	20	54	1.15	0.003199	595	no rank	                    Salmonella enterica subsp. enterica serovar Infantis
0.0006831	10	10	21	1.24	0.002111	596155	no rank	                      Salmonella enterica subsp. enterica serovar Infantis str. SARB27
0.001981	29	29	69	1.1	0.008201	58101	no rank	                    Salmonella enterica subsp. enterica serovar Waycross
0.001981	29	0	47	1.09	0.003131	192954	no rank	                    Salmonella enterica subsp. enterica serovar Mbandaka
0.001981	29	29	47	1.09	0.003131	984237	no rank	                      Salmonella enterica subsp. enterica serovar Mbandaka str. ATCC 51958
0.001913	28	0	53	1.21	0.007226	260368	no rank	                    Salmonella enterica subsp. enterica serovar Bergen
0.001913	28	28	53	1.21	0.007226	1240708	no rank	                      Salmonella enterica subsp. enterica serovar Bergen str. ST350
0.001913	28	24	53	1.06	0.01245	594	no rank	                    Salmonella enterica subsp. enterica serovar Gallinarum
0.0001366	2	2	3	1	0.02308	685040	no rank	                      Salmonella enterica subsp. enterica serovar Gallinarum str. 9184
6.831e-05	1	1	5	1	0.02092	909947	no rank	                      Salmonella enterica subsp. enterica serovar Gallinarum str. SG9
6.831e-05	1	1	1	1	0.004292	550538	no rank	                      Salmonella enterica subsp. enterica serovar Gallinarum str. 287/91
0.001844	27	0	51	1.12	0.006682	57045	no rank	                    Salmonella enterica subsp. enterica serovar Paratyphi B
0.0009564	14	14	21	1.24	0.006506	1016998	no rank	                      Salmonella enterica subsp. enterica serovar Paratyphi B str. SPB7
0.0008881	13	13	30	1.03	0.007276	224729	no rank	                      Salmonella enterica subsp. enterica serovar Java
0.001844	27	27	47	1.06	0.005308	340188	no rank	                    Salmonella enterica subsp. enterica serovar Cerro
0.001776	26	24	45	1.51	0.006418	1243585	no rank	                    Salmonella enterica subsp. enterica serovar Ouakam
0.0001366	2	2	3	1	0.002076	1243586	no rank	                      Salmonella enterica subsp. enterica serovar Ouakam str. SA20034636
0.001776	26	20	55	1.16	0.01209	98360	no rank	                    Salmonella enterica subsp. enterica serovar Dublin
0.0002049	3	3	4	1.5	0.01717	687860	no rank	                      Salmonella enterica subsp. enterica serovar Dublin str. ATCC 39184
0.0001366	2	2	8	1	0.02332	439851	no rank	                      Salmonella enterica subsp. enterica serovar Dublin str. CT_02021853
6.831e-05	1	1	2	1	0.009569	909945	no rank	                      Salmonella enterica subsp. enterica serovar Dublin str. SD3246
0.001776	26	15	48	1.12	0.00261	58712	no rank	                    Salmonella enterica subsp. enterica serovar Anatum
0.0002049	3	3	5	1.4	0.001018	1454585	no rank	                      Salmonella enterica subsp. enterica serovar Anatum str. USDA-ARS-USMARC-1735
0.0001366	2	2	3	1	0.02521	1454583	no rank	                      Salmonella enterica subsp. enterica serovar Anatum str. USDA-ARS-USMARC-1783
6.831e-05	1	1	3	1.67	0.004127	1454584	no rank	                      Salmonella enterica subsp. enterica serovar Anatum str. USDA-ARS-USMARC-1727
6.831e-05	1	1	2	1	0.004193	1454596	no rank	                      Salmonella enterica subsp. enterica serovar Anatum str. USDA-ARS-USMARC-1781
6.831e-05	1	1	1	2	0.0008389	1454593	no rank	                      Salmonella enterica subsp. enterica serovar Anatum str. USDA-ARS-USMARC-1765
6.831e-05	1	1	1	1	0.004902	1454590	no rank	                      Salmonella enterica subsp. enterica serovar Anatum str. USDA-ARS-USMARC-1175
6.831e-05	1	1	1	1	0.0007013	1454589	no rank	                      Salmonella enterica subsp. enterica serovar Anatum str. USDA-ARS-USMARC-1728
6.831e-05	1	1	1	1	0.003049	1454586	no rank	                      Salmonella enterica subsp. enterica serovar Anatum str. USDA-ARS-USMARC-1736
0.001708	25	0	44	1.2	0.004135	1242081	no rank	                    Salmonella enterica subsp. enterica serovar Hillingdon
0.001708	25	25	44	1.2	0.004135	1242096	no rank	                      Salmonella enterica subsp. enterica serovar Hillingdon str. N1529-D3
0.00164	24	0	49	1.22	0.006873	1242084	no rank	                    Salmonella enterica subsp. enterica serovar Krefeld
0.00164	24	24	49	1.22	0.006873	1242106	no rank	                      Salmonella enterica subsp. enterica serovar Krefeld str. SA20030536
0.00164	24	0	45	1.13	0.007717	915158	no rank	                    Salmonella enterica subsp. enterica serovar Manchester
0.00164	24	24	45	1.13	0.007717	1242108	no rank	                      Salmonella enterica subsp. enterica serovar Manchester str. ST278
0.001571	23	0	44	1.27	0.007174	211968	no rank	                    Salmonella enterica subsp. enterica serovar Albany
0.001571	23	23	44	1.27	0.007174	1173798	no rank	                      Salmonella enterica subsp. enterica serovar Albany str. ATCC 51960
0.001571	23	0	42	1.02	0.01262	57046	no rank	                    Salmonella enterica subsp. enterica serovar Paratyphi C
0.001571	23	23	42	1.02	0.01262	476213	no rank	                      Salmonella enterica subsp. enterica serovar Paratyphi C str. RKS4594
0.001435	21	21	42	1.07	0.03704	1129117	no rank	                    Salmonella enterica subsp. enterica serovar Nitra
0.001435	21	0	35	1.2	0.005755	363569	no rank	                    Salmonella enterica subsp. enterica serovar Javiana
0.001435	21	21	35	1.2	0.005755	1267753	no rank	                      Salmonella enterica subsp. enterica serovar Javiana str. CFSAN001992
0.001298	19	0	34	1.29	0.004079	181798	no rank	                    Salmonella enterica subsp. enterica serovar Sloterdijk
0.001298	19	19	34	1.29	0.004079	938141	no rank	                      Salmonella enterica subsp. enterica serovar Sloterdijk str. ATCC 15791
0.001298	19	19	38	1.13	0.004929	143221	no rank	                    Salmonella enterica subsp. enterica serovar Tennessee
0.001298	19	0	30	1.4	0.009066	1242078	no rank	                    Salmonella enterica subsp. enterica serovar Antsalova
0.001298	19	19	30	1.4	0.009066	1242087	no rank	                      Salmonella enterica subsp. enterica serovar Antsalova str. S01-0511
0.00123	18	13	40	1.05	0.007358	115981	no rank	                    Salmonella enterica subsp. enterica serovar Montevideo
0.0002733	4	4	14	1	0.006303	859199	no rank	                      Salmonella enterica subsp. enterica serovar Montevideo str. 507440-20
6.831e-05	1	1	1	1	0.1429	1454606	no rank	                      Salmonella enterica subsp. enterica serovar Montevideo str. USDA-ARS-USMARC-1921
0.00123	18	0	33	1.27	0.00472	913085	no rank	                    Salmonella enterica subsp. enterica serovar Wandsworth
0.00123	18	18	33	1.27	0.00472	1243595	no rank	                      Salmonella enterica subsp. enterica serovar Wandsworth str. SA20092095
0.001161	17	0	33	1.21	0.002219	1243583	no rank	                    Salmonella enterica subsp. Enterica serovar Onderstepoort
0.001161	17	17	33	1.21	0.002219	1243584	no rank	                      Salmonella enterica subsp. enterica serovar Onderstepoort str. SA20060086
0.001161	17	0	27	1.22	0.009094	29482	no rank	                    Salmonella enterica subsp. enterica serovar Abony
0.001161	17	17	27	1.22	0.009094	1029983	no rank	                      Salmonella enterica subsp. enterica serovar Abony str. 0014
0.001025	15	0	24	1.12	0.004821	58096	no rank	                    Salmonella enterica subsp. enterica serovar Bareilly
0.001025	15	15	24	1.12	0.004821	1173427	no rank	                      Salmonella enterica subsp. enterica serovar Bareilly str. CFSAN000189
0.0009564	14	0	28	1.21	0.003874	82689	no rank	                    Salmonella enterica subsp. enterica serovar Muenster
0.0009564	14	14	28	1.21	0.003874	1124958	no rank	                      Salmonella enterica subsp. enterica serovar Muenster str. 0315
0.0009564	14	14	28	1.11	0.008011	600	no rank	                    Salmonella enterica subsp. enterica serovar Thompson
0.0009564	14	0	25	1.16	0.002108	913074	no rank	                    Salmonella enterica subsp. enterica serovar Inverness
0.0009564	14	14	25	1.16	0.002108	941187	no rank	                      Salmonella enterica subsp. enterica serovar Inverness str. ATCC 10720
0.0006831	10	0	24	1	0.006074	1243590	no rank	                    Salmonella enterica subsp. enterica serovar Quebec
0.0006831	10	10	24	1	0.006074	1243591	no rank	                      Salmonella enterica subsp. enterica serovar Quebec str. S-1267
0.0005465	8	0	14	1.5	0.01923	604	no rank	                    Salmonella enterica subsp. enterica serovar Gallinarum/pullorum
0.0002733	4	4	8	1.38	0.01928	1081093	no rank	                      Salmonella enterica subsp. enterica serovar Gallinarum/pullorum str. RKS5078
0.0002733	4	4	6	1.67	0.02174	1225522	no rank	                      Salmonella enterica subsp. enterica serovar Gallinarum/pullorum str. CDC1983-67
0.0005465	8	0	17	1.18	0.002727	913076	no rank	                    Salmonella enterica subsp. enterica serovar Johannesburg
0.0005465	8	8	17	1.18	0.002727	1242101	no rank	                      Salmonella enterica subsp. enterica serovar Johannesburg str. ST203
0.0005465	8	7	13	1.15	0.008796	605	no rank	                    Salmonella enterica subsp. enterica serovar Pullorum
6.831e-05	1	1	4	1	0.007874	1029979	no rank	                      Salmonella enterica subsp. enterica serovar Pullorum str. ATCC 9120
0.0005465	8	0	13	1.08	0.008661	134047	no rank	                    Salmonella enterica subsp. enterica serovar Bredeney
0.0005465	8	8	13	1.08	0.008661	1194154	no rank	                      Salmonella enterica subsp. enterica serovar Bredeney str. CFSAN001080
0.0004782	7	0	18	1	0.006419	149386	no rank	                    Salmonella enterica subsp. enterica serovar Chester
0.0004782	7	7	18	1	0.006419	941190	no rank	                      Salmonella enterica subsp. enterica serovar Chester str. ATCC 11997
0.0004782	7	4	14	1.21	0.005269	611	no rank	                    Salmonella enterica subsp. enterica serovar Heidelberg
6.831e-05	1	1	3	1	0.01327	1124936	no rank	                      Salmonella enterica subsp. enterica serovar Heidelberg str. 41578
6.831e-05	1	1	1	2	0.005319	454169	no rank	                      Salmonella enterica subsp. enterica serovar Heidelberg str. SL476
6.831e-05	1	1	2	1	0.003802	1160717	no rank	                      Salmonella enterica subsp. enterica serovar Heidelberg str. B182
0.0003416	5	0	8	1.62	0.008188	28146	no rank	                    Salmonella enterica subsp. enterica serovar Moscow
0.0003416	5	5	8	1.62	0.008188	1243579	no rank	                      Salmonella enterica subsp. enterica serovar Moscow str. S-1843
0.0003416	5	0	6	1.5	0.000585	598	no rank	                    Salmonella enterica subsp. enterica serovar Rubislaw
0.0003416	5	5	6	1.5	0.000585	938143	no rank	                      Salmonella enterica subsp. enterica serovar Rubislaw str. ATCC 10717
0.0003416	5	0	8	1.12	0.004756	1151172	no rank	                    Salmonella enterica subsp. enterica serovar Abaetetuba
0.0003416	5	5	8	1.12	0.004756	1208611	no rank	                      Salmonella enterica subsp. enterica serovar Abaetetuba str. ATCC 35640
0.0002733	4	0	13	1.23	0.004115	340190	no rank	                    Salmonella enterica subsp. enterica serovar Schwarzengrund
0.0002733	4	4	13	1.23	0.004115	439843	no rank	                      Salmonella enterica subsp. enterica serovar Schwarzengrund str. CVM19633
0.0002733	4	0	7	1	0.0162	1243599	no rank	                    Salmonella enterica subsp. enterica serovar Yovokome
0.0002733	4	4	7	1	0.0162	1243600	no rank	                      Salmonella enterica subsp. enterica serovar Yovokome str. S-1850
0.0002049	3	1	5	1.4	0.004174	58095	no rank	                    Salmonella enterica subsp. enterica serovar Agona
0.0001366	2	2	3	1	0.04545	1406860	no rank	                      Salmonella enterica subsp. enterica serovar Agona str. 24249
0.0002049	3	0	6	1.17	0.02609	29472	no rank	                    Salmonella enterica subsp. enterica serovar Panama
0.0002049	3	3	6	1.17	0.02609	1124961	no rank	                      Salmonella enterica subsp. enterica serovar Panama str. ATCC 7378
0.0001366	2	0	5	1	0.04	399583	no rank	                    Salmonella enterica subsp. enterica serovar Blegdam
0.0001366	2	2	5	1	0.04	1240694	no rank	                      Salmonella enterica subsp. enterica serovar Blegdam str. S-1824
6.831e-05	1	0	2	1	0.001196	286782	no rank	                    Salmonella enterica subsp. enterica serovar Stanleyville
6.831e-05	1	1	2	1	0.001196	1194159	no rank	                      Salmonella enterica subsp. enterica serovar Stanleyville str. CFSAN000624
6.831e-05	1	0	1	2	0.001368	1242083	no rank	                    Salmonella enterica subsp. enterica serovar Koessen
6.831e-05	1	1	1	2	0.001368	1242105	no rank	                      Salmonella enterica subsp. enterica serovar Koessen str. S-1501
6.831e-05	1	1	1	1	0.0003163	286783	no rank	                    Salmonella enterica subsp. enterica serovar Indiana
0.02234	327	24	697	1.12	0.004102	59202	subspecies	                  Salmonella enterica subsp. salamae
0.01182	173	0	386	1.11	0.003939	1243601	no rank	                    Salmonella enterica subsp. salamae serovar 55:k:z39
0.01182	173	173	386	1.11	0.003939	1243602	no rank	                      Salmonella enterica subsp. salamae serovar 55:k:z39 str. 1315K
0.008881	130	130	265	1.13	0.003983	1710356	no rank	                    Salmonella enterica subsp. salamae serovar 57:z29:z42
0.01537	225	152	467	1.09	0.003193	59203	subspecies	                  Salmonella enterica subsp. arizonae
0.003142	46	0	92	1.07	0.003262	41515	no rank	                    Salmonella enterica subsp. arizonae serovar 62:z36:-
0.003142	46	46	92	1.07	0.003262	1386967	no rank	                      Salmonella enterica subsp. arizonae serovar 62:z36:- str. RKS2983
0.001844	27	27	68	1.09	0.00264	41514	no rank	                    Salmonella enterica subsp. arizonae serovar 62:z4,z23:-
0.01257	184	156	396	1.15	0.003034	59204	subspecies	                  Salmonella enterica subsp. diarizonae
0.001161	17	0	29	1.03	0.001512	1243615	no rank	                    Salmonella enterica subsp. diarizonae serovar 65:c:z
0.001161	17	17	29	1.03	0.001512	1243616	no rank	                      Salmonella enterica subsp. diarizonae serovar 65:c:z str. SA20044251
0.0007515	11	0	20	1.15	0.0008618	1243611	no rank	                    Salmonella enterica subsp. diarizonae serovar 50:k:z
0.0007515	11	11	20	1.15	0.0008618	1243612	no rank	                      Salmonella enterica subsp. diarizonae serovar 50:k:z str. MZ0080
0.01079	158	0	304	1.11	0.003111	59205	subspecies	                  Salmonella enterica subsp. houtenae
0.01079	158	158	304	1.11	0.003111	523831	no rank	                    Salmonella enterica subsp. houtenae str. ATCC BAA-1581
0.0006831	10	8	325	1.16	0.001515	54736	species	                Salmonella bongori
0.0001366	2	0	41	1.17	0.001476	41527	no rank	                  Salmonella bongori serovar 48:z41:--
0.0001366	2	2	41	1.17	0.001476	1382510	no rank	                    Salmonella bongori serovar 48:z41:-- str. RKS3044
0.006148	90	3	299	1.19	0.0001402	561	genus	              Escherichia
0.00567	83	66	240	1.21	0.0001434	562	species	                Escherichia coli
0.0002049	3	3	1	3	0.000173	83334	no rank	                  Escherichia coli O157:H7
0.0001366	2	2	3	1	0.00282	585057	no rank	                  Escherichia coli IAI39
0.0001366	2	2	2	1.5	0.0001486	585397	no rank	                  Escherichia coli ED1a
6.831e-05	1	1	4	1	0.02162	595495	no rank	                  Escherichia coli KO11FL
6.831e-05	1	1	4	1	0.00312	585035	no rank	                  Escherichia coli S88
6.831e-05	1	1	2	1.5	0.001794	199310	no rank	                  Escherichia coli CFT073
6.831e-05	1	1	2	1	0.0007816	1329907	no rank	                  Escherichia coli APEC IMT5155
6.831e-05	1	1	2	1	0.001327	655817	no rank	                  Escherichia coli ABU 83972
6.831e-05	1	1	1	2	0.0001717	340184	no rank	                  Escherichia coli B7A
6.831e-05	1	0	1	1	0.0001814	1603259	no rank	                  Escherichia coli O139:H28
6.831e-05	1	1	1	1	0.0001814	331111	no rank	                    Escherichia coli O139:H28 str. E24377A
6.831e-05	1	1	1	1	0.001504	591946	no rank	                  Escherichia coli LF82
6.831e-05	1	1	1	1	8.775e-05	696406	no rank	                  Escherichia coli UMNK88
6.831e-05	1	0	1	1	0.0003799	498388	no rank	                  Escherichia coli C
6.831e-05	1	1	1	1	0.0003855	481805	no rank	                    Escherichia coli ATCC 8739
0.0002049	3	2	18	1.11	7.639e-05	208962	species	                Escherichia albertii
6.831e-05	1	1	4	1	0.000159	1440052	no rank	                  Escherichia albertii KF1
6.831e-05	1	1	23	1.09	0.0001506	564	species	                Escherichia fergusonii
0.001435	21	2	169	1.13	5.736e-05	570	genus	              Klebsiella
0.0009564	14	11	56	1.18	6.49e-05	573	species	                Klebsiella pneumoniae
0.0001366	2	2	1	2	0.000999	1392500	no rank	                  Klebsiella pneumoniae HK787
6.831e-05	1	1	5	1	5.978e-05	72407	subspecies	                  Klebsiella pneumoniae subsp. pneumoniae
6.831e-05	1	1	17	1.06	4.885e-05	571	species	                Klebsiella oxytoca
6.831e-05	1	1	7	1.14	2.257e-05	548	species	                Klebsiella aerogenes
6.831e-05	1	1	6	1.33	2.852e-05	1134687	species	                Klebsiella michiganensis
6.831e-05	1	1	6	1	5.081e-05	2026240	species	                Klebsiella quasivariicola
6.831e-05	1	1	2	1	2.742e-05	244366	species	                Klebsiella variicola
0.00123	18	5	452	1.13	0.0001748	544	genus	              Citrobacter
0.0003416	5	0	164	1.15	0.0001312	1344959	species group	                Citrobacter freundii complex
0.0002733	4	3	62	1.19	0.0001123	546	species	                  Citrobacter freundii
6.831e-05	1	1	19	1.21	0.0001715	1333848	no rank	                    Citrobacter freundii CFNIH1
6.831e-05	1	1	37	1.08	0.0001284	67827	species	                  Citrobacter werkmanii
0.0002049	3	3	24	1.12	0.0001671	1702170	species	                Citrobacter sp. FDAARGOS_156
0.0001366	2	1	65	1.15	0.0001317	35703	species	                Citrobacter amalonaticus
6.831e-05	1	1	28	1.18	0.0001559	1261127	no rank	                  Citrobacter amalonaticus Y19
0.0001366	2	2	54	1.04	0.0002349	545	species	                Citrobacter koseri
6.831e-05	1	1	25	1.04	0.0001518	67824	species	                Citrobacter farmeri
0.0008881	13	0	253	1.21	6.624e-05	547	genus	              Enterobacter
0.0005465	8	0	170	1.2	5.901e-05	354276	species group	                Enterobacter cloacae complex
0.0003416	5	4	58	1.34	5.367e-05	550	species	                  Enterobacter cloacae
6.831e-05	1	0	4	1.5	7.93e-05	336306	subspecies	                    Enterobacter cloacae subsp. cloacae
6.831e-05	1	1	4	1.5	0.000112	716541	no rank	                      Enterobacter cloacae subsp. cloacae ATCC 13047
6.831e-05	1	0	29	1.03	8.791e-05	61645	species	                  Enterobacter asburiae
6.831e-05	1	1	2	1	5.572e-05	1421338	no rank	                    Enterobacter asburiae L1
6.831e-05	1	1	22	1.09	8.964e-05	1334193	species	                  Enterobacter lignolyticus
6.831e-05	1	1	3	1.33	6.771e-05	1915310	species	                  Enterobacter cloacae complex sp. ECNIH7
0.0003416	5	5	17	1.76	8.22e-05	1692238	species	                Enterobacter sp. FY-07
0.0006148	9	0	40	1.1	4.198e-05	191675	no rank	              unclassified Enterobacteriaceae
0.0004099	6	0	15	1	2.49e-05	84563	no rank	                ant, tsetse, mealybug, aphid, etc. endosymbionts
0.0001366	2	0	3	1	0.0001042	1906659	genus	                  Candidatus Hoaglandella
0.0001366	2	2	3	1	0.0001042	1778263	species	                    Candidatus Hoaglandella endobia
0.0001366	2	0	2	1	5.264e-05	1906657	genus	                  Candidatus Doolittlea
0.0001366	2	2	2	1	5.264e-05	1778262	species	                    Candidatus Doolittlea endobia
6.831e-05	1	0	3	1	1.217e-05	146507	no rank	                  aphid secondary symbionts
6.831e-05	1	0	1	1	7.705e-06	568987	genus	                    Candidatus Hamiltonella
6.831e-05	1	1	1	1	7.705e-06	138072	species	                      Candidatus Hamiltonella defensa
6.831e-05	1	0	2	1	4.7e-05	1906661	genus	                  Candidatus Gullanella
6.831e-05	1	1	2	1	4.7e-05	1070130	species	                    Candidatus Gullanella endobia
0.0002049	3	0	25	1.16	7.133e-05	36866	no rank	                unclassified Enterobacteriaceae (miscellaneous)
0.0002049	3	3	6	1.17	3.726e-05	891974	species	                  Plautia stali symbiont
0.0002733	4	0	15	1.13	0.0001723	620	genus	              Shigella
0.0001366	2	2	5	1.4	0.0001776	623	species	                Shigella flexneri
6.831e-05	1	1	5	1	0.0003184	624	species	                Shigella sonnei
6.831e-05	1	1	1	1	5.201e-05	621	species	                Shigella boydii
0.0002049	3	0	22	1.09	9.884e-05	1330546	genus	              Pluralibacter
0.0002049	3	3	22	1.09	9.884e-05	61647	species	                Pluralibacter gergoviae
0.0001366	2	0	17	1	3.348e-05	1330545	genus	              Lelliottia
0.0001366	2	2	14	1	4.224e-05	61646	species	                Lelliottia amnigena
6.831e-05	1	0	53	1.04	5.476e-05	1330547	genus	              Kosakonia
6.831e-05	1	1	20	1.1	6.253e-05	208223	species	                Kosakonia cowanii
6.831e-05	1	0	27	1.19	0.0001432	83654	genus	              Leclercia
6.831e-05	1	1	27	1.19	0.0001432	83655	species	                Leclercia adecarboxylata
6.831e-05	1	0	18	1.06	0.0001033	1335483	genus	              Shimwellia
6.831e-05	1	0	18	1.06	0.0001033	563	species	                Shimwellia blattae
6.831e-05	1	1	18	1.06	0.0001033	630626	no rank	                  Shimwellia blattae DSM 4481 = NBRC 105725
6.831e-05	1	0	8	1	3.417e-05	929812	genus	              Gibbsiella
6.831e-05	1	1	8	1	3.417e-05	929813	species	                Gibbsiella quercinecans
6.831e-05	1	0	2	2	8.237e-05	1048757	genus	              Candidatus Moranella
6.831e-05	1	1	2	2	8.237e-05	1048758	species	                Candidatus Moranella endobia
0.0006148	9	0	104	1.29	1.541e-05	1903411	family	            Yersiniaceae
0.0004099	6	2	40	1.48	1.666e-05	629	genus	              Yersinia
0.0002733	4	1	15	1.6	3.056e-05	1649845	species group	                Yersinia pseudotuberculosis complex
0.0002049	3	2	10	1.7	0.0003195	632	species	                  Yersinia pestis
6.831e-05	1	1	3	1.33	0.01176	748678	no rank	                    Yersinia pestis str. Pestoides B
0.0002049	3	1	52	1.15	1.433e-05	613	genus	              Serratia
6.831e-05	1	1	7	1.14	1.734e-05	82996	species	                Serratia plymuthica
6.831e-05	1	1	1	1	5.308e-06	61651	species	                Serratia ficaria
0.0004782	7	0	76	1.21	1.535e-05	1903410	family	            Pectobacteriaceae
0.0004099	6	0	12	1.33	2.43e-05	84565	genus	              Sodalis
0.0003416	5	0	4	2	4.43e-05	1486991	species	                Candidatus Sodalis pierantonius
0.0003416	5	5	4	2	4.43e-05	2342	no rank	                  Candidatus Sodalis pierantonius str. SOPE
6.831e-05	1	0	4	1	2.324e-05	63612	species	                Sodalis glossinidius
6.831e-05	1	1	4	1	2.324e-05	343509	no rank	                  Sodalis glossinidius str. 'morsitans'
6.831e-05	1	0	8	1.25	1.808e-05	71655	genus	              Brenneria
6.831e-05	1	1	5	1	2.165e-05	1109412	species	                Brenneria goodwinii
0.0002733	4	0	33	1.18	1.002e-05	1903414	family	            Morganellaceae
6.831e-05	1	0	10	1	9.587e-06	626	genus	              Xenorhabdus
6.831e-05	1	0	2	1	1.306e-05	40577	species	                Xenorhabdus poinarii
6.831e-05	1	1	2	1	1.306e-05	1354304	no rank	                  Xenorhabdus poinarii G6
6.831e-05	1	0	6	1.5	1.874e-05	583	genus	              Proteus
6.831e-05	1	1	4	1.75	2.623e-05	584	species	                Proteus mirabilis
6.831e-05	1	0	8	1	8.056e-06	586	genus	              Providencia
6.831e-05	1	1	3	1	1.714e-05	126385	species	                Providencia alcalifaciens
6.831e-05	1	0	1	1	2.601e-05	637	genus	              Arsenophonus
6.831e-05	1	1	1	1	2.601e-05	634113	species	                Arsenophonus symbiont of Lipoptena fortisetosa
0.0002049	3	0	91	1.1	2.273e-05	1903409	family	            Erwiniaceae
0.0001366	2	0	63	1.11	2.719e-05	53335	genus	              Pantoea
6.831e-05	1	0	5	1.2	2.45e-05	66269	species	                Pantoea stewartii
6.831e-05	1	0	5	1.2	2.45e-05	66271	subspecies	                  Pantoea stewartii subsp. stewartii
6.831e-05	1	1	5	1.2	2.45e-05	660596	no rank	                    Pantoea stewartii subsp. stewartii DC283
6.831e-05	1	1	5	1	1.843e-05	592316	species	                Pantoea sp. At-9b
6.831e-05	1	0	21	1	2.031e-05	551	genus	              Erwinia
6.831e-05	1	0	4	1	1.724e-05	182337	species	                Erwinia billingiae
6.831e-05	1	1	4	1	1.724e-05	634500	no rank	                  Erwinia billingiae Eb661
0.0002049	3	0	21	1.24	1.351e-05	1903412	family	            Hafniaceae
0.0002049	3	0	16	1.31	1.974e-05	635	genus	              Edwardsiella
0.0001366	2	0	2	2	0.0002324	1821960	species	                Edwardsiella anguillarum
0.0001366	2	2	2	2	0.0002324	667120	no rank	                  Edwardsiella anguillarum ET080813
6.831e-05	1	1	1	1	0.0003632	1650654	species	                Edwardsiella sp. LADL05-105
0.001366	20	0	45	1.67	1.03e-06	72274	order	          Pseudomonadales
0.001298	19	0	44	1.66	1.161e-06	135621	family	            Pseudomonadaceae
0.001298	19	4	43	1.65	1.158e-06	286	genus	              Pseudomonas
0.0008198	12	0	6	3.5	1.843e-06	136845	species group	                Pseudomonas putida group
0.0008198	12	0	4	4.5	1.854e-06	303	species	                  Pseudomonas putida
0.0008198	12	12	3	5.67	0.000324	1193499	no rank	                    Pseudomonas putida SJTE-1
0.0001366	2	0	4	1.25	1.315e-06	136841	species group	                Pseudomonas aeruginosa group
0.0001366	2	2	4	1.25	2.994e-06	287	species	                  Pseudomonas aeruginosa
6.831e-05	1	1	1	1	5.286e-06	1788301	species	                Pseudomonas versuta
6.831e-05	1	0	1	2	1.725e-07	468	family	            Moraxellaceae
6.831e-05	1	0	1	2	2.676e-07	469	genus	              Acinetobacter
6.831e-05	1	1	1	2	7.388e-06	40215	species	                Acinetobacter junii
0.0002733	4	0	19	1.21	1.175e-06	135622	order	          Alteromonadales
0.0001366	2	0	5	1	1.48e-05	267894	family	            Psychromonadaceae
0.0001366	2	1	5	1	1.48e-05	67572	genus	              Psychromonas
6.831e-05	1	0	1	1	4.952e-06	357794	species	                Psychromonas ingrahamii
6.831e-05	1	1	1	1	4.952e-06	357804	no rank	                  Psychromonas ingrahamii 37
6.831e-05	1	0	3	1	7.758e-07	267888	family	            Pseudoalteromonadaceae
6.831e-05	1	0	3	1	7.758e-07	53246	genus	              Pseudoalteromonas
6.831e-05	1	1	1	1	3.797e-06	43658	species	                Pseudoalteromonas rubra
6.831e-05	1	0	2	1	4.208e-07	267890	family	            Shewanellaceae
6.831e-05	1	0	2	1	4.208e-07	22	genus	              Shewanella
6.831e-05	1	0	2	1	3.431e-06	62322	species	                Shewanella baltica
6.831e-05	1	1	1	1	0.0004191	693971	no rank	                  Shewanella baltica OS183
0.0002049	3	0	22	1.32	2.153e-06	135614	order	          Xanthomonadales
0.0002049	3	0	21	1.29	2.32e-06	32033	family	            Xanthomonadaceae
0.0001366	2	0	9	1.33	3.815e-06	40323	genus	              Stenotrophomonas
6.831e-05	1	1	3	1	3.158e-05	2005046	species	                Stenotrophomonas sp. WZN-1
6.831e-05	1	1	1	2	2.862e-06	216778	species	                Stenotrophomonas rhizophila
6.831e-05	1	1	2	1.5	4.854e-07	338	genus	              Xanthomonas
0.0002049	3	0	12	1.33	1.624e-06	135619	order	          Oceanospirillales
0.0001366	2	0	8	1.5	2.287e-06	28256	family	            Halomonadaceae
6.831e-05	1	0	6	1.67	2.301e-06	2745	genus	              Halomonas
6.831e-05	1	1	2	2	1.397e-05	1971364	species	                Halomonas sp. GT
6.831e-05	1	0	1	1	2.451e-05	114403	no rank	              Zymobacter group
6.831e-05	1	0	1	1	0.000142	114185	genus	                Candidatus Carsonella
6.831e-05	1	0	1	1	0.000142	114186	species	                  Candidatus Carsonella ruddii
6.831e-05	1	1	1	1	0.000142	1202539	no rank	                    Candidatus Carsonella ruddii HT isolate Thao2000
6.831e-05	1	0	2	1	3.635e-06	224379	family	            Hahellaceae
6.831e-05	1	0	2	1	8.931e-06	305899	genus	              Endozoicomonas
6.831e-05	1	0	2	1	8.931e-06	1027273	species	                Endozoicomonas montiporae
6.831e-05	1	1	2	1	8.931e-06	570277	no rank	                  Endozoicomonas montiporae CL-33
0.0001366	2	0	14	1.36	4.876e-06	135624	order	          Aeromonadales
0.0001366	2	0	14	1.36	4.876e-06	84642	family	            Aeromonadaceae
0.0001366	2	0	7	1.29	3.336e-06	642	genus	              Aeromonas
0.0001366	2	2	6	1.33	1.571e-05	654	species	                Aeromonas veronii
0.0001366	2	0	2	1	6.486e-06	1692040	order	          Acidiferrobacterales
0.0001366	2	1	2	1	6.486e-06	1692041	family	            Acidiferrobacteraceae
6.831e-05	1	0	1	1	5.58e-06	1692042	genus	              Sulfurifustis
6.831e-05	1	1	1	1	5.58e-06	1675686	species	                Sulfurifustis variabilis
6.831e-05	1	0	10	1.1	3.281e-06	135625	order	          Pasteurellales
6.831e-05	1	0	10	1.1	3.281e-06	712	family	            Pasteurellaceae
6.831e-05	1	0	1	2	8.547e-06	155493	genus	              Gallibacterium
6.831e-05	1	0	1	2	8.547e-06	750	species	                Gallibacterium anatis
6.831e-05	1	1	1	2	8.547e-06	1005058	no rank	                  Gallibacterium anatis UMN179
0.993	14536	2	70711	2.43	0.001182	28216	class	        Betaproteobacteria
0.9816	14369	3	69567	2.44	0.02455	206351	order	          Neisseriales
0.9813	14365	9	69492	2.44	0.04561	481	family	            Neisseriaceae
0.9807	14356	1220	68990	2.43	0.05977	482	genus	              Neisseria
0.8961	13118	12871	31771	2.77	0.4859	485	species	                Neisseria gonorrhoeae
0.01325	194	194	74	4.91	0.1069	528354	no rank	                  Neisseria gonorrhoeae MS11
0.002323	34	34	2	21	0.009091	521006	no rank	                  Neisseria gonorrhoeae NCCP11945
0.001298	19	19	24	1.58	0.01712	242231	no rank	                  Neisseria gonorrhoeae FA 1090
0.0008881	13	10	82	1.67	0.0004122	487	species	                Neisseria meningitidis
6.831e-05	1	1	1	6	0.0007918	935590	no rank	                  Neisseria meningitidis M0579
6.831e-05	1	1	6	1	0.00303	942513	no rank	                  Neisseria meningitidis WUE 2594
6.831e-05	1	0	1	1	0.0006592	65699	no rank	                  Neisseria meningitidis serogroup A
6.831e-05	1	1	1	1	0.0006592	122587	no rank	                    Neisseria meningitidis Z2491
0.0002733	4	4	18	1.39	0.0002512	486	species	                Neisseria lactamica
6.831e-05	1	1	1	1	9.41e-06	326523	species	                Neisseria zoodegmatis
6.831e-05	1	0	6	1	4.582e-06	1499392	family	            Chromobacteriaceae
6.831e-05	1	0	2	1	9.805e-06	168470	genus	              Laribacter
6.831e-05	1	1	2	1	9.805e-06	168471	species	                Laribacter hongkongensis
0.01127	165	2	1251	1.39	2.462e-05	80840	order	          Burkholderiales
0.01045	153	1	1205	1.4	4.533e-05	119060	family	            Burkholderiaceae
0.009974	146	9	1155	1.35	0.0004868	48736	genus	              Ralstonia
0.008198	120	34	886	1.34	0.002404	329	species	                Ralstonia pickettii
0.003211	47	47	300	1.46	0.002806	402626	no rank	                  Ralstonia pickettii 12J
0.002664	39	39	205	1.24	0.001627	428406	no rank	                  Ralstonia pickettii 12D
0.0008881	13	13	111	1.47	0.0006781	105219	species	                Ralstonia mannitolilytica
0.0002733	4	4	13	1.08	3.551e-05	190721	species	                Ralstonia insidiosa
0.0003416	5	0	13	6.31	8.871e-07	32008	genus	              Burkholderia
0.0002733	4	2	6	12.3	7.76e-07	87882	species group	                Burkholderia cepacia complex
0.0001366	2	0	1	68	0.003145	152500	species	                  Burkholderia dolosa
0.0001366	2	2	1	68	0.003984	1385930	no rank	                    Burkholderia dolosa PC543
6.831e-05	1	1	1	1	8.144e-06	758796	species	                Burkholderia sp. RPE67
6.831e-05	1	0	1	1	2.889e-07	1822464	genus	              Paraburkholderia
6.831e-05	1	0	1	1	6.134e-06	412963	species	                Paraburkholderia rhizoxinica
6.831e-05	1	1	1	1	6.134e-06	882378	no rank	                  Paraburkholderia rhizoxinica HKI 454
0.0002733	4	1	9	1.22	1.019e-06	80864	family	            Comamonadaceae
6.831e-05	1	0	2	1.5	1.889e-06	283	genus	              Comamonas
6.831e-05	1	1	1	2	1.803e-06	285	species	                Comamonas testosteroni
6.831e-05	1	0	1	1	1.567e-06	47420	genus	              Hydrogenophaga
6.831e-05	1	1	1	1	4.969e-06	1842537	species	                Hydrogenophaga sp. RAC07
6.831e-05	1	0	1	1	1.198e-06	28065	genus	              Rhodoferax
6.831e-05	1	0	1	1	4.502e-06	192843	species	                Rhodoferax ferrireducens
6.831e-05	1	1	1	1	4.502e-06	338969	no rank	                  Rhodoferax ferrireducens T118
0.0002049	3	0	9	1.22	1.752e-06	75682	family	            Oxalobacteraceae
6.831e-05	1	0	4	1.5	2.85e-06	29580	genus	              Janthinobacterium
6.831e-05	1	1	2	2	1.121e-05	375286	species	                Janthinobacterium sp. Marseille
6.831e-05	1	1	3	1	3.454e-06	149698	genus	              Massilia
6.831e-05	1	0	2	1	1.631e-06	963	genus	              Herbaspirillum
6.831e-05	1	1	1	1	4.455e-06	92645	species	                Herbaspirillum frisingense
0.0001366	2	0	5	1.2	1.763e-06	119065	no rank	            unclassified Burkholderiales
0.0001366	2	0	4	1.25	1.962e-06	224471	no rank	              Burkholderiales Genera incertae sedis
0.0001366	2	0	2	1.5	9.531e-06	88	genus	                Leptothrix
0.0001366	2	0	2	1.5	9.531e-06	34029	species	                  Leptothrix cholodnii
0.0001366	2	2	2	1.5	9.531e-06	395495	no rank	                    Leptothrix cholodnii SP-6
6.831e-05	1	0	4	1	5.49e-07	506	family	            Alcaligenaceae
6.831e-05	1	0	4	1	1.133e-06	517	genus	              Bordetella
6.831e-05	1	1	1	1	4.71e-06	94624	species	                Bordetella petrii
0.01114	163	15	400	1.27	5.183e-06	28211	class	        Alphaproteobacteria
0.007993	117	0	257	1.25	2.068e-05	204455	order	          Rhodobacterales
0.007993	117	33	257	1.25	2.182e-05	31989	family	            Rhodobacteraceae
0.003552	52	7	111	1.25	0.0001441	265	genus	              Paracoccus
0.001776	26	26	58	1.38	0.0002901	147645	species	                Paracoccus yeei
0.0008881	13	0	25	1.12	0.0001134	266	species	                Paracoccus denitrificans
0.0008881	13	13	25	1.12	0.0001134	318586	no rank	                  Paracoccus denitrificans PD1222
0.0004099	6	6	13	1.15	9.85e-05	1945662	species	                Paracoccus contaminans
0.0006831	10	1	17	1.29	1.532e-05	1060	genus	              Rhodobacter
0.0002049	3	3	6	1	3.882e-05	1850250	species	                Rhodobacter sp. LPB0142
0.0001366	2	0	5	1.6	8.413e-06	1063	species	                Rhodobacter sphaeroides
6.831e-05	1	1	2	2	1.1e-05	349102	no rank	                  Rhodobacter sphaeroides ATCC 17025
6.831e-05	1	1	1	1	2.135e-05	992186	no rank	                  Rhodobacter sphaeroides WS8N
0.0001366	2	2	2	1.5	1.078e-05	2033869	species	                Rhodobacter sp. CZR27
0.0001366	2	0	3	1	1.796e-05	1061	species	                Rhodobacter capsulatus
0.0001366	2	2	3	1	1.796e-05	272942	no rank	                  Rhodobacter capsulatus SB 1003
0.0002049	3	1	4	1	7.678e-06	875170	genus	              Celeribacter
0.0001366	2	2	3	1	1.485e-05	1208324	species	                Celeribacter indicus
0.0001366	2	0	6	1.83	2.864e-05	1097466	genus	              Defluviimonas
0.0001366	2	2	6	1.83	2.864e-05	1335048	species	                Defluviimonas alba
0.0001366	2	0	5	1.6	2.283e-05	360528	genus	              Pelagibaca
0.0001366	2	2	5	1.6	2.283e-05	1250539	species	                Pelagibaca abyssi
0.0001366	2	1	6	1.17	9.463e-06	34008	genus	              Rhodovulum
6.831e-05	1	1	2	1.5	1.319e-05	308754	species	                Rhodovulum sp. MB263
0.0001366	2	0	5	1.2	3.392e-05	1932719	genus	              Xuhuaishuia
0.0001366	2	2	5	1.2	3.392e-05	1411903	species	                Xuhuaishuia manganoxidans
0.0001366	2	0	3	1.67	1.734e-05	245186	genus	              Loktanella
0.0001366	2	2	3	1.67	1.734e-05	245188	species	                Loktanella vestfoldensis
0.0001366	2	0	5	1	8.422e-06	97050	genus	              Ruegeria
0.0001366	2	0	4	1	1.99e-05	89184	species	                Ruegeria pomeroyi
0.0001366	2	2	4	1	1.99e-05	246200	no rank	                  Ruegeria pomeroyi DSS-3
0.0001366	2	0	3	1	7.034e-06	60136	genus	              Sulfitobacter
0.0001366	2	2	3	1	1.495e-05	1917485	species	                Sulfitobacter sp. AM1-D1
0.0001366	2	0	2	1	8.268e-06	227873	genus	              Pannonibacter
0.0001366	2	2	2	1	8.268e-06	121719	species	                Pannonibacter phragmitetus
6.831e-05	1	0	2	1	1.036e-05	74030	genus	              Roseovarius
6.831e-05	1	1	2	1	1.036e-05	215743	species	                Roseovarius mucosus
6.831e-05	1	0	2	1	1.083e-05	285107	genus	              Thioclava
6.831e-05	1	1	2	1	1.083e-05	1915078	species	                Thioclava nitratireducens
6.831e-05	1	0	1	1	6.373e-06	159345	genus	              Roseibacterium
6.831e-05	1	0	1	1	6.373e-06	159346	species	                Roseibacterium elongatum
6.831e-05	1	1	1	1	6.373e-06	1294273	no rank	                  Roseibacterium elongatum DSM 19469
0.001298	19	3	58	1.34	1.497e-06	356	order	          Rhizobiales
0.0006831	10	0	22	1.09	1.653e-06	82115	family	            Rhizobiaceae
0.0004782	7	0	13	1.08	1.465e-06	227290	no rank	              Rhizobium/Agrobacterium group
0.0003416	5	0	9	1.11	1.402e-06	379	genus	                Rhizobium
0.0001366	2	0	4	1	2.263e-06	384	species	                  Rhizobium leguminosarum
0.0001366	2	0	2	1	3.539e-06	387	no rank	                    Rhizobium leguminosarum bv. viciae
0.0001366	2	2	2	1	1.142e-05	216596	no rank	                      Rhizobium leguminosarum bv. viciae 3841
6.831e-05	1	1	1	2	3.387e-06	348824	species	                  Rhizobium favelukesii
6.831e-05	1	1	2	1	1.007e-05	1125847	species	                  Rhizobium sp. NT-26
6.831e-05	1	1	1	1	4.963e-06	1981173	species	                  Rhizobium sp. NXC14
0.0001366	2	0	3	1	1.692e-06	357	genus	                Agrobacterium
6.831e-05	1	0	2	1	2.461e-06	1183400	species group	                  Agrobacterium tumefaciens complex
6.831e-05	1	0	2	1	3.407e-06	358	species	                    Agrobacterium tumefaciens
6.831e-05	1	1	2	1	6.447e-06	311403	no rank	                      Agrobacterium radiobacter K84
6.831e-05	1	1	1	1	4.598e-06	1842536	species	                  Agrobacterium sp. RAC06
0.0002049	3	0	9	1.11	2.375e-06	227292	no rank	              Sinorhizobium/Ensifer group
0.0002049	3	0	9	1.11	3.127e-06	28105	genus	                Sinorhizobium
0.0001366	2	2	2	1.5	6.117e-06	194963	species	                  Sinorhizobium americanum
6.831e-05	1	1	3	1	3.65e-06	382	species	                  Sinorhizobium meliloti
0.0001366	2	0	3	1.33	3.059e-07	41294	family	            Bradyrhizobiaceae
0.0001366	2	1	2	1	3.318e-07	374	genus	              Bradyrhizobium
6.831e-05	1	1	1	1	2.92e-06	288000	species	                Bradyrhizobium sp. BTAi1
6.831e-05	1	0	12	1.75	3.877e-06	119045	family	            Methylobacteriaceae
6.831e-05	1	0	12	1.75	3.877e-06	407	genus	              Methylobacterium
6.831e-05	1	1	3	2	4.008e-05	29429	species	                Methylobacterium zatmanii
6.831e-05	1	0	6	1.17	1.556e-06	69277	family	            Phyllobacteriaceae
6.831e-05	1	0	2	1.5	6.67e-06	31988	genus	              Aminobacter
6.831e-05	1	1	2	1.5	6.67e-06	83263	species	                Aminobacter aminovorans
6.831e-05	1	0	2	1.5	1.599e-06	118882	family	            Brucellaceae
6.831e-05	1	1	2	1.5	4.939e-06	234	genus	              Brucella
6.831e-05	1	0	1	2	7.104e-07	772	family	            Bartonellaceae
6.831e-05	1	0	1	2	7.104e-07	773	genus	              Bartonella
6.831e-05	1	1	1	2	1.61e-05	774	species	                Bartonella bacilliformis
0.0003416	5	0	15	1.13	1.329e-06	204457	order	          Sphingomonadales
0.0002733	4	0	11	1.18	1.251e-06	41297	family	            Sphingomonadaceae
0.0002049	3	1	4	1.25	1.461e-06	13687	genus	              Sphingomonas
6.831e-05	1	1	1	2	4.917e-06	93064	species	                Sphingomonas koreensis
6.831e-05	1	1	1	1	4.402e-06	1609977	species	                Sphingomonas hengshuiensis
6.831e-05	1	0	5	1.2	2.212e-06	165695	genus	              Sphingobium
6.831e-05	1	1	1	1	5.373e-06	1843368	species	                Sphingobium sp. RAC03
6.831e-05	1	0	3	1	1.223e-06	335929	family	            Erythrobacteraceae
6.831e-05	1	0	1	1	1.124e-06	361177	genus	              Altererythrobacter
6.831e-05	1	1	1	1	6.696e-06	1267766	species	                Altererythrobacter atlanticus
0.0003416	5	0	12	1.33	1.404e-06	204441	order	          Rhodospirillales
0.0002049	3	0	6	1.67	1.394e-06	41295	family	            Rhodospirillaceae
6.831e-05	1	0	2	2	6.969e-06	171436	genus	              Tistrella
6.831e-05	1	0	2	2	6.969e-06	171437	species	                Tistrella mobilis
6.831e-05	1	1	2	2	6.969e-06	1110502	no rank	                  Tistrella mobilis KA081020-065
6.831e-05	1	0	1	2	3.062e-06	1543705	genus	              Nitrospirillum
6.831e-05	1	0	1	2	3.062e-06	28077	species	                Nitrospirillum amazonense
6.831e-05	1	1	1	2	3.062e-06	1441467	no rank	                  Nitrospirillum amazonense CBAmc
6.831e-05	1	0	1	2	5.819e-07	191	genus	              Azospirillum
6.831e-05	1	1	1	2	1.403e-06	192	species	                Azospirillum brasilense
0.0001366	2	0	6	1	1.414e-06	433	family	            Acetobacteraceae
6.831e-05	1	0	1	1	1.33e-06	1434011	genus	              Komagataeibacter
6.831e-05	1	0	1	1	6.42e-06	436	species	                Komagataeibacter hansenii
6.831e-05	1	1	1	1	6.42e-06	714995	no rank	                  Komagataeibacter hansenii ATCC 23769
6.831e-05	1	0	1	1	4.149e-06	125216	genus	              Roseomonas
6.831e-05	1	1	1	1	4.149e-06	257708	species	                Roseomonas gilardii
0.0001366	2	0	8	1.5	3.127e-06	204458	order	          Caulobacterales
0.0001366	2	0	8	1.5	3.127e-06	76892	family	            Caulobacteraceae
0.0001366	2	0	5	1.8	5.18e-06	41275	genus	              Brevundimonas
0.0001366	2	2	3	1.67	2.114e-05	1532555	species	                Brevundimonas sp. DS20
0.01462	214	5	692	1.49	2.847e-06	1783272	no rank	      Terrabacteria group
0.01141	167	1	511	1.35	4.542e-06	201174	phylum	        Actinobacteria
0.01127	165	32	492	1.35	4.502e-06	1760	class	          Actinobacteria
0.004167	61	0	135	1.27	0.0001961	1643682	order	            Geodermatophilales
0.004167	61	8	135	1.27	0.0001961	85030	family	              Geodermatophilaceae
0.00123	18	0	37	1.38	0.0001605	1860	genus	                Geodermatophilus
0.00123	18	0	37	1.38	0.0001605	1861	species	                  Geodermatophilus obscurus
0.00123	18	18	37	1.38	0.0001605	526225	no rank	                    Geodermatophilus obscurus DSM 43160
0.00123	18	0	31	1.26	0.0001279	88138	genus	                Modestobacter
0.00123	18	18	31	1.26	0.0001279	477641	species	                  Modestobacter marinus
0.001161	17	0	44	1.16	0.0002087	38501	genus	                Blastococcus
0.001161	17	0	44	1.16	0.0002087	138336	species	                  Blastococcus saxobsidens
0.001161	17	17	44	1.16	0.0002087	1146883	no rank	                    Blastococcus saxobsidens DD2
0.002118	31	4	89	1.36	5.106e-06	85006	order	            Micrococcales
0.0005465	8	1	34	1.26	6.237e-06	1268	family	              Micrococcaceae
0.0003416	5	1	25	1.28	4.322e-05	57493	genus	                Kocuria
0.0002049	3	3	23	1.26	0.0001848	71999	species	                  Kocuria palustris
6.831e-05	1	1	1	2	5.676e-06	388357	species	                  Kocuria turfanensis
0.0001366	2	0	8	1.25	7.438e-05	1269	genus	                Micrococcus
0.0001366	2	2	8	1.25	7.438e-05	1270	species	                  Micrococcus luteus
0.0005465	8	0	26	1.42	2.44e-05	85020	family	              Dermabacteraceae
0.0005465	8	2	26	1.42	3.145e-05	43668	genus	                Brachybacterium
0.0001366	2	2	5	1.8	2.621e-05	1903186	species	                  Brachybacterium sp. P6-10-X1
0.0001366	2	2	4	1	2.391e-05	1331682	species	                  Brachybacterium ginsengisoli
0.0001366	2	0	2	1	1.325e-05	43669	species	                  Brachybacterium faecium
0.0001366	2	2	2	1	1.325e-05	446465	no rank	                    Brachybacterium faecium DSM 4810
0.0003416	5	0	14	1.43	1.726e-05	85021	family	              Intrasporangiaceae
0.0002049	3	0	8	1.25	5.413e-05	53457	genus	                Janibacter
0.0002049	3	3	8	1.25	5.413e-05	857417	species	                  Janibacter indicus
6.831e-05	1	0	3	2	1.732e-05	367298	genus	                Phycicoccus
6.831e-05	1	1	3	2	1.732e-05	443156	species	                  Phycicoccus dokdonensis
6.831e-05	1	0	1	1	5.624e-06	53357	genus	                Intrasporangium
6.831e-05	1	0	1	1	5.624e-06	53358	species	                  Intrasporangium calvum
6.831e-05	1	1	1	1	5.624e-06	710696	no rank	                    Intrasporangium calvum DSM 43043
0.0003416	5	1	5	1.4	7.669e-07	85023	family	              Microbacteriaceae
0.0001366	2	1	2	1	9.121e-07	33882	genus	                Microbacterium
6.831e-05	1	1	1	1	6.786e-06	300019	species	                  Microbacterium paludicola
6.831e-05	1	0	1	2	3.142e-06	518733	genus	                Microterricola
6.831e-05	1	1	1	2	3.142e-06	412690	species	                  Microterricola viridarii
6.831e-05	1	0	1	1	1.752e-06	1573	genus	                Clavibacter
6.831e-05	1	0	1	1	1.752e-06	28447	species	                  Clavibacter michiganensis
6.831e-05	1	0	1	1	9.865e-06	33013	subspecies	                    Clavibacter michiganensis subsp. michiganensis
6.831e-05	1	1	1	1	9.865e-06	443906	no rank	                      Clavibacter michiganensis subsp. michiganensis NCPPB 382
6.831e-05	1	0	1	1	1.166e-06	85017	family	              Promicromonosporaceae
6.831e-05	1	0	1	1	2.632e-06	157920	genus	                Cellulosimicrobium
6.831e-05	1	1	1	1	5.144e-06	1710	species	                  Cellulosimicrobium cellulans
0.001298	19	0	91	1.34	1.785e-05	85009	order	            Propionibacteriales
0.0007515	11	2	73	1.3	2.817e-05	31957	family	              Propionibacteriaceae
0.0002049	3	0	30	1.23	6.249e-05	1912216	genus	                Cutibacterium
0.0002049	3	3	30	1.23	0.0001538	1747	species	                  Cutibacterium acnes
0.0002049	3	0	18	1.22	3.246e-05	29404	genus	                Microlunatus
0.0001366	2	2	15	1.07	4.951e-05	630515	species	                  Microlunatus soli
6.831e-05	1	0	3	2	1.193e-05	29405	species	                  Microlunatus phosphovorus
6.831e-05	1	1	3	2	1.193e-05	1032480	no rank	                    Microlunatus phosphovorus NM-1
0.0001366	2	0	10	1	1.641e-05	72763	genus	                Tessaracoccus
6.831e-05	1	1	8	1	5.216e-05	399497	species	                  Tessaracoccus flavescens
6.831e-05	1	1	1	1	7.102e-06	1610493	species	                  Tessaracoccus flavus
6.831e-05	1	0	9	1.67	3.417e-05	1743	genus	                Propionibacterium
6.831e-05	1	1	9	1.67	8.168e-05	671223	species	                  Propionibacterium sp. oral taxon 193
0.0005465	8	2	17	1.53	6.788e-06	85015	family	              Nocardioidaceae
0.0001366	2	0	6	2	1.348e-05	2040	genus	                Aeromicrobium
6.831e-05	1	1	4	2	2.656e-05	1736691	species	                  Aeromicrobium choanae
6.831e-05	1	1	1	2	6.32e-06	2041	species	                  Aeromicrobium erythreum
6.831e-05	1	0	2	2	5.916e-06	182639	genus	                Kribbella
6.831e-05	1	0	2	2	5.916e-06	182640	species	                  Kribbella flavida
6.831e-05	1	1	2	2	5.916e-06	479435	no rank	                    Kribbella flavida DSM 17836
6.831e-05	1	0	2	1	3.306e-06	1839	genus	                Nocardioides
6.831e-05	1	1	2	1	8.704e-06	196162	species	                  Nocardioides sp. JS614
6.831e-05	1	0	2	1	4.977e-06	53387	genus	                Friedmanniella
6.831e-05	1	1	2	1	1.03e-05	546874	species	                  Friedmanniella sagamiharensis
6.831e-05	1	0	1	1	3.514e-06	117156	genus	                Actinopolymorpha
6.831e-05	1	1	1	1	3.514e-06	117157	species	                  Actinopolymorpha singaporensis
0.0002733	4	0	10	1.7	3.605e-07	85011	order	            Streptomycetales
0.0002733	4	0	10	1.7	3.605e-07	2062	family	              Streptomycetaceae
0.0002733	4	1	9	1.78	3.371e-07	1883	genus	                Streptomyces
6.831e-05	1	1	1	2	3.794e-06	1561022	species	                  Streptomyces sp. CCM_MD2014
6.831e-05	1	1	1	1	2.942e-06	545123	species	                  Streptomyces silaceus
6.831e-05	1	1	1	1	3.434e-06	862751	species	                  Streptomyces sp. SirexAA-E
0.0002733	4	0	8	1.25	1.042e-06	85008	order	            Micromonosporales
0.0002733	4	0	8	1.25	1.042e-06	28056	family	              Micromonosporaceae
0.0002049	3	1	4	1.25	8.852e-07	1873	genus	                Micromonospora
6.831e-05	1	1	1	2	3.59e-06	291594	species	                  Micromonospora rifamycinica
6.831e-05	1	1	1	1	3.815e-06	1881	species	                  Micromonospora viridifaciens
6.831e-05	1	0	1	1	3.486e-06	673534	genus	                Plantactinospora
6.831e-05	1	1	1	1	3.486e-06	2024580	species	                  Plantactinospora sp. KBS50
0.0002049	3	0	11	1.45	3.839e-07	85007	order	            Corynebacteriales
0.0001366	2	0	4	1.5	5.679e-07	85025	family	              Nocardiaceae
6.831e-05	1	1	3	1.67	6.45e-07	1827	genus	                Rhodococcus
6.831e-05	1	0	1	1	4.19e-07	1817	genus	                Nocardia
6.831e-05	1	1	1	1	3.119e-06	134962	species	                  Nocardia soli
6.831e-05	1	0	1	1	7.166e-07	85026	family	              Gordoniaceae
6.831e-05	1	0	1	1	7.166e-07	2053	genus	                Gordonia
6.831e-05	1	1	1	1	5.203e-06	1136941	species	                  Gordonia sp. QH-11
0.0002049	3	0	5	1.8	1.036e-05	1643684	order	            Nakamurellales
0.0002049	3	0	5	1.8	1.036e-05	85031	family	              Nakamurellaceae
0.0002049	3	0	5	1.8	1.036e-05	53460	genus	                Nakamurella
0.0001366	2	0	3	1.67	1.156e-05	53461	species	                  Nakamurella multipartita
0.0001366	2	2	3	1.67	1.156e-05	479431	no rank	                    Nakamurella multipartita DSM 44233
6.831e-05	1	1	2	2	8.967e-06	1090615	species	                  Nakamurella panacisegetis
0.0001366	2	0	5	1.2	5.427e-07	85010	order	            Pseudonocardiales
0.0001366	2	0	5	1.2	5.427e-07	2070	family	              Pseudonocardiaceae
6.831e-05	1	0	1	1	4.873e-07	1813	genus	                Amycolatopsis
6.831e-05	1	1	1	1	2.227e-06	33910	species	                  Amycolatopsis mediterranei
6.831e-05	1	0	1	1	2.66e-06	1137960	genus	                Allokutzneria
6.831e-05	1	1	1	1	2.66e-06	211114	species	                  Allokutzneria albata
6.831e-05	1	0	3	1.67	1.308e-06	85013	order	            Frankiales
6.831e-05	1	0	3	1.67	1.426e-06	74712	family	              Frankiaceae
6.831e-05	1	0	2	2	9.358e-06	1434010	genus	                Jatrophihabitans
6.831e-05	1	1	2	2	9.358e-06	1907575	species	                  Jatrophihabitans sp. GAS493
6.831e-05	1	0	2	2	8.318e-07	85012	order	            Streptosporangiales
6.831e-05	1	0	1	2	8.935e-07	83676	family	              Nocardiopsaceae
6.831e-05	1	0	1	2	1.046e-06	2013	genus	                Nocardiopsis
6.831e-05	1	1	1	2	2.35e-06	2014	species	                  Nocardiopsis dassonvillei
6.831e-05	1	0	2	1.5	3.088e-06	1217098	order	            Jiangellales
6.831e-05	1	0	2	1.5	3.088e-06	1217100	family	              Jiangellaceae
6.831e-05	1	0	2	1.5	3.088e-06	281472	genus	                Jiangella
6.831e-05	1	1	2	1.5	6.443e-06	1798224	species	                  Jiangella sp. DSM 45060
6.831e-05	1	0	2	1	1.212e-06	2037	order	            Actinomycetales
6.831e-05	1	0	2	1	1.212e-06	2049	family	              Actinomycetaceae
6.831e-05	1	0	2	1	1.782e-06	1654	genus	                Actinomyces
6.831e-05	1	1	2	1	1.495e-05	544580	species	                  Actinomyces oris
6.831e-05	1	0	1	1	3.885e-07	85004	order	            Bifidobacteriales
6.831e-05	1	0	1	1	3.885e-07	31953	family	              Bifidobacteriaceae
6.831e-05	1	0	1	1	4.505e-07	1678	genus	                Bifidobacterium
6.831e-05	1	1	1	1	2.841e-06	216816	species	                  Bifidobacterium longum
6.831e-05	1	0	1	1	3.245e-06	85014	order	            Glycomycetales
6.831e-05	1	0	1	1	3.245e-06	85034	family	              Glycomycetaceae
6.831e-05	1	0	1	1	3.245e-06	283810	genus	                Stackebrandtia
6.831e-05	1	0	1	1	3.245e-06	283811	species	                  Stackebrandtia nassauensis
6.831e-05	1	1	1	1	3.245e-06	446470	no rank	                    Stackebrandtia nassauensis DSM 44728
6.831e-05	1	0	9	1.33	4.358e-06	84998	class	          Coriobacteriia
6.831e-05	1	0	9	1.33	7.007e-06	1643822	order	            Eggerthellales
6.831e-05	1	0	9	1.33	7.007e-06	1643826	family	              Eggerthellaceae
6.831e-05	1	0	9	1.33	2.704e-05	84111	genus	                Eggerthella
6.831e-05	1	0	9	1.33	4.625e-05	84112	species	                  Eggerthella lenta
6.831e-05	1	1	7	1.14	0.0001651	479437	no rank	                    Eggerthella lenta DSM 2243
0.00164	24	0	84	1.76	3.047e-06	1798711	no rank	        Cyanobacteria/Melainabacteria group
0.00164	24	0	84	1.76	3.047e-06	1117	phylum	          Cyanobacteria
0.001298	19	0	76	1.83	0.000252	1890505	order	            Chroococcidiopsidales
0.001298	19	0	76	1.83	0.000252	1890528	family	              Chroococcidiopsidaceae
0.001298	19	0	76	1.83	0.000252	54298	genus	                Chroococcidiopsis
0.001298	19	0	76	1.83	0.000252	54299	species	                  Chroococcidiopsis thermalis
0.001298	19	19	76	1.83	0.000252	251229	no rank	                    Chroococcidiopsis thermalis PCC 7203
0.0002733	4	1	5	1	4.219e-07	1161	order	            Nostocales
0.0001366	2	0	2	1	4.625e-07	1185	family	              Rivulariaceae
0.0001366	2	0	2	1	5.509e-07	1186	genus	                Calothrix
6.831e-05	1	0	1	1	2.402e-06	1973486	species	                  Calothrix parasitica
6.831e-05	1	1	1	1	2.402e-06	1973488	no rank	                    Calothrix parasitica NIES-267
6.831e-05	1	1	1	1	3.283e-06	99598	species	                  Calothrix sp. PCC 7507
6.831e-05	1	0	1	1	2.374e-07	1162	family	              Nostocaceae
6.831e-05	1	0	1	1	3.783e-07	1177	genus	                Nostoc
6.831e-05	1	0	1	1	3.402e-06	224012	species	                  Nostoc piscinale
6.831e-05	1	1	1	1	3.402e-06	224013	no rank	                    Nostoc piscinale CENA21
6.831e-05	1	0	2	1.5	2.828e-07	1890424	order	            Synechococcales
6.831e-05	1	0	1	2	2.834e-07	1890426	family	              Synechococcaceae
6.831e-05	1	1	1	2	4.772e-06	146785	genus	                Thermosynechococcus
0.00123	18	12	87	1.95	9.329e-07	1239	phylum	        Firmicutes
0.0002049	3	0	25	1.92	1.047e-06	186801	class	          Clostridia
0.0002049	3	0	24	1.92	1.184e-06	186802	order	            Clostridiales
0.0002049	3	0	24	1.92	8.598e-06	186803	family	              Lachnospiraceae
0.0001366	2	0	17	1.94	0.0001139	186928	no rank	                unclassified Lachnospiraceae
0.0001366	2	0	17	1.94	0.0001139	39491	species	                  [Eubacterium] rectale
0.0001366	2	2	17	1.94	0.0001139	515619	no rank	                    [Eubacterium] rectale ATCC 33656
6.831e-05	1	0	5	1.8	1.355e-05	572511	genus	                Blautia
6.831e-05	1	0	5	1.8	3.674e-05	1322	species	                  Blautia hansenii
6.831e-05	1	1	5	1.8	3.674e-05	537007	no rank	                    Blautia hansenii DSM 20583
0.0001366	2	0	22	1.41	3.354e-07	91061	class	          Bacilli
0.0001366	2	0	9	1.67	4.778e-07	186826	order	            Lactobacillales
0.0001366	2	0	5	1.8	8.104e-07	1300	family	              Streptococcaceae
0.0001366	2	1	5	1.8	9.682e-07	1301	genus	                Streptococcus
6.831e-05	1	1	1	2	3.581e-05	1839799	species	                  Streptococcus sp. FDAARGOS_192
6.831e-05	1	0	13	1	6.574e-06	909932	class	          Negativicutes
6.831e-05	1	0	10	1	4.666e-05	1843488	order	            Acidaminococcales
6.831e-05	1	0	10	1	4.666e-05	909930	family	              Acidaminococcaceae
6.831e-05	1	0	10	1	4.666e-05	904	genus	                Acidaminococcus
6.831e-05	1	0	10	1	9.094e-05	187327	species	                  Acidaminococcus intestini
6.831e-05	1	1	10	1	9.094e-05	568816	no rank	                    Acidaminococcus intestini RyC-MR95
0.001503	22	0	138	1.69	3.004e-06	1783270	no rank	      FCB group
0.001503	22	0	138	1.69	3.051e-06	68336	no rank	        Bacteroidetes/Chlorobi group
0.001503	22	0	138	1.69	3.195e-06	976	phylum	          Bacteroidetes
0.001366	20	0	132	1.7	1.732e-05	200643	class	            Bacteroidia
0.001366	20	0	131	1.69	1.95e-05	171549	order	              Bacteroidales
0.001366	20	0	130	1.69	4.837e-05	815	family	                Bacteroidaceae
0.001366	20	1	130	1.69	4.837e-05	816	genus	                  Bacteroides
0.0005465	8	8	46	1.78	0.0001751	28116	species	                    Bacteroides ovatus
0.0003416	5	5	30	1.67	0.0001421	821	species	                    Bacteroides vulgatus
0.0003416	5	5	28	1.68	8.922e-05	246787	species	                    Bacteroides cellulosilyticus
6.831e-05	1	1	10	1.1	2.917e-05	818	species	                    Bacteroides thetaiotaomicron
6.831e-05	1	0	2	1.5	8.257e-07	1853228	class	            Chitinophagia
6.831e-05	1	0	2	1.5	8.257e-07	1853229	order	              Chitinophagales
6.831e-05	1	0	2	1.5	8.257e-07	563835	family	                Chitinophagaceae
6.831e-05	1	0	2	1.5	2.631e-06	79328	genus	                  Chitinophaga
6.831e-05	1	1	2	1.5	5.76e-06	2033437	species	                    Chitinophaga sp. MD30
6.831e-05	1	0	1	1	5.376e-08	117743	class	            Flavobacteriia
6.831e-05	1	0	1	1	5.376e-08	200644	order	              Flavobacteriales
6.831e-05	1	1	1	1	5.597e-08	49546	family	                Flavobacteriaceae
6.831e-05	1	0	4	1	4.765e-07	1783257	no rank	      PVC group
6.831e-05	1	0	4	1	9.292e-07	203682	phylum	        Planctomycetes
6.831e-05	1	0	4	1	1.036e-06	203683	class	          Planctomycetia
6.831e-05	1	0	4	1	1.036e-06	112	order	            Planctomycetales
6.831e-05	1	0	4	1	1.65e-06	126	family	              Planctomycetaceae
6.831e-05	1	0	4	1	1.235e-05	265488	genus	                Rhodopirellula
6.831e-05	1	0	4	1	1.235e-05	265606	species	                  Rhodopirellula baltica
6.831e-05	1	1	4	1	1.235e-05	243090	no rank	                    Rhodopirellula baltica SH 1
0.0001366	2	0	14	2	1.578e-06	10239	superkingdom	  Viruses
0.0001366	2	0	14	2	0.0001578	12333	no rank	    unclassified bacterial viruses
0.0001366	2	0	14	2	0.003171	156614	no rank	      environmental samples
0.0001366	2	2	14	2	0.003171	1211417	species	        uncultured crAssphage
