# KrakenUniq v0.5.7 DATE:2019-04-15T15:41:54Z DB:/home/biouser/SAM/DBDIR/LIBRARY_MINIKRAKEN/minikraken_20171019_8GB DB_SIZE:8053064728 WD:/home/biouser/SAM
# CL:perl /home/biouser/miniconda3/bin/krakenuniq --db /home/biouser/SAM/DBDIR/LIBRARY_MINIKRAKEN/minikraken_20171019_8GB -paired /home/biouser/SAM/data/10-KPN_S9_R1.fastq.gz /home/biouser/SAM/data/10-KPN_S9_R2.fastq.gz --report-file /home/biouser/SAM/data/10-KPN_S9.krakenuniq.report.tsv

%	reads	taxReads	kmers	dup	cov	taxID	rank	taxName
0.8039	2139	2139	7864482	10.3	0.9162	0	no rank	unclassified
99.2	263949	106	248344	14.8	0.0003749	1	no rank	root
99.16	263843	1	248048	14.8	0.0003797	131567	no rank	  cellular organisms
99.16	263842	353	248048	14.8	0.0003927	2	superkingdom	    Bacteria
99.01	263467	325	247007	14.8	0.0007774	1224	phylum	      Proteobacteria
98.73	262710	912	243216	14.9	0.001591	1236	class	        Gammaproteobacteria
98.29	261544	2469	240773	14.9	0.005729	91347	order	          Enterobacterales
97.31	258940	7013	232056	14.8	0.01114	543	family	            Enterobacteriaceae
93.39	248491	24425	202815	15	0.06884	570	genus	              Klebsiella
83.91	223286	219516	106222	14.9	0.1231	573	species	                Klebsiella pneumoniae
1.092	2905	1863	533	11.2	0.006372	72407	subspecies	                  Klebsiella pneumoniae subsp. pneumoniae
0.1714	456	456	80	13	0.01112	1123862	no rank	                    Klebsiella pneumoniae subsp. pneumoniae Kp13
0.1026	273	273	50	9.38	0.006143	272620	no rank	                    Klebsiella pneumoniae subsp. pneumoniae MGH 78578
0.08982	239	239	46	9.78	0.005144	1328324	no rank	                    Klebsiella pneumoniae subsp. pneumoniae KPNIH27
0.01992	53	53	11	8.73	0.003059	1392499	no rank	                    Klebsiella pneumoniae subsp. pneumoniae 1158
0.006013	16	16	2	9	0.0009862	1125630	no rank	                    Klebsiella pneumoniae subsp. pneumoniae HS11286
0.001879	5	5	5	1.2	0.006935	1193292	no rank	                    Klebsiella pneumoniae subsp. pneumoniae 1084
0.1733	461	0	185	14	0.008411	39831	subspecies	                  Klebsiella pneumoniae subsp. rhinoscleromatis
0.1733	461	461	185	14	0.008411	861365	no rank	                    Klebsiella pneumoniae subsp. rhinoscleromatis SB3432
0.07855	209	209	70	8.14	0.01669	1365186	no rank	                  Klebsiella pneumoniae KP-1
0.04848	129	129	41	8.51	0.01001	1049565	no rank	                  Klebsiella pneumoniae KCTC 2242
0.02292	61	61	9	10.4	0.0003846	507522	no rank	                  Klebsiella pneumoniae 342
0.0007516	2	2	3	1	0.00297	1380908	no rank	                  Klebsiella pneumoniae JM45
0.0003758	1	1	2	1	0.007605	1420012	no rank	                  Klebsiella pneumoniae 30660/NJST258_1
0.0003758	1	1	1	1	0.001908	1244085	no rank	                  Klebsiella pneumoniae CG43
0.0003758	1	1	1	1	0.003436	1304922	no rank	                  Klebsiella pneumoniae 500_1420
0.118	314	303	111	13.5	0.0003578	548	species	                Klebsiella aerogenes
0.004134	11	11	7	5	0.0001537	1028307	no rank	                  Klebsiella aerogenes KCTC 2190
0.04923	131	117	68	7.19	0.0009321	244366	species	                Klebsiella variicola
0.005261	14	14	11	8.45	0.000758	640131	no rank	                  Klebsiella variicola At-22
0.0481	128	128	147	5.37	0.001245	2026240	species	                Klebsiella quasivariicola
0.03908	104	104	55	9.13	0.001615	1463165	species	                Klebsiella quasipneumoniae
0.02969	79	73	58	9.59	0.0001667	571	species	                Klebsiella oxytoca
0.002255	6	6	3	9	0.0001794	1333852	no rank	                  Klebsiella oxytoca KONIH1
0.003382	9	2	10	2.2	4.753e-05	1134687	species	                Klebsiella michiganensis
0.002631	7	7	1	11	0.0002068	1006551	no rank	                  Klebsiella michiganensis KCTC 1686
0.003382	9	9	3	7	8.98e-05	1934254	species	                Klebsiella sp. M5al
0.002255	6	6	7	12.6	0.0003433	1905288	species	                Klebsiella sp. LTGPAF-6F
0.7013	1866	137	629	14.6	0.0002949	561	genus	              Escherichia
0.6254	1664	1562	542	14.3	0.0003238	562	species	                Escherichia coli
0.02706	72	0	65	15	0.003479	168807	no rank	                  Escherichia coli O127:H6
0.02706	72	72	65	15	0.003479	574521	no rank	                    Escherichia coli O127:H6 str. E2348/69
0.007892	21	21	3	18.7	0.0002633	696406	no rank	                  Escherichia coli UMNK88
0.002255	6	6	1	6	0.0003908	1329907	no rank	                  Escherichia coli APEC IMT5155
0.0003758	1	0	2	1	0.0007599	498388	no rank	                  Escherichia coli C
0.0003758	1	1	2	1	0.000771	481805	no rank	                    Escherichia coli ATCC 8739
0.0003758	1	1	1	1	0.0004587	1358422	no rank	                  Escherichia coli PCN061
0.0003758	1	1	1	1	0.001256	1311757	no rank	                  Escherichia coli ACN001
0.02443	65	28	13	15.4	5.517e-05	208962	species	                Escherichia albertii
0.01391	37	37	3	19.3	0.0001193	1440052	no rank	                  Escherichia albertii KF1
0.218	580	3	254	10.7	6.65e-05	547	genus	              Enterobacter
0.1646	438	9	203	10.6	7.047e-05	354276	species group	                Enterobacter cloacae complex
0.1233	328	307	118	12.9	0.0001092	550	species	                  Enterobacter cloacae
0.005261	14	14	3	16.7	6.374e-05	1354030	no rank	                    Enterobacter cloacae P101
0.002631	7	0	4	13.5	7.93e-05	336306	subspecies	                    Enterobacter cloacae subsp. cloacae
0.002255	6	6	3	17.7	0.0002044	1211025	no rank	                      Enterobacter cloacae subsp. cloacae ENHKU01
0.0003758	1	1	1	1	2.801e-05	716541	no rank	                      Enterobacter cloacae subsp. cloacae ATCC 13047
0.0218	58	0	15	19.3	7.303e-05	158836	species	                  Enterobacter hormaechei
0.0218	58	58	14	19.2	0.0003678	299766	subspecies	                    Enterobacter hormaechei subsp. steigerwaltii
0.01015	27	13	17	6.94	6.926e-05	1334193	species	                  Enterobacter lignolyticus
0.005261	14	14	4	10.2	6.993e-05	701347	no rank	                    Enterobacter lignolyticus SCF1
0.006013	16	16	8	8.5	0.0003624	208224	species	                  Enterobacter kobei
0.03119	83	83	13	21	0.0005608	1827481	species	                Enterobacter sp. ODB01
0.01315	35	35	7	19.9	0.0001723	1868135	species	                Enterobacter sp. HK169
0.007892	21	21	10	7.8	4.836e-05	1692238	species	                Enterobacter sp. FY-07
0.1962	522	0	167	13	8.134e-05	590	genus	              Salmonella
0.1962	522	27	164	13.2	9.131e-05	28901	species	                Salmonella enterica
0.1702	453	237	124	14.6	0.0001647	59201	subspecies	                  Salmonella enterica subsp. enterica
0.0218	58	0	9	22.2	0.003031	29482	no rank	                    Salmonella enterica subsp. enterica serovar Abony
0.0218	58	58	9	22.2	0.003031	1029983	no rank	                      Salmonella enterica subsp. enterica serovar Abony str. 0014
0.01578	42	0	11	9.91	0.00221	58096	no rank	                    Salmonella enterica subsp. enterica serovar Bareilly
0.01578	42	42	11	9.91	0.00221	1173427	no rank	                      Salmonella enterica subsp. enterica serovar Bareilly str. CFSAN000189
0.01278	34	34	4	25.8	0.000237	595	no rank	                    Salmonella enterica subsp. enterica serovar Infantis
0.00714	19	0	4	23.8	0.0003759	1242081	no rank	                    Salmonella enterica subsp. enterica serovar Hillingdon
0.00714	19	19	4	23.8	0.0003759	1242096	no rank	                      Salmonella enterica subsp. enterica serovar Hillingdon str. N1529-D3
0.00714	19	0	4	17.5	0.0002665	192954	no rank	                    Salmonella enterica subsp. enterica serovar Mbandaka
0.00714	19	19	4	17.5	0.0002665	984237	no rank	                      Salmonella enterica subsp. enterica serovar Mbandaka str. ATCC 51958
0.003382	9	9	4	12.8	0.0001757	90370	no rank	                    Salmonella enterica subsp. enterica serovar Typhi
0.003007	8	0	2	13	0.0003679	115981	no rank	                    Salmonella enterica subsp. enterica serovar Montevideo
0.003007	8	8	2	13	0.0009005	859199	no rank	                      Salmonella enterica subsp. enterica serovar Montevideo str. 507440-20
0.003007	8	0	1	24	0.0001063	1242079	no rank	                    Salmonella enterica subsp. enterica serovar Apapa
0.003007	8	8	1	24	0.0001063	1242088	no rank	                      Salmonella enterica subsp. enterica serovar Apapa str. SA20060561
0.003007	8	0	1	22	0.0001384	82689	no rank	                    Salmonella enterica subsp. enterica serovar Muenster
0.003007	8	8	1	22	0.0001384	1124958	no rank	                      Salmonella enterica subsp. enterica serovar Muenster str. 0315
0.001503	4	3	2	8.5	7.551e-05	90371	no rank	                    Salmonella enterica subsp. enterica serovar Typhimurium
0.0003758	1	1	1	1	0.005051	1008297	no rank	                      Salmonella enterica subsp. enterica serovar Typhimurium str. 798
0.0007516	2	1	4	1	0.0002175	58712	no rank	                    Salmonella enterica subsp. enterica serovar Anatum
0.0003758	1	1	3	1	0.004127	1454584	no rank	                      Salmonella enterica subsp. enterica serovar Anatum str. USDA-ARS-USMARC-1727
0.0003758	1	0	1	8	0.0003166	340190	no rank	                    Salmonella enterica subsp. enterica serovar Schwarzengrund
0.0003758	1	1	1	8	0.0003166	439843	no rank	                      Salmonella enterica subsp. enterica serovar Schwarzengrund str. CVM19633
0.0003758	1	1	2	1	9.071e-05	108619	no rank	                    Salmonella enterica subsp. enterica serovar Newport
0.0003758	1	1	1	1	7.196e-05	28150	no rank	                    Salmonella enterica subsp. enterica serovar Senftenberg
0.0003758	1	0	1	1	0.0001631	211968	no rank	                    Salmonella enterica subsp. enterica serovar Albany
0.0003758	1	1	1	1	0.0001631	1173798	no rank	                      Salmonella enterica subsp. enterica serovar Albany str. ATCC 51960
0.0003758	1	1	1	1	5.678e-05	57743	no rank	                    Salmonella enterica subsp. enterica serovar Weltevreden
0.01428	38	37	15	13.3	0.0001149	59204	subspecies	                  Salmonella enterica subsp. diarizonae
0.0003758	1	0	1	1	5.215e-05	1243615	no rank	                    Salmonella enterica subsp. diarizonae serovar 65:c:z
0.0003758	1	1	1	1	5.215e-05	1243616	no rank	                      Salmonella enterica subsp. diarizonae serovar 65:c:z str. SA20044251
0.001503	4	0	7	7.71	4.12e-05	59202	subspecies	                  Salmonella enterica subsp. salamae
0.001503	4	0	4	5	4.082e-05	1243601	no rank	                    Salmonella enterica subsp. salamae serovar 55:k:z39
0.001503	4	4	4	5	4.082e-05	1243602	no rank	                      Salmonella enterica subsp. salamae serovar 55:k:z39 str. 1315K
0.1045	278	2	191	8.27	7.388e-05	544	genus	              Citrobacter
0.09207	245	9	150	9.37	0.00012	1344959	species group	                Citrobacter freundii complex
0.07817	208	185	116	10.1	0.0002101	546	species	                  Citrobacter freundii
0.008644	23	23	7	12.6	6.32e-05	1333848	no rank	                    Citrobacter freundii CFNIH1
0.01015	27	27	20	6	6.943e-05	67827	species	                  Citrobacter werkmanii
0.0003758	1	1	7	8.43	4.111e-05	57706	species	                  Citrobacter braakii
0.007516	20	0	3	15.7	1.501e-05	67825	species	                Citrobacter rodentium
0.007516	20	20	3	15.7	1.501e-05	637910	no rank	                  Citrobacter rodentium ICC168
0.004134	11	11	5	8.2	3.035e-05	67824	species	                Citrobacter farmeri
0.0451	120	0	74	11.4	0.0003209	579	genus	              Kluyvera
0.0451	120	120	74	11.4	0.0003209	61648	species	                Kluyvera intermedia
0.007892	21	0	43	3.77	7.916e-05	160674	genus	              Raoultella
0.007892	21	21	43	3.77	7.916e-05	54291	species	                Raoultella ornithinolytica
0.007516	20	0	12	7.25	1.809e-05	158483	genus	              Cedecea
0.007516	20	20	12	7.25	1.809e-05	158822	species	                Cedecea neteri
0.00451	12	0	22	5.91	2.273e-05	1330547	genus	              Kosakonia
0.00451	12	12	14	7.64	4.377e-05	208223	species	                Kosakonia cowanii
0.002631	7	2	6	8.83	1.182e-05	1330545	genus	              Lelliottia
0.001879	5	5	3	11.3	1.715e-05	1907578	species	                Lelliottia sp. PFL01
0.001503	4	1	31	4.52	2.549e-05	413496	genus	              Cronobacter
0.001127	3	0	3	4	2.299e-05	413502	species	                Cronobacter turicensis
0.001127	3	3	3	4	2.299e-05	693216	no rank	                  Cronobacter turicensis z3032
0.001127	3	0	5	1	5.745e-05	620	genus	              Shigella
0.0003758	1	0	2	1	9.683e-05	622	species	                Shigella dysenteriae
0.0003758	1	1	2	1	9.683e-05	300267	no rank	                  Shigella dysenteriae Sd197
0.0003758	1	0	2	1	7.106e-05	623	species	                Shigella flexneri
0.0003758	1	0	2	1	0.001333	42897	no rank	                  Shigella flexneri 2a
0.0003758	1	1	2	1	0.004566	198215	no rank	                    Shigella flexneri 2a str. 2457T
0.0003758	1	1	1	1	5.201e-05	621	species	                Shigella boydii
0.0003758	1	0	7	4.71	3.712e-05	83654	genus	              Leclercia
0.0003758	1	1	7	4.71	3.712e-05	83655	species	                Leclercia adecarboxylata
0.0003758	1	0	10	1.7	1.05e-05	191675	no rank	              unclassified Enterobacteriaceae
0.0003758	1	0	10	1.7	2.853e-05	36866	no rank	                unclassified Enterobacteriaceae (miscellaneous)
0.0003758	1	1	6	1	3.726e-05	891974	species	                  Plautia stali symbiont
0.0003758	1	0	6	1	3.442e-05	1335483	genus	              Shimwellia
0.0003758	1	0	6	1	3.442e-05	563	species	                Shimwellia blattae
0.0003758	1	1	6	1	3.442e-05	630626	no rank	                  Shimwellia blattae DSM 4481 = NBRC 105725
0.02706	72	0	59	9.83	8.742e-06	1903411	family	            Yersiniaceae
0.02706	72	0	47	10.7	1.295e-05	613	genus	              Serratia
0.0218	58	35	23	16.1	2.221e-05	615	species	                Serratia marcescens
0.008644	23	23	4	22.8	4.156e-05	1249634	no rank	                  Serratia marcescens FGI94
0.005261	14	14	4	14.5	4.02e-05	61652	species	                Serratia rubidaea
0.02029	54	0	26	13.2	7.893e-06	1903414	family	            Morganellaceae
0.01954	52	0	20	16.2	8.374e-05	581	genus	              Morganella
0.01954	52	52	20	16.2	8.374e-05	582	species	                Morganella morganii
0.0003758	1	0	2	7	1.917e-06	626	genus	              Xenorhabdus
0.0003758	1	1	1	1	5.435e-06	628	species	                Xenorhabdus nematophila
0.0003758	1	0	2	1	2.014e-06	586	genus	              Providencia
0.0003758	1	0	2	1	1.278e-05	516075	species	                Providencia sneebia
0.0003758	1	1	2	1	1.278e-05	1141660	no rank	                  Providencia sneebia DSM 19967
0.002631	7	0	29	3.52	5.856e-06	1903410	family	            Pectobacteriaceae
0.001127	3	1	17	4.76	6.743e-06	204037	genus	              Dickeya
0.0007516	2	2	1	22	1.038e-05	568766	species	                Dickeya sp. NCPPB 3274
0.0007516	2	2	2	5.5	1.35e-06	122277	genus	              Pectobacterium
0.0007516	2	0	6	1	1.215e-05	84565	genus	              Sodalis
0.0003758	1	0	2	1	2.215e-05	1486991	species	                Candidatus Sodalis pierantonius
0.0003758	1	1	2	1	2.215e-05	2342	no rank	                  Candidatus Sodalis pierantonius str. SOPE
0.0003758	1	1	2	1	1.24e-05	1239307	species	                Sodalis praecaptivus
0.0003758	1	0	25	3.12	6.243e-06	1903409	family	            Erwiniaceae
0.0003758	1	0	8	4	7.739e-06	551	genus	              Erwinia
0.0003758	1	0	1	1	5.919e-06	338565	species	                Erwinia tasmaniensis
0.0003758	1	1	1	1	5.919e-06	465817	no rank	                  Erwinia tasmaniensis Et1/99
0.0003758	1	0	16	1	1.029e-05	1903412	family	            Hafniaceae
0.0003758	1	1	15	1	1.85e-05	635	genus	              Edwardsiella
0.08757	233	0	86	21.6	8.277e-06	135623	order	          Vibrionales
0.08757	233	0	86	21.6	8.277e-06	641	family	            Vibrionaceae
0.08757	233	0	85	21.9	9.999e-06	662	genus	              Vibrio
0.07892	210	210	78	22.4	0.0002986	674	species	                Vibrio mimicus
0.008644	23	0	5	22.4	2.542e-05	29494	species	                Vibrio furnissii
0.008644	23	23	5	22.4	2.542e-05	903510	no rank	                  Vibrio furnissii NCTC 11218
0.003758	10	0	13	5.77	8.04e-07	135622	order	          Alteromonadales
0.003382	9	0	8	8.75	1.537e-06	72275	family	            Alteromonadaceae
0.003007	8	0	4	15.5	1.947e-06	2742	genus	              Marinobacter
0.003007	8	0	4	15.5	1.404e-05	2743	species	                Marinobacter hydrocarbonoclasticus
0.003007	8	8	4	15.5	3.612e-05	351348	no rank	                  Marinobacter hydrocarbonoclasticus VT8
0.0003758	1	0	3	2.33	1.441e-06	226	genus	              Alteromonas
0.0003758	1	1	2	3	4.054e-06	314275	species	                Alteromonas mediterranea
0.0003758	1	0	2	1	5.922e-06	267894	family	            Psychromonadaceae
0.0003758	1	0	2	1	5.922e-06	67572	genus	              Psychromonas
0.0003758	1	0	1	1	4.952e-06	357794	species	                Psychromonas ingrahamii
0.0003758	1	1	1	1	4.952e-06	357804	no rank	                  Psychromonas ingrahamii 37
0.003007	8	0	9	9.56	3.135e-06	135624	order	          Aeromonadales
0.003007	8	0	9	9.56	3.135e-06	84642	family	            Aeromonadaceae
0.003007	8	0	9	9.56	4.289e-06	642	genus	              Aeromonas
0.003007	8	8	4	20.2	2.222e-05	652	species	                Aeromonas schubertii
0.0003758	1	0	15	4.73	3.434e-07	72274	order	          Pseudomonadales
0.0003758	1	0	15	4.73	3.959e-07	135621	family	            Pseudomonadaceae
0.0003758	1	0	14	5	3.769e-07	286	genus	              Pseudomonas
0.0003758	1	0	4	1	1.228e-06	136845	species group	                Pseudomonas putida group
0.0003758	1	0	4	1	1.854e-06	303	species	                  Pseudomonas putida
0.0003758	1	1	3	1	0.000324	1193499	no rank	                    Pseudomonas putida SJTE-1
0.0003758	1	0	7	1.14	9.472e-07	135619	order	          Oceanospirillales
0.0003758	1	0	6	1.17	1.715e-06	28256	family	            Halomonadaceae
0.0003758	1	1	3	1.33	9.803e-06	504090	genus	              Kushneria
0.0003758	1	0	2	2	7.749e-07	72273	order	          Thiotrichales
0.0003758	1	0	2	2	2.116e-06	135616	family	            Piscirickettsiaceae
0.0003758	1	0	2	2	1.82e-05	28884	genus	              Hydrogenovibrio
0.0003758	1	0	2	2	1.82e-05	39765	species	                Hydrogenovibrio crunogenus
0.0003758	1	1	2	2	1.82e-05	317025	no rank	                  Hydrogenovibrio crunogenus XCL-2
0.1526	406	0	3446	1.14	5.762e-05	28216	class	        Betaproteobacteria
0.1526	406	1	3431	1.14	6.752e-05	80840	order	          Burkholderiales
0.1507	401	4	3347	1.14	0.0001259	119060	family	            Burkholderiaceae
0.1488	396	19	3195	1.14	0.001347	48736	genus	              Ralstonia
0.1248	332	93	2452	1.14	0.006654	329	species	                Ralstonia pickettii
0.0481	128	128	644	1.15	0.005111	428406	no rank	                  Ralstonia pickettii 12D
0.04172	111	111	757	1.12	0.00708	402626	no rank	                  Ralstonia pickettii 12J
0.0124	33	33	269	1.16	0.001643	105219	species	                Ralstonia mannitolilytica
0.002631	7	6	23	1.04	2.144e-05	305	species	                Ralstonia solanacearum
0.0003758	1	1	1	2	4.9e-05	267608	no rank	                  Ralstonia solanacearum GMI1000
0.001879	5	5	26	1.12	7.102e-05	190721	species	                Ralstonia insidiosa
0.0003758	1	0	8	1	5.459e-07	32008	genus	              Burkholderia
0.0003758	1	1	5	1	6.467e-07	87882	species group	                Burkholderia cepacia complex
0.001127	3	0	27	1.11	3.058e-06	80864	family	            Comamonadaceae
0.0007516	2	0	19	1.16	1.346e-05	12916	genus	              Acidovorax
0.0007516	2	2	19	1.16	0.0001372	1858609	species	                Acidovorax sp. T1
0.0003758	1	0	5	1	2.16e-05	201096	genus	              Alicycliphilus
0.0003758	1	0	5	1	2.16e-05	179636	species	                Alicycliphilus denitrificans
0.0003758	1	1	5	1	0.0001159	596153	no rank	                  Alicycliphilus denitrificans BC
0.0003758	1	0	1	1	3.526e-07	119065	no rank	            unclassified Burkholderiales
0.0003758	1	1	1	1	3.516e-06	413882	species	              [Polyangium] brachysporum
0.009771	26	2	62	1.81	8.033e-07	28211	class	        Alphaproteobacteria
0.00451	12	0	25	1	2.012e-06	204455	order	          Rhodobacterales
0.00451	12	2	25	1	2.123e-06	31989	family	            Rhodobacteraceae
0.001879	5	0	9	1	1.168e-05	265	genus	              Paracoccus
0.001127	3	3	4	1	2.001e-05	147645	species	                Paracoccus yeei
0.0003758	1	0	3	1	1.36e-05	266	species	                Paracoccus denitrificans
0.0003758	1	1	3	1	1.36e-05	318586	no rank	                  Paracoccus denitrificans PD1222
0.0003758	1	0	1	1	4.668e-06	34003	species	                Paracoccus aminophilus
0.0003758	1	1	1	1	4.668e-06	1367847	no rank	                  Paracoccus aminophilus JCM 7686
0.0007516	2	0	2	1	1.802e-06	1060	genus	              Rhodobacter
0.0003758	1	0	1	1	1.683e-06	1063	species	                Rhodobacter sphaeroides
0.0003758	1	1	1	1	5.498e-06	349102	no rank	                  Rhodobacter sphaeroides ATCC 17025
0.0003758	1	0	1	1	5.986e-06	1061	species	                Rhodobacter capsulatus
0.0003758	1	1	1	1	5.986e-06	272942	no rank	                  Rhodobacter capsulatus SB 1003
0.0003758	1	0	1	1	4.513e-06	367771	genus	              Marinovum
0.0003758	1	0	1	1	4.513e-06	42444	species	                Marinovum algicola
0.0003758	1	1	1	1	4.513e-06	988812	no rank	                  Marinovum algicola DG 898
0.0003758	1	0	1	1	5.343e-06	309512	genus	              Dinoroseobacter
0.0003758	1	0	1	1	5.343e-06	215813	species	                Dinoroseobacter shibae
0.0003758	1	1	1	1	5.343e-06	398580	no rank	                  Dinoroseobacter shibae DFL 12 = DSM 16493
0.0003758	1	0	1	1	1.577e-06	34008	genus	              Rhodovulum
0.0003758	1	1	1	1	6.596e-06	308754	species	                Rhodovulum sp. MB263
0.003382	9	2	19	1.05	4.905e-07	356	order	          Rhizobiales
0.001127	3	0	5	1.2	5.098e-07	41294	family	            Bradyrhizobiaceae
0.0007516	2	0	2	1.5	3.318e-07	374	genus	              Bradyrhizobium
0.0003758	1	1	1	2	9.098e-07	1437360	species	                Bradyrhizobium erythrophlei
0.0003758	1	1	1	1	3.686e-06	335659	species	                Bradyrhizobium sp. S23321
0.0003758	1	0	1	1	9.668e-07	85413	genus	              Bosea
0.0003758	1	1	1	1	4.205e-06	1792307	species	                Bosea sp. PAMC 26642
0.0007516	2	0	5	1	3.757e-07	82115	family	            Rhizobiaceae
0.0007516	2	0	4	1	4.506e-07	227290	no rank	              Rhizobium/Agrobacterium group
0.0007516	2	2	4	1	6.233e-07	379	genus	                Rhizobium
0.0003758	1	1	2	1	2.89e-06	335928	family	            Xanthobacteraceae
0.0003758	1	0	1	1	2.593e-07	69277	family	            Phyllobacteriaceae
0.0003758	1	1	1	1	3.629e-07	68287	genus	              Mesorhizobium
0.0007516	2	0	5	5.6	5.849e-07	204441	order	          Rhodospirillales
0.0003758	1	0	3	8.67	7.072e-07	433	family	            Acetobacteraceae
0.0003758	1	0	1	1	4.149e-06	125216	genus	              Roseomonas
0.0003758	1	1	1	1	4.149e-06	257708	species	                Roseomonas gilardii
0.0003758	1	0	1	1	2.323e-07	41295	family	            Rhodospirillaceae
0.0003758	1	0	1	1	5.819e-07	191	genus	              Azospirillum
0.0003758	1	1	1	1	1.403e-06	192	species	                Azospirillum brasilense
0.0003758	1	0	3	1	2.659e-07	204457	order	          Sphingomonadales
0.0003758	1	0	2	1	2.274e-07	41297	family	            Sphingomonadaceae
0.0003758	1	0	1	1	5.155e-06	150203	genus	              Blastomonas
0.0003758	1	1	1	1	5.155e-06	1842535	species	                Blastomonas sp. RAC04
0.007892	21	0	139	1.63	5.719e-07	1783272	no rank	      Terrabacteria group
0.005261	14	0	81	1.14	7.199e-07	201174	phylum	        Actinobacteria
0.005261	14	2	80	1.14	7.32e-07	1760	class	          Actinobacteria
0.001879	5	0	34	1.15	6.669e-06	85009	order	            Propionibacteriales
0.001879	5	0	34	1.15	1.312e-05	31957	family	              Propionibacteriaceae
0.001503	4	0	26	1.19	5.416e-05	1912216	genus	                Cutibacterium
0.001503	4	4	26	1.19	0.0001333	1747	species	                  Cutibacterium acnes
0.0003758	1	0	8	1	3.038e-05	1743	genus	                Propionibacterium
0.0003758	1	1	8	1	7.26e-05	671223	species	                  Propionibacterium sp. oral taxon 193
0.0007516	2	0	4	1.75	4.342e-07	85010	order	            Pseudonocardiales
0.0007516	2	0	4	1.75	4.342e-07	2070	family	              Pseudonocardiaceae
0.0007516	2	0	2	1.5	9.746e-07	1813	genus	                Amycolatopsis
0.0003758	1	0	1	2	3.191e-06	1814	species	                  Amycolatopsis methanolica
0.0003758	1	1	1	2	3.191e-06	1068978	no rank	                    Amycolatopsis methanolica 239
0.0003758	1	1	1	1	1.732e-06	31958	species	                  Amycolatopsis orientalis
0.0007516	2	0	4	1	5.811e-06	1643682	order	            Geodermatophilales
0.0007516	2	0	4	1	5.811e-06	85030	family	              Geodermatophilaceae
0.0003758	1	0	2	1	9.488e-06	38501	genus	                Blastococcus
0.0003758	1	0	2	1	9.488e-06	138336	species	                  Blastococcus saxobsidens
0.0003758	1	1	2	1	9.488e-06	1146883	no rank	                    Blastococcus saxobsidens DD2
0.0003758	1	0	1	1	4.337e-06	1860	genus	                Geodermatophilus
0.0003758	1	0	1	1	4.337e-06	1861	species	                  Geodermatophilus obscurus
0.0003758	1	1	1	1	4.337e-06	526225	no rank	                    Geodermatophilus obscurus DSM 43160
0.0003758	1	0	22	1.09	1.262e-06	85006	order	            Micrococcales
0.0003758	1	0	22	1.09	4.036e-06	1268	family	              Micrococcaceae
0.0003758	1	0	22	1.09	0.0002045	1269	genus	                Micrococcus
0.0003758	1	1	22	1.09	0.0002045	1270	species	                  Micrococcus luteus
0.0003758	1	0	3	1	1.047e-07	85007	order	            Corynebacteriales
0.0003758	1	0	2	1	1.639e-07	1762	family	              Mycobacteriaceae
0.0003758	1	1	2	1	1.669e-07	1763	genus	                Mycobacterium
0.0003758	1	0	2	1	7.209e-08	85011	order	            Streptomycetales
0.0003758	1	0	2	1	7.209e-08	2062	family	              Streptomycetaceae
0.0003758	1	0	2	1	7.492e-08	1883	genus	                Streptomyces
0.0003758	1	1	1	1	3.917e-06	408015	species	                  Streptomyces xiamenensis
0.002631	7	0	57	2.35	6.112e-07	1239	phylum	        Firmicutes
0.001503	4	0	31	3.03	4.727e-07	91061	class	          Bacilli
0.001503	4	0	27	1.96	1.433e-06	186826	order	            Lactobacillales
0.001503	4	0	21	1.71	3.404e-06	1300	family	              Streptococcaceae
0.001503	4	3	21	1.71	4.066e-06	1301	genus	                Streptococcus
0.0003758	1	1	1	2	4.203e-06	1304	species	                  Streptococcus salivarius
0.0003758	1	0	19	1.37	7.956e-07	186801	class	          Clostridia
0.0003758	1	0	19	1.37	9.376e-07	186802	order	            Clostridiales
0.0003758	1	0	19	1.37	6.807e-06	186803	family	              Lachnospiraceae
0.0003758	1	0	19	1.37	0.0001273	186928	no rank	                unclassified Lachnospiraceae
0.0003758	1	0	19	1.37	0.0001273	39491	species	                  [Eubacterium] rectale
0.0003758	1	1	19	1.37	0.0001273	515619	no rank	                    [Eubacterium] rectale ATCC 33656
0.0003758	1	0	4	2	2.023e-06	909932	class	          Negativicutes
0.0003758	1	0	4	2	7.722e-06	1843489	order	            Veillonellales
0.0003758	1	0	4	2	7.722e-06	31977	family	              Veillonellaceae
0.0003758	1	0	4	2	1.618e-05	29465	genus	                Veillonella
0.0003758	1	1	3	2	1.934e-05	29466	species	                  Veillonella parvula
0.0003758	1	0	3	2	3.906e-06	1737404	class	          Tissierellia
0.0003758	1	0	3	2	4.339e-06	1737405	order	            Tissierellales
0.0003758	1	0	3	2	5.442e-06	1570339	family	              Peptoniphilaceae
0.0003758	1	0	3	2	4.225e-05	543311	genus	                Parvimonas
0.0003758	1	1	3	2	4.225e-05	33033	species	                  Parvimonas micra
0.0003758	1	0	8	1.75	1.742e-07	1783270	no rank	      FCB group
0.0003758	1	0	8	1.75	1.769e-07	68336	no rank	        Bacteroidetes/Chlorobi group
0.0003758	1	0	8	1.75	1.852e-07	976	phylum	          Bacteroidetes
0.0003758	1	0	8	1.75	1.05e-06	200643	class	            Bacteroidia
0.0003758	1	0	8	1.75	1.191e-06	171549	order	              Bacteroidales
0.0003758	1	0	8	1.75	6.025e-06	171552	family	                Prevotellaceae
0.0003758	1	0	8	1.75	6.025e-06	838	genus	                  Prevotella
0.0003758	1	1	8	1.75	3.294e-05	28131	species	                    Prevotella intermedia
