# KrakenUniq v0.5.7 DATE:2019-04-15T17:01:27Z DB:/home/biouser/SAM/DBDIR/LIBRARY_MINIKRAKEN/minikraken_20171019_8GB DB_SIZE:8053064728 WD:/home/biouser/SAM
# CL:perl /home/biouser/miniconda3/bin/krakenuniq --db /home/biouser/SAM/DBDIR/LIBRARY_MINIKRAKEN/minikraken_20171019_8GB -paired /home/biouser/SAM/data/4-NTS_S4_mixed_with_5%_5-NTS_S5_R1.fastq.gz /home/biouser/SAM/data/4-NTS_S4_mixed_with_5%_5-NTS_S5_R2.fastq.gz --report-file /home/biouser/SAM/data/4-NTS_S4_mixed_with_5%_5-NTS_S5.krakenuniq.report.tsv

%	reads	taxReads	kmers	dup	cov	taxID	rank	taxName
0.06332	545	545	14454557	17.6	1.684	0	no rank	unclassified
99.94	860199	9242	280511	42	0.0004234	1	no rank	root
98.86	850954	1	276099	41.6	0.0004226	131567	no rank	  cellular organisms
98.86	850953	846	276099	41.6	0.0004372	2	superkingdom	    Bacteria
98.76	850105	1159	275755	41.4	0.0008679	1224	phylum	      Proteobacteria
98.62	848843	1735	274514	41.4	0.001796	1236	class	        Gammaproteobacteria
98.41	847101	2528	273321	41.2	0.006504	91347	order	          Enterobacterales
98.12	844549	24853	267454	40.8	0.01284	543	family	            Enterobacteriaceae
93.97	808861	6397	247324	39	0.1205	590	genus	              Salmonella
93.23	802458	760993	227108	38.6	0.1264	28901	species	                Salmonella enterica
4.707	40518	18464	8035	29.3	0.01067	59201	subspecies	                  Salmonella enterica subsp. enterica
2.177	18736	18698	2740	51.8	0.1035	90371	no rank	                    Salmonella enterica subsp. enterica serovar Typhimurium
0.0008132	7	7	15	1.07	0.04087	1454639	no rank	                      Salmonella enterica subsp. enterica serovar Typhimurium str. USDA-ARS-USMARC-1899
0.0006971	6	6	6	1	0.017	1029978	no rank	                      Salmonella enterica subsp. enterica serovar Typhimurium str. SARA13
0.0005809	5	5	9	1	0.01152	568709	no rank	                      Salmonella enterica subsp. enterica serovar Typhimurium str. DT2
0.0005809	5	5	4	1.25	0.0202	1008297	no rank	                      Salmonella enterica subsp. enterica serovar Typhimurium str. 798
0.0003485	3	3	3	1.33	0.03093	1454647	no rank	                      Salmonella enterica subsp. enterica serovar Typhimurium str. USDA-ARS-USMARC-1810
0.0003485	3	3	3	1	0.04478	1454634	no rank	                      Salmonella enterica subsp. enterica serovar Typhimurium str. USDA-ARS-USMARC-1880
0.0001162	1	1	2	1	0.3333	1454645	no rank	                      Salmonella enterica subsp. enterica serovar Typhimurium str. CDC 2009K-2059
0.0001162	1	1	2	1	0.002706	1454638	no rank	                      Salmonella enterica subsp. enterica serovar Typhimurium str. USDA-ARS-USMARC-1898
0.0001162	1	0	2	1	0.1111	99287	no rank	                      Salmonella enterica subsp. enterica serovar Typhimurium str. LT2
0.0001162	1	1	2	1	0.1111	588858	no rank	                        Salmonella enterica subsp. enterica serovar Typhimurium str. 14028S
0.0001162	1	1	2	1	0.05263	85569	no rank	                      Salmonella enterica subsp. enterica serovar Typhimurium str. DT104
0.0001162	1	1	2	1	0.007634	718274	no rank	                      Salmonella enterica subsp. enterica serovar Typhimurium str. T000240
0.0001162	1	1	1	1	0.002985	1454643	no rank	                      Salmonella enterica subsp. enterica serovar Typhimurium str. CDC 2011K-1702
0.0001162	1	1	1	1	0.025	1454641	no rank	                      Salmonella enterica subsp. enterica serovar Typhimurium str. CDC 2010K-1587
0.0001162	1	1	1	1	0.004525	1171376	no rank	                      Salmonella enterica subsp. enterica serovar Typhimurium str. U288
0.0001162	1	1	1	1	0.001447	568708	no rank	                      Salmonella enterica subsp. enterica serovar Typhimurium str. D23580
0.2094	1802	0	98	49.7	0.03102	340190	no rank	                    Salmonella enterica subsp. enterica serovar Schwarzengrund
0.2094	1802	1802	98	49.7	0.03102	439843	no rank	                      Salmonella enterica subsp. enterica serovar Schwarzengrund str. CVM19633
0.01231	106	0	155	1.01	0.003367	1242085	no rank	                    Salmonella enterica subsp. enterica serovar Macclesfield
0.01231	106	106	155	1.01	0.003367	1242107	no rank	                      Salmonella enterica subsp. enterica serovar Macclesfield str. S-1643
0.01115	96	95	162	1.06	0.007117	90370	no rank	                    Salmonella enterica subsp. enterica serovar Typhi
0.0001162	1	1	3	1	0.004184	527001	no rank	                      Salmonella enterica subsp. enterica serovar Typhi str. Ty21a
0.01034	89	5	14	11.4	0.005269	611	no rank	                    Salmonella enterica subsp. enterica serovar Heidelberg
0.00941	81	81	3	49.7	0.01327	1124936	no rank	                      Salmonella enterica subsp. enterica serovar Heidelberg str. 41578
0.0002324	2	2	3	1	0.07692	1029997	no rank	                      Salmonella enterica subsp. enterica serovar Heidelberg str. SARA35
0.0001162	1	1	1	1	0.01429	1271864	no rank	                      Salmonella enterica subsp. enterica serovar Heidelberg str. CFSAN002069
0.009178	79	38	91	1.25	0.01286	149539	no rank	                    Salmonella enterica subsp. enterica serovar Enteritidis
0.001162	10	10	4	3.75	0.1818	550537	no rank	                      Salmonella enterica subsp. enterica serovar Enteritidis str. P125109
0.0004647	4	4	4	1	0.02597	1412618	no rank	                      Salmonella enterica subsp. enterica serovar Enteritidis str. EC20120929
0.0003485	3	3	1	3	0.01042	1244111	no rank	                      Salmonella enterica subsp. enterica serovar Enteritidis str. EC20110357
0.0003485	3	3	2	1.5	0.00692	1412570	no rank	                      Salmonella enterica subsp. enterica serovar Enteritidis str. EC20120916
0.0002324	2	2	3	1	0.02439	1412600	no rank	                      Salmonella enterica subsp. enterica serovar Enteritidis str. EC20100325
0.0001162	1	1	3	1	0.04545	1412495	no rank	                      Salmonella enterica subsp. enterica serovar Enteritidis str. SA20123395
0.0001162	1	1	3	1	0.2308	1412597	no rank	                      Salmonella enterica subsp. enterica serovar Enteritidis str. EC20121180
0.0001162	1	1	3	1	0.3	1412566	no rank	                      Salmonella enterica subsp. enterica serovar Enteritidis str. EC20120555
0.0001162	1	1	2	1	0.1053	1412514	no rank	                      Salmonella enterica subsp. enterica serovar Enteritidis str. SA20093421
0.0001162	1	1	2	1	0.08	1412493	no rank	                      Salmonella enterica subsp. enterica serovar Enteritidis str. SA19942384
0.0001162	1	1	2	1	0.05556	1412452	no rank	                      Salmonella enterica subsp. enterica serovar Enteritidis str. SA19992322
0.0001162	1	1	2	1	0.02667	1412594	no rank	                      Salmonella enterica subsp. enterica serovar Enteritidis str. EC20121177
0.0001162	1	1	2	1	0.07407	1412601	no rank	                      Salmonella enterica subsp. enterica serovar Enteritidis str. EC20120051
0.0001162	1	1	2	1	0.1538	1412609	no rank	                      Salmonella enterica subsp. enterica serovar Enteritidis str. EC20120734
0.0001162	1	1	1	1	0.02041	1244119	no rank	                      Salmonella enterica subsp. enterica serovar Enteritidis str. EC20110361
0.0001162	1	1	1	1	0.0101	696867	no rank	                      Salmonella enterica subsp. enterica serovar Enteritidis str. 18569
0.0001162	1	1	1	1	0.01695	1412555	no rank	                      Salmonella enterica subsp. enterica serovar Enteritidis str. EC20121765
0.0001162	1	1	1	1	0.06667	1412531	no rank	                      Salmonella enterica subsp. enterica serovar Enteritidis str. EC20120963
0.0001162	1	1	1	1	0.01818	1412534	no rank	                      Salmonella enterica subsp. enterica serovar Enteritidis str. EC20120685
0.0001162	1	1	1	1	0.3333	1412549	no rank	                      Salmonella enterica subsp. enterica serovar Enteritidis str. EC20111510
0.0001162	1	1	1	1	0.01235	1412580	no rank	                      Salmonella enterica subsp. enterica serovar Enteritidis str. EC20121986
0.0001162	1	1	1	1	1	1412585	no rank	                      Salmonella enterica subsp. enterica serovar Enteritidis str. EC20090530
0.0001162	1	1	1	1	0.3333	1412604	no rank	                      Salmonella enterica subsp. enterica serovar Enteritidis str. EC20120581
0.0001162	1	1	1	1	0.07692	1412611	no rank	                      Salmonella enterica subsp. enterica serovar Enteritidis str. EC20120773
0.007435	64	28	106	1.06	0.006493	90105	no rank	                    Salmonella enterica subsp. enterica serovar Saintpaul
0.004182	36	36	57	1.11	0.007348	702982	no rank	                      Salmonella enterica subsp. enterica serovar Saintpaul str. SARA26
0.007319	63	33	87	1.07	0.003946	108619	no rank	                    Salmonella enterica subsp. enterica serovar Newport
0.001162	10	10	12	1.08	0.003749	1454627	no rank	                      Salmonella enterica subsp. enterica serovar Newport str. CDC 2010K-2159
0.0005809	5	5	8	1	0.00442	930779	no rank	                      Salmonella enterica subsp. enterica serovar Newport str. Levine 15
0.0004647	4	4	5	1	0.004554	1454620	no rank	                      Salmonella enterica subsp. enterica serovar Newport str. USDA-ARS-USMARC-1927
0.0004647	4	4	5	1	0.002208	930778	no rank	                      Salmonella enterica subsp. enterica serovar Newport str. Levine 1
0.0004647	4	4	3	1.33	0.004451	997339	no rank	                      Salmonella enterica subsp. enterica serovar Newport str. WA_14882
0.0002324	2	2	3	1	0.0283	796731	no rank	                      Salmonella enterica subsp. enterica serovar Newport str. CVM 21538
0.0001162	1	1	2	1	0.02817	796730	no rank	                      Salmonella enterica subsp. enterica serovar Newport str. CVM 22425
0.006157	53	51	80	1.07	0.007842	54388	no rank	                    Salmonella enterica subsp. enterica serovar Paratyphi A
0.0001162	1	1	1	1	0.01053	295319	no rank	                      Salmonella enterica subsp. enterica serovar Paratyphi A str. ATCC 9150
0.0001162	1	1	1	1	0.001563	941189	no rank	                      Salmonella enterica subsp. enterica serovar Paratyphi A str. ATCC 11511
0.005693	49	49	70	1.04	0.005037	28150	no rank	                    Salmonella enterica subsp. enterica serovar Senftenberg
0.00546	47	31	72	1	0.004266	595	no rank	                    Salmonella enterica subsp. enterica serovar Infantis
0.001859	16	16	20	1	0.002011	596155	no rank	                      Salmonella enterica subsp. enterica serovar Infantis str. SARB27
0.005344	46	40	72	1.01	0.006355	119912	no rank	                    Salmonella enterica subsp. enterica serovar Choleraesuis
0.0004647	4	4	7	1	0.01195	321314	no rank	                      Salmonella enterica subsp. enterica serovar Choleraesuis str. SC-B67
0.0001162	1	1	4	1	0.02162	904139	no rank	                      Salmonella enterica subsp. enterica serovar Choleraesuis str. SCSA50
0.0001162	1	1	1	1	0.0002068	938142	no rank	                      Salmonella enterica subsp. enterica serovar Choleraesuis str. ATCC 10708
0.004763	41	0	58	1.05	0.004548	1242080	no rank	                    Salmonella enterica subsp. enterica serovar Djakarta
0.004763	41	41	58	1.05	0.004548	1242091	no rank	                      Salmonella enterica subsp. enterica serovar Djakarta str. S-1087
0.004647	40	24	51	1.16	0.002773	58712	no rank	                    Salmonella enterica subsp. enterica serovar Anatum
0.0003485	3	3	5	1	0.001018	1454585	no rank	                      Salmonella enterica subsp. enterica serovar Anatum str. USDA-ARS-USMARC-1735
0.0003485	3	3	1	3	0.004902	1454590	no rank	                      Salmonella enterica subsp. enterica serovar Anatum str. USDA-ARS-USMARC-1175
0.0003485	3	3	1	3	0.003049	1454586	no rank	                      Salmonella enterica subsp. enterica serovar Anatum str. USDA-ARS-USMARC-1736
0.0002324	2	2	4	1	0.005502	1454584	no rank	                      Salmonella enterica subsp. enterica serovar Anatum str. USDA-ARS-USMARC-1727
0.0002324	2	2	1	2	0.0008389	1454593	no rank	                      Salmonella enterica subsp. enterica serovar Anatum str. USDA-ARS-USMARC-1765
0.0001162	1	1	2	1	0.001403	1454589	no rank	                      Salmonella enterica subsp. enterica serovar Anatum str. USDA-ARS-USMARC-1728
0.0001162	1	1	2	1	0.04	1454587	no rank	                      Salmonella enterica subsp. enterica serovar Anatum str. USDA-ARS-USMARC-1676
0.0001162	1	1	2	1	0.01681	1454583	no rank	                      Salmonella enterica subsp. enterica serovar Anatum str. USDA-ARS-USMARC-1783
0.004415	38	0	56	1.09	0.005952	1242079	no rank	                    Salmonella enterica subsp. enterica serovar Apapa
0.004415	38	38	56	1.09	0.005952	1242088	no rank	                      Salmonella enterica subsp. enterica serovar Apapa str. SA20060561
0.004415	38	0	56	1	0.005263	1242081	no rank	                    Salmonella enterica subsp. enterica serovar Hillingdon
0.004415	38	38	56	1	0.005263	1242096	no rank	                      Salmonella enterica subsp. enterica serovar Hillingdon str. N1529-D3
0.004182	36	2	65	1.05	0.008516	57045	no rank	                    Salmonella enterica subsp. enterica serovar Paratyphi B
0.002207	19	19	37	1	0.01146	1016998	no rank	                      Salmonella enterica subsp. enterica serovar Paratyphi B str. SPB7
0.001743	15	15	26	1.12	0.006306	224729	no rank	                      Salmonella enterica subsp. enterica serovar Java
0.00395	34	28	54	1.02	0.01268	594	no rank	                    Salmonella enterica subsp. enterica serovar Gallinarum
0.0003485	3	3	5	1	0.02092	909947	no rank	                      Salmonella enterica subsp. enterica serovar Gallinarum str. SG9
0.0002324	2	2	6	1	0.02575	550538	no rank	                      Salmonella enterica subsp. enterica serovar Gallinarum str. 287/91
0.0001162	1	1	1	1	0.007692	685040	no rank	                      Salmonella enterica subsp. enterica serovar Gallinarum str. 9184
0.003834	33	0	49	1.02	0.006873	1242084	no rank	                    Salmonella enterica subsp. enterica serovar Krefeld
0.003834	33	33	49	1.02	0.006873	1242106	no rank	                      Salmonella enterica subsp. enterica serovar Krefeld str. SA20030536
0.003718	32	22	44	1.18	0.00967	98360	no rank	                    Salmonella enterica subsp. enterica serovar Dublin
0.0008132	7	7	9	1.22	0.02624	439851	no rank	                      Salmonella enterica subsp. enterica serovar Dublin str. CT_02021853
0.0002324	2	2	2	1	0.008584	687860	no rank	                      Salmonella enterica subsp. enterica serovar Dublin str. ATCC 39184
0.0001162	1	1	1	1	0.004785	909945	no rank	                      Salmonella enterica subsp. enterica serovar Dublin str. SD3246
0.003369	29	0	51	1.02	0.008746	915158	no rank	                    Salmonella enterica subsp. enterica serovar Manchester
0.003369	29	29	51	1.02	0.008746	1242108	no rank	                      Salmonella enterica subsp. enterica serovar Manchester str. ST278
0.002904	25	25	43	1.02	0.005577	143221	no rank	                    Salmonella enterica subsp. enterica serovar Tennessee
0.002788	24	23	39	1.03	0.005563	1243585	no rank	                    Salmonella enterica subsp. enterica serovar Ouakam
0.0001162	1	1	1	1	0.000692	1243586	no rank	                      Salmonella enterica subsp. enterica serovar Ouakam str. SA20034636
0.002788	24	0	34	1.03	0.004635	260368	no rank	                    Salmonella enterica subsp. enterica serovar Bergen
0.002788	24	24	34	1.03	0.004635	1240708	no rank	                      Salmonella enterica subsp. enterica serovar Bergen str. ST350
0.002672	23	0	39	1.05	0.003762	189201	no rank	                    Salmonella enterica subsp. enterica serovar Cubana
0.002672	23	23	39	1.05	0.003762	1271863	no rank	                      Salmonella enterica subsp. enterica serovar Cubana str. CFSAN002050
0.002672	23	23	37	1.03	0.004179	340188	no rank	                    Salmonella enterica subsp. enterica serovar Cerro
0.002556	22	0	32	1.03	0.009618	57046	no rank	                    Salmonella enterica subsp. enterica serovar Paratyphi C
0.002556	22	22	32	1.03	0.009618	476213	no rank	                      Salmonella enterica subsp. enterica serovar Paratyphi C str. RKS4594
0.002556	22	16	26	1.08	0.004783	115981	no rank	                    Salmonella enterica subsp. enterica serovar Montevideo
0.0006971	6	6	6	1.17	0.002701	859199	no rank	                      Salmonella enterica subsp. enterica serovar Montevideo str. 507440-20
0.00244	21	0	43	1.02	0.00707	363569	no rank	                    Salmonella enterica subsp. enterica serovar Javiana
0.00244	21	21	43	1.02	0.00707	1267753	no rank	                      Salmonella enterica subsp. enterica serovar Javiana str. CFSAN001992
0.00244	21	0	27	1.19	0.009094	29482	no rank	                    Salmonella enterica subsp. enterica serovar Abony
0.00244	21	21	27	1.19	0.009094	1029983	no rank	                      Salmonella enterica subsp. enterica serovar Abony str. 0014
0.002324	20	0	38	1	0.006196	211968	no rank	                    Salmonella enterica subsp. enterica serovar Albany
0.002324	20	20	38	1	0.006196	1173798	no rank	                      Salmonella enterica subsp. enterica serovar Albany str. ATCC 51960
0.002324	20	18	28	1.07	0.00159	57743	no rank	                    Salmonella enterica subsp. enterica serovar Weltevreden
0.0002324	2	2	6	1	0.01193	1173939	no rank	                      Salmonella enterica subsp. enterica serovar Weltevreden str. 1655
0.002324	20	17	25	1	0.001434	70803	no rank	                    Salmonella enterica subsp. enterica serovar Minnesota
0.0003485	3	3	3	1	0.004071	1124956	no rank	                      Salmonella enterica subsp. enterica serovar Minnesota str. ATCC 49284
0.001975	17	17	29	1.1	0.003447	58101	no rank	                    Salmonella enterica subsp. enterica serovar Waycross
0.001975	17	0	29	1.03	0.00195	1243583	no rank	                    Salmonella enterica subsp. Enterica serovar Onderstepoort
0.001975	17	17	29	1.03	0.00195	1243584	no rank	                      Salmonella enterica subsp. enterica serovar Onderstepoort str. SA20060086
0.001975	17	0	21	1.05	0.002519	181798	no rank	                    Salmonella enterica subsp. enterica serovar Sloterdijk
0.001975	17	17	21	1.05	0.002519	938141	no rank	                      Salmonella enterica subsp. enterica serovar Sloterdijk str. ATCC 15791
0.001859	16	0	25	1	0.003576	913085	no rank	                    Salmonella enterica subsp. enterica serovar Wandsworth
0.001859	16	16	25	1	0.003576	1243595	no rank	                      Salmonella enterica subsp. enterica serovar Wandsworth str. SA20092095
0.001743	15	0	30	1.07	0.001999	192954	no rank	                    Salmonella enterica subsp. enterica serovar Mbandaka
0.001743	15	15	30	1.07	0.001999	984237	no rank	                      Salmonella enterica subsp. enterica serovar Mbandaka str. ATCC 51958
0.001743	15	0	28	1.11	0.002361	913074	no rank	                    Salmonella enterica subsp. enterica serovar Inverness
0.001743	15	15	28	1.11	0.002361	941187	no rank	                      Salmonella enterica subsp. enterica serovar Inverness str. ATCC 10720
0.001743	15	14	26	1.04	0.007439	600	no rank	                    Salmonella enterica subsp. enterica serovar Thompson
0.0001162	1	1	2	1	0.002685	935705	no rank	                      Salmonella enterica subsp. enterica serovar Thompson str. ATCC 8391
0.001743	15	0	25	1	0.003459	82689	no rank	                    Salmonella enterica subsp. enterica serovar Muenster
0.001743	15	15	25	1	0.003459	1124958	no rank	                      Salmonella enterica subsp. enterica serovar Muenster str. 0315
0.001626	14	0	22	1.05	0.007846	149386	no rank	                    Salmonella enterica subsp. enterica serovar Chester
0.001626	14	14	22	1.05	0.007846	941190	no rank	                      Salmonella enterica subsp. enterica serovar Chester str. ATCC 11997
0.00151	13	0	15	1.07	0.004533	1242078	no rank	                    Salmonella enterica subsp. enterica serovar Antsalova
0.00151	13	13	15	1.07	0.004533	1242087	no rank	                      Salmonella enterica subsp. enterica serovar Antsalova str. S01-0511
0.00151	13	0	15	1	0.003013	58096	no rank	                    Salmonella enterica subsp. enterica serovar Bareilly
0.00151	13	13	15	1	0.003013	1173427	no rank	                      Salmonella enterica subsp. enterica serovar Bareilly str. CFSAN000189
0.001278	11	0	16	1	0.00405	1243590	no rank	                    Salmonella enterica subsp. enterica serovar Quebec
0.001278	11	11	16	1	0.00405	1243591	no rank	                      Salmonella enterica subsp. enterica serovar Quebec str. S-1267
0.001278	11	0	16	1	0.002567	913076	no rank	                    Salmonella enterica subsp. enterica serovar Johannesburg
0.001278	11	11	16	1	0.002567	1242101	no rank	                      Salmonella enterica subsp. enterica serovar Johannesburg str. ST203
0.0009294	8	0	10	1.1	0.005945	1151172	no rank	                    Salmonella enterica subsp. enterica serovar Abaetetuba
0.0009294	8	8	10	1.1	0.005945	1208611	no rank	                      Salmonella enterica subsp. enterica serovar Abaetetuba str. ATCC 35640
0.0008132	7	7	11	1	0.0097	1129117	no rank	                    Salmonella enterica subsp. enterica serovar Nitra
0.0006971	6	0	7	1.14	0.0006825	598	no rank	                    Salmonella enterica subsp. enterica serovar Rubislaw
0.0006971	6	6	7	1.14	0.0006825	938143	no rank	                      Salmonella enterica subsp. enterica serovar Rubislaw str. ATCC 10717
0.0004647	4	4	11	1.27	0.0347	932733	no rank	                    Salmonella enterica subsp. enterica serovar Bardo
0.0004647	4	0	5	1	0.005118	28146	no rank	                    Salmonella enterica subsp. enterica serovar Moscow
0.0004647	4	4	5	1	0.005118	1243579	no rank	                      Salmonella enterica subsp. enterica serovar Moscow str. S-1843
0.0004647	4	4	4	1	0.002706	605	no rank	                    Salmonella enterica subsp. enterica serovar Pullorum
0.0003485	3	1	9	1	0.007513	58095	no rank	                    Salmonella enterica subsp. enterica serovar Agona
0.0002324	2	2	4	1	0.06061	1406860	no rank	                      Salmonella enterica subsp. enterica serovar Agona str. 24249
0.0003485	3	0	5	1	0.006868	604	no rank	                    Salmonella enterica subsp. enterica serovar Gallinarum/pullorum
0.0002324	2	2	2	1	0.004819	1081093	no rank	                      Salmonella enterica subsp. enterica serovar Gallinarum/pullorum str. RKS5078
0.0001162	1	1	3	1	0.01087	1225522	no rank	                      Salmonella enterica subsp. enterica serovar Gallinarum/pullorum str. CDC1983-67
0.0003485	3	0	4	1	0.009259	1243599	no rank	                    Salmonella enterica subsp. enterica serovar Yovokome
0.0003485	3	3	4	1	0.009259	1243600	no rank	                      Salmonella enterica subsp. enterica serovar Yovokome str. S-1850
0.0002324	2	0	10	1	0.04348	29472	no rank	                    Salmonella enterica subsp. enterica serovar Panama
0.0002324	2	2	10	1	0.04348	1124961	no rank	                      Salmonella enterica subsp. enterica serovar Panama str. ATCC 7378
0.0002324	2	0	2	1	0.001196	286782	no rank	                    Salmonella enterica subsp. enterica serovar Stanleyville
0.0002324	2	2	2	1	0.001196	1194159	no rank	                      Salmonella enterica subsp. enterica serovar Stanleyville str. CFSAN000624
0.0001162	1	0	4	1	0.002665	134047	no rank	                    Salmonella enterica subsp. enterica serovar Bredeney
0.0001162	1	1	4	1	0.002665	1194154	no rank	                      Salmonella enterica subsp. enterica serovar Bredeney str. CFSAN001080
0.0001162	1	0	1	1	0.002024	440524	no rank	                    Salmonella enterica subsp. enterica serovar 4,[5],12:i:-
0.0001162	1	1	1	1	0.002024	866913	no rank	                      Salmonella enterica subsp. enterica serovar 4,[5],12:i:- str. 08-1736
0.0001162	1	0	1	1	0.008	399583	no rank	                    Salmonella enterica subsp. enterica serovar Blegdam
0.0001162	1	1	1	1	0.008	1240694	no rank	                      Salmonella enterica subsp. enterica serovar Blegdam str. S-1824
0.04089	352	18	466	1.07	0.002742	59202	subspecies	                  Salmonella enterica subsp. salamae
0.02219	191	0	246	1.04	0.00251	1243601	no rank	                    Salmonella enterica subsp. salamae serovar 55:k:z39
0.02219	191	191	246	1.04	0.00251	1243602	no rank	                      Salmonella enterica subsp. salamae serovar 55:k:z39 str. 1315K
0.01661	143	143	198	1.08	0.002976	1710356	no rank	                    Salmonella enterica subsp. salamae serovar 57:z29:z42
0.02509	216	157	302	1.05	0.002065	59203	subspecies	                  Salmonella enterica subsp. arizonae
0.004182	36	36	43	1.12	0.00167	41514	no rank	                    Salmonella enterica subsp. arizonae serovar 62:z4,z23:-
0.002672	23	0	30	1.03	0.001064	41515	no rank	                    Salmonella enterica subsp. arizonae serovar 62:z36:-
0.002672	23	23	30	1.03	0.001064	1386967	no rank	                      Salmonella enterica subsp. arizonae serovar 62:z36:- str. RKS2983
0.02277	196	0	283	1.08	0.002896	59205	subspecies	                  Salmonella enterica subsp. houtenae
0.02277	196	196	283	1.08	0.002896	523831	no rank	                    Salmonella enterica subsp. houtenae str. ATCC BAA-1581
0.02126	183	155	293	1.03	0.002245	59204	subspecies	                  Salmonella enterica subsp. diarizonae
0.001743	15	0	30	1	0.001564	1243615	no rank	                    Salmonella enterica subsp. diarizonae serovar 65:c:z
0.001743	15	15	30	1	0.001564	1243616	no rank	                      Salmonella enterica subsp. diarizonae serovar 65:c:z str. SA20044251
0.00151	13	0	20	1.1	0.0008618	1243611	no rank	                    Salmonella enterica subsp. diarizonae serovar 50:k:z
0.00151	13	13	20	1.1	0.0008618	1243612	no rank	                      Salmonella enterica subsp. diarizonae serovar 50:k:z str. MZ0080
0.0006971	6	6	241	1.05	0.001123	54736	species	                Salmonella bongori
0.9299	8004	57	190	175	6.449e-05	570	genus	              Klebsiella
0.9229	7944	7940	85	302	9.851e-05	573	species	                Klebsiella pneumoniae
0.0004647	4	2	9	1.33	0.0001076	72407	subspecies	                  Klebsiella pneumoniae subsp. pneumoniae
0.0002324	2	2	2	1.5	0.000278	1123862	no rank	                    Klebsiella pneumoniae subsp. pneumoniae Kp13
0.0002324	2	2	13	1	3.735e-05	571	species	                Klebsiella oxytoca
0.0001162	1	1	17	1	5.48e-05	548	species	                Klebsiella aerogenes
0.3209	2762	2	397	14.8	0.0001861	561	genus	              Escherichia
0.3198	2753	2457	319	18	0.0001906	562	species	                Escherichia coli
0.03299	284	0	19	56.7	0.0175	244319	no rank	                  Escherichia coli O26:H11
0.03299	284	284	19	56.7	0.0175	573235	no rank	                    Escherichia coli O26:H11 str. 11368
0.0002324	2	2	1	2	0.0009398	585057	no rank	                  Escherichia coli IAI39
0.0001162	1	1	3	1.33	0.000223	585397	no rank	                  Escherichia coli ED1a
0.0001162	1	1	2	2	0.001726	741093	no rank	                  Escherichia coli Xuzhou21
0.0001162	1	1	3	1	0.002385	1045010	no rank	                  Escherichia coli O157
0.0001162	1	1	2	1	0.00156	585035	no rank	                  Escherichia coli S88
0.0001162	1	1	2	1	0.001843	83333	no rank	                  Escherichia coli K-12
0.0001162	1	1	1	1	0.0003799	498388	no rank	                  Escherichia coli C
0.0001162	1	1	1	1	0.0001027	439855	no rank	                  Escherichia coli SMS-3-5
0.0001162	1	1	1	1	0.001637	1274814	no rank	                  Escherichia coli APEC O78
0.0001162	1	1	1	1	8.775e-05	696406	no rank	                  Escherichia coli UMNK88
0.0001162	1	1	1	1	0.001808	714962	no rank	                  Escherichia coli IHE3034
0.0004647	4	4	31	1.16	0.0001316	208962	species	                Escherichia albertii
0.0003485	3	0	29	1	0.0001899	564	species	                Escherichia fergusonii
0.0002324	2	2	10	1	0.0003404	585054	no rank	                  Escherichia fergusonii ATCC 35469
0.0001162	1	1	5	1	0.0001674	981367	no rank	                  Escherichia fergusonii ECD227
0.003369	29	0	158	11.7	4.137e-05	547	genus	              Enterobacter
0.002788	24	1	124	14.5	4.304e-05	354276	species group	                Enterobacter cloacae complex
0.002207	19	18	13	129	3.941e-05	61645	species	                  Enterobacter asburiae
0.0001162	1	1	8	1	4.272e-05	640513	no rank	                    Enterobacter asburiae LF7a
0.0002324	2	2	41	1.12	3.794e-05	550	species	                  Enterobacter cloacae
0.0001162	1	1	15	1	6.111e-05	1334193	species	                  Enterobacter lignolyticus
0.0001162	1	1	2	1	5.373e-05	1870930	species	                  Enterobacter cloacae complex sp. 35734
0.0004647	4	4	7	2.14	3.385e-05	1692238	species	                Enterobacter sp. FY-07
0.0001162	1	1	8	1.12	5.083e-05	399742	species	                Enterobacter sp. 638
0.001394	12	1	28	1.29	0.0003217	620	genus	              Shigella
0.0005809	5	1	9	1.78	0.0003197	623	species	                Shigella flexneri
0.0003485	3	3	3	3.33	0.005714	591020	no rank	                  Shigella flexneri 2002017
0.0001162	1	1	2	1	0.001813	374923	no rank	                  Shigella flexneri 1a
0.0005809	5	5	8	1.12	0.0005095	624	species	                Shigella sonnei
0.0001162	1	1	4	1	0.000208	621	species	                Shigella boydii
0.001046	9	1	336	1.04	0.00013	544	genus	              Citrobacter
0.0006971	6	2	137	1.01	0.0001096	1344959	species group	                Citrobacter freundii complex
0.0003485	3	3	50	1.02	9.058e-05	546	species	                  Citrobacter freundii
0.0001162	1	1	34	1	0.000118	67827	species	                  Citrobacter werkmanii
0.0001162	1	0	38	1.03	7.698e-05	35703	species	                Citrobacter amalonaticus
0.0001162	1	1	8	1.12	4.454e-05	1261127	no rank	                  Citrobacter amalonaticus Y19
0.0001162	1	0	31	1.13	0.0001551	67825	species	                Citrobacter rodentium
0.0001162	1	1	31	1.13	0.0001551	637910	no rank	                  Citrobacter rodentium ICC168
0.0005809	5	1	48	1.04	4.959e-05	1330547	genus	              Kosakonia
0.0002324	2	1	8	1.12	0.0001173	283686	species	                Kosakonia radicincitans
0.0001162	1	1	1	1	3.696e-05	1177180	no rank	                  Kosakonia radicincitans DSM 16656
0.0001162	1	1	17	1	5.315e-05	208223	species	                Kosakonia cowanii
0.0001162	1	1	4	1	2.355e-05	497725	species	                Kosakonia oryzae
0.0005809	5	0	27	1.26	2.834e-05	191675	no rank	              unclassified Enterobacteriaceae
0.0003485	3	0	21	1.24	5.992e-05	36866	no rank	                unclassified Enterobacteriaceae (miscellaneous)
0.0003485	3	3	7	1.57	4.347e-05	891974	species	                  Plautia stali symbiont
0.0002324	2	0	6	1.33	9.961e-06	84563	no rank	                ant, tsetse, mealybug, aphid, etc. endosymbionts
0.0002324	2	0	3	1.67	0.0002257	199891	no rank	                  mealybug secondary endosymbionts
0.0002324	2	2	3	1.67	0.0002257	1835721	species	                    secondary endosymbiont of Trabutina mannipara
0.0002324	2	0	80	1.06	6.579e-05	413496	genus	              Cronobacter
0.0001162	1	1	15	1.13	5.793e-05	28141	species	                Cronobacter sakazakii
0.0001162	1	0	7	1.14	6.962e-05	535744	species	                Cronobacter universalis
0.0001162	1	1	7	1.14	6.962e-05	1074000	no rank	                  Cronobacter universalis NCTC 9529
0.0002324	2	0	26	1	5.12e-05	1330545	genus	              Lelliottia
0.0002324	2	2	16	1	4.827e-05	61646	species	                Lelliottia amnigena
0.0002324	2	0	14	1	6.071e-05	579	genus	              Kluyvera
0.0002324	2	2	14	1	6.071e-05	61648	species	                Kluyvera intermedia
0.0001162	1	0	17	1	2.562e-05	158483	genus	              Cedecea
0.0001162	1	1	17	1	2.562e-05	158822	species	                Cedecea neteri
0.0001162	1	0	9	1	4.043e-05	1330546	genus	              Pluralibacter
0.0001162	1	1	9	1	4.043e-05	61647	species	                Pluralibacter gergoviae
0.0001162	1	0	1	1	2.945e-05	409304	genus	              Candidatus Ishikawaella
0.0001162	1	0	1	1	2.945e-05	168169	species	                Candidatus Ishikawaella capsulata
0.0001162	1	1	1	1	2.945e-05	476281	no rank	                  Candidatus Ishikawaella capsulata Mpkobe
0.0006971	6	0	90	1.1	1.334e-05	1903411	family	            Yersiniaceae
0.0004647	4	0	46	1.09	1.268e-05	613	genus	              Serratia
0.0002324	2	2	12	1.17	1.159e-05	615	species	                Serratia marcescens
0.0001162	1	0	4	1	9.907e-06	82996	species	                Serratia plymuthica
0.0001162	1	1	3	1	0.0003116	1006598	no rank	                  Serratia plymuthica RVH1
0.0001162	1	1	2	1	6.428e-05	1327989	species	                Serratia sp. FS14
0.0002324	2	1	27	1.15	1.125e-05	629	genus	              Yersinia
0.0001162	1	0	4	1	0.001547	29484	species	                Yersinia frederiksenii
0.0001162	1	1	4	1	0.001547	1454377	no rank	                  Yersinia frederiksenii Y225
0.0006971	6	0	76	1.07	1.535e-05	1903410	family	            Pectobacteriaceae
0.0004647	4	1	30	1.07	1.19e-05	204037	genus	              Dickeya
0.0001162	1	1	3	1.33	1.011e-05	204038	species	                Dickeya dadantii
0.0001162	1	0	3	1	8.811e-06	556	species	                Dickeya chrysanthemi
0.0001162	1	1	2	1	3.274e-05	1223571	no rank	                  Dickeya chrysanthemi NCPPB 516
0.0001162	1	1	3	1	1.653e-05	204039	species	                Dickeya dianthicola
0.0001162	1	0	19	1	1.283e-05	122277	genus	              Pectobacterium
0.0001162	1	0	7	1	9.137e-06	554	species	                Pectobacterium carotovorum
0.0001162	1	1	3	1	1.979e-05	180957	subspecies	                  Pectobacterium carotovorum subsp. brasiliense
0.0001162	1	0	10	1.3	2.26e-05	71655	genus	              Brenneria
0.0001162	1	1	5	1.4	2.165e-05	1109412	species	                Brenneria goodwinii
0.0006971	6	0	64	1.06	1.598e-05	1903409	family	            Erwiniaceae
0.0004647	4	2	27	1.11	2.612e-05	551	genus	              Erwinia
0.0001162	1	1	4	1.25	7.033e-05	215689	species	                Erwinia sp. Ejp617
0.0001162	1	1	2	1.5	3.317e-05	79967	species	                Erwinia pyrifoliae
0.0001162	1	0	32	1	1.381e-05	53335	genus	              Pantoea
0.0001162	1	0	2	1	6.276e-06	1654067	species group	                Pantoea agglomerans group
0.0001162	1	1	2	1	6.276e-06	549	species	                  Pantoea agglomerans
0.0001162	1	0	3	1	7.819e-06	32199	genus	              Buchnera
0.0001162	1	0	3	1	7.819e-06	9	species	                Buchnera aphidicola
0.0001162	1	1	1	1	3.447e-05	98795	no rank	                  Buchnera aphidicola (Myzus persicae)
0.0004647	4	0	30	1.07	9.107e-06	1903414	family	            Morganellaceae
0.0002324	2	0	10	1	9.587e-06	626	genus	              Xenorhabdus
0.0002324	2	2	6	1	3.469e-05	351671	species	                Xenorhabdus doucetiae
0.0001162	1	1	9	1.11	1.378e-05	29487	genus	              Photorhabdus
0.0001162	1	0	6	1.17	6.042e-06	586	genus	              Providencia
0.0001162	1	1	1	1	3.809e-06	588	species	                Providencia stuartii
0.0002324	2	0	25	1.12	1.608e-05	1903412	family	            Hafniaceae
0.0002324	2	0	18	1.17	2.22e-05	635	genus	              Edwardsiella
0.0001162	1	1	4	1	2.808e-05	67780	species	                Edwardsiella ictaluri
0.0001162	1	1	1	1	0.0001005	1578828	species	                Edwardsiella sp. EA181011
0.0004647	4	0	23	1.48	5.265e-07	72274	order	          Pseudomonadales
0.0004647	4	0	8	1.25	1.38e-06	468	family	            Moraxellaceae
0.0003485	3	0	6	1.33	1.606e-06	469	genus	              Acinetobacter
0.0002324	2	0	4	1.25	2.781e-06	909768	species group	                Acinetobacter calcoaceticus/baumannii complex
0.0002324	2	0	4	1.25	7.279e-06	470	species	                  Acinetobacter baumannii
0.0001162	1	1	2	1	0.004902	696749	no rank	                    Acinetobacter baumannii 1656-2
0.0001162	1	1	1	1	0.001351	1100841	no rank	                    Acinetobacter baumannii TYTH-1
0.0001162	1	1	1	2	7.21e-06	29430	species	                Acinetobacter haemolyticus
0.0001162	1	0	2	1	1.326e-06	497	genus	              Psychrobacter
0.0001162	1	1	1	1	7.596e-06	1720344	species	                Psychrobacter sp. AntiMn-1
0.0001162	1	0	22	1.32	1.361e-06	135622	order	          Alteromonadales
0.0001162	1	0	9	1.56	2.327e-06	267888	family	            Pseudoalteromonadaceae
0.0001162	1	0	9	1.56	2.327e-06	53246	genus	              Pseudoalteromonas
0.0001162	1	1	3	2	4.183e-05	1720343	species	                Pseudoalteromonas sp. 1_2015MBL_MicDiv
0.0001162	1	0	4	1.5	1.313e-06	135625	order	          Pasteurellales
0.0001162	1	0	4	1.5	1.313e-06	712	family	            Pasteurellaceae
0.0001162	1	0	1	3	1.237e-06	724	genus	              Haemophilus
0.0001162	1	1	1	3	9.522e-06	730	species	                [Haemophilus] ducreyi
0.0001162	1	0	3	1	1.162e-06	72273	order	          Thiotrichales
0.0001162	1	0	3	1	3.174e-06	135616	family	            Piscirickettsiaceae
0.0001162	1	0	1	1	3.819e-06	40222	genus	              Methylophaga
0.0001162	1	1	1	1	8.308e-06	754477	species	                Methylophaga frappieri
0.01162	100	1	980	1.07	1.639e-05	28216	class	        Betaproteobacteria
0.0108	93	0	894	1.08	1.759e-05	80840	order	          Burkholderiales
0.0108	93	1	871	1.08	3.277e-05	119060	family	            Burkholderiaceae
0.01069	92	8	833	1.08	0.0003511	48736	genus	              Ralstonia
0.008481	73	9	608	1.09	0.00165	329	species	                Ralstonia pickettii
0.00395	34	34	177	1.11	0.001405	428406	no rank	                  Ralstonia pickettii 12D
0.003485	30	30	205	1.13	0.001917	402626	no rank	                  Ralstonia pickettii 12J
0.0009294	8	8	99	1.03	0.0006048	105219	species	                Ralstonia mannitolilytica
0.0002324	2	2	6	1	1.639e-05	190721	species	                Ralstonia insidiosa
0.0001162	1	1	7	1	6.527e-06	305	species	                Ralstonia solanacearum
0.0006971	6	0	71	1.01	2.506e-05	206351	order	          Neisseriales
0.0006971	6	0	67	1.01	4.397e-05	481	family	            Neisseriaceae
0.0006971	6	1	65	1	5.631e-05	482	genus	              Neisseria
0.0005809	5	5	33	1	0.0005047	485	species	                Neisseria gonorrhoeae
0.0003485	3	0	14	1.07	1.814e-07	28211	class	        Alphaproteobacteria
0.0002324	2	0	4	1	1.033e-07	356	order	          Rhizobiales
0.0002324	2	1	4	1	3.005e-07	82115	family	            Rhizobiaceae
0.0001162	1	0	2	1	6.682e-06	323620	genus	              Shinella
0.0001162	1	1	2	1	6.682e-06	879274	species	                Shinella sp. HZN7
0.0001162	1	0	3	1	3.51e-07	204441	order	          Rhodospirillales
0.0001162	1	0	2	1	4.646e-07	41295	family	            Rhodospirillaceae
0.0001162	1	0	1	1	5.819e-07	191	genus	              Azospirillum
0.0001162	1	0	1	1	1.403e-06	192	species	                Azospirillum brasilense
0.0001162	1	1	1	1	5.314e-06	1064539	no rank	                  Azospirillum brasilense Sp245
0.0002324	2	0	19	1.32	7.818e-08	1783272	no rank	      Terrabacteria group
0.0002324	2	0	7	1.71	6.221e-08	201174	phylum	        Actinobacteria
0.0002324	2	0	6	1.17	5.49e-08	1760	class	          Actinobacteria
0.0001162	1	0	4	1	1.396e-07	85007	order	            Corynebacteriales
0.0001162	1	0	3	1	4.259e-07	85025	family	              Nocardiaceae
0.0001162	1	0	3	1	1.257e-06	1817	genus	                Nocardia
0.0001162	1	1	3	1	9.356e-06	134962	species	                  Nocardia soli
0.0001162	1	0	2	1.5	1.147e-07	85006	order	            Micrococcales
0.0001162	1	0	2	1.5	3.669e-07	1268	family	              Micrococcaceae
0.0001162	1	0	1	2	2.951e-06	32207	genus	                Rothia
0.0001162	1	1	1	2	4.421e-06	43675	species	                  Rothia mucilaginosa
0.0003485	3	0	5	1	5.635e-07	10239	superkingdom	  Viruses
0.0002324	2	0	4	1	5.629e-07	35237	no rank	    dsDNA viruses, no RNA stage
0.0002324	2	0	4	1	9.778e-07	28883	order	      Caudovirales
0.0002324	2	0	4	1	1.896e-06	10662	family	        Myoviridae
0.0002324	2	0	4	1	4.373e-06	196896	no rank	          unclassified Myoviridae
0.0001162	1	1	2	1	0.02597	66284	species	            Shigella phage SfII
0.0001162	1	1	1	1	0.007194	55884	species	            Enterobacteria phage SfV
0.0001162	1	0	1	1	1.127e-05	12333	no rank	    unclassified bacterial viruses
0.0001162	1	1	1	1	0.01087	1813771	species	      Salmonella phage 118970_sal3
