# KrakenUniq v0.5.7 DATE:2019-04-15T17:32:12Z DB:/home/biouser/SAM/DBDIR/LIBRARY_MINIKRAKEN/minikraken_20171019_8GB DB_SIZE:8053064728 WD:/home/biouser/SAM
# CL:perl /home/biouser/miniconda3/bin/krakenuniq --db /home/biouser/SAM/DBDIR/LIBRARY_MINIKRAKEN/minikraken_20171019_8GB -paired /home/biouser/SAM/data/7-GC_S7_mixed_with_25%_1-SAT_S1_R1.fastq.gz /home/biouser/SAM/data/7-GC_S7_mixed_with_25%_1-SAT_S1_R2.fastq.gz --report-file /home/biouser/SAM/data/7-GC_S7_mixed_with_25%_1-SAT_S1.krakenuniq.report.tsv

%	reads	taxReads	kmers	dup	cov	taxID	rank	taxName
0.5547	3440	3440	12228468	14.7	1.425	0	no rank	unclassified
99.45	616754	248	315486	26	0.0004762	1	no rank	root
99.41	616506	3	314370	26.1	0.0004812	131567	no rank	  cellular organisms
99.4	616503	1825	314370	26.1	0.0004978	2	superkingdom	    Bacteria
99.01	614068	3236	314123	25.9	0.0009887	1224	phylum	      Proteobacteria
73.63	456649	34	97030	61.1	0.001623	28216	class	        Betaproteobacteria
73.62	456581	110	96778	61.1	0.03415	206351	order	          Neisseriales
73.6	456471	187	96778	61.1	0.06352	481	family	            Neisseriaceae
73.57	456283	35070	95925	61.1	0.08311	482	genus	              Neisseria
67.82	420594	412002	42356	72.3	0.6478	485	species	                Neisseria gonorrhoeae
1.095	6791	6791	105	131	0.1517	528354	no rank	                  Neisseria gonorrhoeae MS11
0.1827	1133	1133	8	230	0.03636	521006	no rank	                  Neisseria gonorrhoeae NCCP11945
0.1077	668	668	52	29.6	0.03709	242231	no rank	                  Neisseria gonorrhoeae FA 1090
0.08481	526	445	887	6.25	0.004459	487	species	                Neisseria meningitidis
0.005966	37	37	8	40.9	0.00404	942513	no rank	                  Neisseria meningitidis WUE 2594
0.004031	25	0	7	8.71	0.003248	491	no rank	                  Neisseria meningitidis serogroup B
0.004031	25	25	7	8.71	0.003853	630588	no rank	                    Neisseria meningitidis alpha710
0.001612	10	0	9	3.78	0.005933	65699	no rank	                  Neisseria meningitidis serogroup A
0.001612	10	10	9	3.78	0.005933	122587	no rank	                    Neisseria meningitidis Z2491
0.0004837	3	0	26	1.08	0.002844	135720	no rank	                  Neisseria meningitidis serogroup C
0.0003225	2	2	17	1.06	0.003267	374833	no rank	                    Neisseria meningitidis 053442
0.0001612	1	1	7	1.14	0.002041	604162	no rank	                    Neisseria meningitidis 8013
0.0003225	2	2	29	1.14	0.004387	662598	no rank	                  Neisseria meningitidis alpha14
0.0001612	1	1	11	5.73	0.003551	935588	no rank	                  Neisseria meningitidis M01-240355
0.0001612	1	1	2	20	0.001584	935590	no rank	                  Neisseria meningitidis M0579
0.0001612	1	1	1	3	0.0025	935599	no rank	                  Neisseria meningitidis G2136
0.0001612	1	1	1	1	0.025	1095685	no rank	                  Neisseria meningitidis M7124
0.01274	79	66	220	3.5	0.003071	486	species	                Neisseria lactamica
0.002096	13	13	72	3.44	0.002928	489653	no rank	                  Neisseria lactamica 020-06
0.000645	4	4	48	1.9	0.0004695	490	species	                Neisseria sicca
0.0003225	2	0	24	1.12	0.0002686	495	species	                Neisseria elongata
0.0003225	2	0	24	1.12	0.0002686	88719	subspecies	                  Neisseria elongata subsp. glycolytica
0.0003225	2	2	24	1.12	0.0002686	546263	no rank	                    Neisseria elongata subsp. glycolytica ATCC 29315
0.0003225	2	2	15	1.27	0.0001472	655307	species	                Neisseria sp. KEM232
0.0003225	2	2	15	1.07	0.0001396	1853278	species	                Neisseria sp. 10023
0.0003225	2	2	9	1.22	8.442e-05	1853276	species	                Neisseria sp. 10022
0.0001612	1	1	9	1	8.469e-05	326523	species	                Neisseria zoodegmatis
0.0001612	1	1	7	1.14	7.696e-05	28091	species	                Neisseria weaveri
0.0001612	1	0	8	1	8.671e-05	538	genus	              Eikenella
0.0001612	1	1	8	1	8.671e-05	539	species	                Eikenella corrodens
0.005482	34	0	291	1.16	5.727e-06	80840	order	          Burkholderiales
0.004998	31	1	269	1.17	1.012e-05	119060	family	            Burkholderiaceae
0.004676	29	1	254	1.13	0.0001071	48736	genus	              Ralstonia
0.004192	26	5	212	1.1	0.0005753	329	species	                Ralstonia pickettii
0.001935	12	12	75	1.05	0.0007015	402626	no rank	                  Ralstonia pickettii 12J
0.001451	9	9	53	1.23	0.0004206	428406	no rank	                  Ralstonia pickettii 12D
0.0003225	2	2	12	1.75	7.331e-05	105219	species	                Ralstonia mannitolilytica
0.0001612	1	0	4	4.25	2.73e-07	32008	genus	              Burkholderia
0.0001612	1	0	2	7.5	2.587e-07	87882	species group	                Burkholderia cepacia complex
0.0001612	1	0	1	14	0.003145	152500	species	                  Burkholderia dolosa
0.0001612	1	1	1	14	0.003984	1385930	no rank	                    Burkholderia dolosa PC543
0.0001612	1	0	9	1	1.235e-06	506	family	            Alcaligenaceae
0.0001612	1	0	2	1	2.267e-05	1472344	genus	              Basilea
0.0001612	1	0	2	1	2.267e-05	1472345	species	                Basilea psittacipulmonis
0.0001612	1	1	2	1	2.267e-05	1072685	no rank	                  Basilea psittacipulmonis DSM 24701
0.0001612	1	0	6	1	6.795e-07	80864	family	            Comamonadaceae
0.0001612	1	1	1	1	7.085e-07	12916	genus	              Acidovorax
0.0001612	1	0	3	1	1.058e-06	119065	no rank	            unclassified Burkholderiales
0.0001612	1	0	1	1	4.906e-07	224471	no rank	              Burkholderiales Genera incertae sedis
0.0001612	1	0	1	1	4.765e-06	88	genus	                Leptothrix
0.0001612	1	0	1	1	4.765e-06	34029	species	                  Leptothrix cholodnii
0.0001612	1	1	1	1	4.765e-06	395495	no rank	                    Leptothrix cholodnii SP-6
24.86	154164	151	213949	9.85	0.0014	1236	class	        Gammaproteobacteria
24.83	154007	534	213175	9.83	0.005072	91347	order	          Enterobacterales
24.75	153470	3556	208373	9.78	0.01001	543	family	            Enterobacteriaceae
24.17	149888	1806	186178	9.81	0.09069	590	genus	              Salmonella
23.88	148082	80665	170882	9.79	0.09514	28901	species	                Salmonella enterica
10.86	67344	30252	29723	9.69	0.03947	59201	subspecies	                  Salmonella enterica subsp. enterica
5.954	36929	36445	11649	9.6	0.5118	90370	no rank	                    Salmonella enterica subsp. enterica serovar Typhi
0.07804	484	484	116	9.29	0.218	220341	no rank	                      Salmonella enterica subsp. enterica serovar Typhi str. CT18
0.00258	16	12	16	4	0.0009801	90105	no rank	                    Salmonella enterica subsp. enterica serovar Saintpaul
0.000645	4	4	5	1.4	0.0006446	702982	no rank	                      Salmonella enterica subsp. enterica serovar Saintpaul str. SARA26
0.002419	15	13	25	1.24	0.0009439	90371	no rank	                    Salmonella enterica subsp. enterica serovar Typhimurium
0.0001612	1	1	3	1	0.008499	1029978	no rank	                      Salmonella enterica subsp. enterica serovar Typhimurium str. SARA13
0.0001612	1	1	1	1	0.00128	568709	no rank	                      Salmonella enterica subsp. enterica serovar Typhimurium str. DT2
0.002096	13	10	26	1.04	0.002549	54388	no rank	                    Salmonella enterica subsp. enterica serovar Paratyphi A
0.0001612	1	1	1	1	0.01053	295319	no rank	                      Salmonella enterica subsp. enterica serovar Paratyphi A str. ATCC 9150
0.0001612	1	1	1	1	0.007092	554290	no rank	                      Salmonella enterica subsp. enterica serovar Paratyphi A str. AKU_12601
0.0001612	1	1	1	1	0.001563	941189	no rank	                      Salmonella enterica subsp. enterica serovar Paratyphi A str. ATCC 11511
0.001774	11	0	21	1.19	0.0004561	1242085	no rank	                    Salmonella enterica subsp. enterica serovar Macclesfield
0.001774	11	11	21	1.19	0.0004561	1242107	no rank	                      Salmonella enterica subsp. enterica serovar Macclesfield str. S-1643
0.001451	9	9	3	11.3	0.0001721	70803	no rank	                    Salmonella enterica subsp. enterica serovar Minnesota
0.00129	8	7	16	1.12	0.002282	1243585	no rank	                    Salmonella enterica subsp. enterica serovar Ouakam
0.0001612	1	1	1	1	0.000692	1243586	no rank	                      Salmonella enterica subsp. enterica serovar Ouakam str. SA20034636
0.00129	8	3	12	1	0.0005443	108619	no rank	                    Salmonella enterica subsp. enterica serovar Newport
0.0003225	2	2	2	1	0.0006248	1454627	no rank	                      Salmonella enterica subsp. enterica serovar Newport str. CDC 2010K-2159
0.0003225	2	2	2	1	0.001105	930779	no rank	                      Salmonella enterica subsp. enterica serovar Newport str. Levine 15
0.0001612	1	1	2	1	0.2222	423368	no rank	                      Salmonella enterica subsp. enterica serovar Newport str. SL254
0.001129	7	2	8	1.12	0.001131	149539	no rank	                    Salmonella enterica subsp. enterica serovar Enteritidis
0.0001612	1	1	2	1	0.125	1412535	no rank	                      Salmonella enterica subsp. enterica serovar Enteritidis str. EC20111576
0.0001612	1	1	1	1	0.01235	1412580	no rank	                      Salmonella enterica subsp. enterica serovar Enteritidis str. EC20121986
0.0001612	1	1	1	1	1	1412523	no rank	                      Salmonella enterica subsp. enterica serovar Enteritidis str. SA20091739
0.0001612	1	1	1	1	0.01515	1412495	no rank	                      Salmonella enterica subsp. enterica serovar Enteritidis str. SA20123395
0.0001612	1	1	1	1	0.125	1244122	no rank	                      Salmonella enterica subsp. enterica serovar Enteritidis str. EC20111174
0.0009674	6	6	10	1.7	0.0007196	28150	no rank	                    Salmonella enterica subsp. enterica serovar Senftenberg
0.0009674	6	4	10	1.2	0.002198	98360	no rank	                    Salmonella enterica subsp. enterica serovar Dublin
0.0001612	1	1	2	2	0.008584	687860	no rank	                      Salmonella enterica subsp. enterica serovar Dublin str. ATCC 39184
0.0001612	1	1	2	1	0.009569	909945	no rank	                      Salmonella enterica subsp. enterica serovar Dublin str. SD3246
0.0008062	5	0	8	1.25	0.0006273	1242080	no rank	                    Salmonella enterica subsp. enterica serovar Djakarta
0.0008062	5	5	8	1.25	0.0006273	1242091	no rank	                      Salmonella enterica subsp. enterica serovar Djakarta str. S-1087
0.000645	4	0	7	1.29	0.0006579	1242081	no rank	                    Salmonella enterica subsp. enterica serovar Hillingdon
0.000645	4	4	7	1.29	0.0006579	1242096	no rank	                      Salmonella enterica subsp. enterica serovar Hillingdon str. N1529-D3
0.000645	4	4	7	1.14	0.0006178	119912	no rank	                    Salmonella enterica subsp. enterica serovar Choleraesuis
0.000645	4	3	6	1	0.0003555	595	no rank	                    Salmonella enterica subsp. enterica serovar Infantis
0.0001612	1	1	1	1	0.0001005	596155	no rank	                      Salmonella enterica subsp. enterica serovar Infantis str. SARB27
0.000645	4	0	5	1	0.0005314	1242079	no rank	                    Salmonella enterica subsp. enterica serovar Apapa
0.000645	4	4	5	1	0.0005314	1242088	no rank	                      Salmonella enterica subsp. enterica serovar Apapa str. SA20060561
0.0004837	3	0	7	1	0.0012	915158	no rank	                    Salmonella enterica subsp. enterica serovar Manchester
0.0004837	3	3	7	1	0.0012	1242108	no rank	                      Salmonella enterica subsp. enterica serovar Manchester str. ST278
0.0004837	3	0	6	1	0.0005788	189201	no rank	                    Salmonella enterica subsp. enterica serovar Cubana
0.0004837	3	3	6	1	0.0005788	1271863	no rank	                      Salmonella enterica subsp. enterica serovar Cubana str. CFSAN002050
0.0004837	3	0	2	2.5	0.0001686	913074	no rank	                    Salmonella enterica subsp. enterica serovar Inverness
0.0004837	3	3	2	2.5	0.0001686	941187	no rank	                      Salmonella enterica subsp. enterica serovar Inverness str. ATCC 10720
0.0004837	3	0	4	1	0.0006577	363569	no rank	                    Salmonella enterica subsp. enterica serovar Javiana
0.0004837	3	3	4	1	0.0006577	1267753	no rank	                      Salmonella enterica subsp. enterica serovar Javiana str. CFSAN001992
0.0003225	2	0	4	1.75	0.005495	604	no rank	                    Salmonella enterica subsp. enterica serovar Gallinarum/pullorum
0.0001612	1	1	3	2	0.007229	1081093	no rank	                      Salmonella enterica subsp. enterica serovar Gallinarum/pullorum str. RKS5078
0.0001612	1	1	1	1	0.003623	1225522	no rank	                      Salmonella enterica subsp. enterica serovar Gallinarum/pullorum str. CDC1983-67
0.0003225	2	0	5	1.4	0.0003362	1243583	no rank	                    Salmonella enterica subsp. Enterica serovar Onderstepoort
0.0003225	2	2	5	1.4	0.0003362	1243584	no rank	                      Salmonella enterica subsp. enterica serovar Onderstepoort str. SA20060086
0.0003225	2	0	5	1	0.0008153	211968	no rank	                    Salmonella enterica subsp. enterica serovar Albany
0.0003225	2	2	5	1	0.0008153	1173798	no rank	                      Salmonella enterica subsp. enterica serovar Albany str. ATCC 51960
0.0003225	2	0	5	1	0.001511	1242078	no rank	                    Salmonella enterica subsp. enterica serovar Antsalova
0.0003225	2	2	5	1	0.001511	1242087	no rank	                      Salmonella enterica subsp. enterica serovar Antsalova str. S01-0511
0.0003225	2	0	3	1.67	0.0003599	181798	no rank	                    Salmonella enterica subsp. enterica serovar Sloterdijk
0.0003225	2	2	3	1.67	0.0003599	938141	no rank	                      Salmonella enterica subsp. enterica serovar Sloterdijk str. ATCC 15791
0.0003225	2	0	3	1.33	0.0004812	913076	no rank	                    Salmonella enterica subsp. enterica serovar Johannesburg
0.0003225	2	2	3	1.33	0.0004812	1242101	no rank	                      Salmonella enterica subsp. enterica serovar Johannesburg str. ST203
0.0003225	2	0	3	1	0.0009017	57046	no rank	                    Salmonella enterica subsp. enterica serovar Paratyphi C
0.0003225	2	2	3	1	0.0009017	476213	no rank	                      Salmonella enterica subsp. enterica serovar Paratyphi C str. RKS4594
0.0003225	2	0	2	1	0.0002727	260368	no rank	                    Salmonella enterica subsp. enterica serovar Bergen
0.0003225	2	2	2	1	0.0002727	1240708	no rank	                      Salmonella enterica subsp. enterica serovar Bergen str. ST350
0.0001612	1	1	2	2	0.0002594	143221	no rank	                    Salmonella enterica subsp. enterica serovar Tennessee
0.0001612	1	0	2	2	0.000286	913085	no rank	                    Salmonella enterica subsp. enterica serovar Wandsworth
0.0001612	1	1	2	2	0.000286	1243595	no rank	                      Salmonella enterica subsp. enterica serovar Wandsworth str. SA20092095
0.0001612	1	0	3	1	0.000393	57045	no rank	                    Salmonella enterica subsp. enterica serovar Paratyphi B
0.0001612	1	1	3	1	0.0009294	1016998	no rank	                      Salmonella enterica subsp. enterica serovar Paratyphi B str. SPB7
0.0001612	1	0	2	1	0.0002767	82689	no rank	                    Salmonella enterica subsp. enterica serovar Muenster
0.0001612	1	1	2	1	0.0002767	1124958	no rank	                      Salmonella enterica subsp. enterica serovar Muenster str. 0315
0.0001612	1	1	2	1	0.0002259	340188	no rank	                    Salmonella enterica subsp. enterica serovar Cerro
0.0001612	1	0	2	1	0.0007133	149386	no rank	                    Salmonella enterica subsp. enterica serovar Chester
0.0001612	1	1	2	1	0.0007133	941190	no rank	                      Salmonella enterica subsp. enterica serovar Chester str. ATCC 11997
0.0001612	1	0	2	1	0.0002805	1242084	no rank	                    Salmonella enterica subsp. enterica serovar Krefeld
0.0001612	1	1	2	1	0.0002805	1242106	no rank	                      Salmonella enterica subsp. enterica serovar Krefeld str. SA20030536
0.0001612	1	0	2	1	0.0004698	594	no rank	                    Salmonella enterica subsp. enterica serovar Gallinarum
0.0001612	1	1	1	1	0.007692	685040	no rank	                      Salmonella enterica subsp. enterica serovar Gallinarum str. 9184
0.0001612	1	1	2	1	0.0002377	58101	no rank	                    Salmonella enterica subsp. enterica serovar Waycross
0.0001612	1	1	2	1	0.0001087	58712	no rank	                    Salmonella enterica subsp. enterica serovar Anatum
0.0001612	1	0	1	1	9.749e-05	598	no rank	                    Salmonella enterica subsp. enterica serovar Rubislaw
0.0001612	1	1	1	1	9.749e-05	938143	no rank	                      Salmonella enterica subsp. enterica serovar Rubislaw str. ATCC 10717
0.0001612	1	0	1	1	0.0002531	1243590	no rank	                    Salmonella enterica subsp. enterica serovar Quebec
0.0001612	1	1	1	1	0.0002531	1243591	no rank	                      Salmonella enterica subsp. enterica serovar Quebec str. S-1267
0.0001612	1	0	1	1	0.0005945	1151172	no rank	                    Salmonella enterica subsp. enterica serovar Abaetetuba
0.0001612	1	1	1	1	0.0005945	1208611	no rank	                      Salmonella enterica subsp. enterica serovar Abaetetuba str. ATCC 35640
0.0001612	1	1	1	1	0.000184	115981	no rank	                    Salmonella enterica subsp. enterica serovar Montevideo
0.0001612	1	0	1	1	0.0002009	58096	no rank	                    Salmonella enterica subsp. enterica serovar Bareilly
0.0001612	1	1	1	1	0.0002009	1173427	no rank	                      Salmonella enterica subsp. enterica serovar Bareilly str. CFSAN000189
0.00387	24	2	60	1.1	0.0003531	59202	subspecies	                  Salmonella enterica subsp. salamae
0.002096	13	0	34	1.09	0.000347	1243601	no rank	                    Salmonella enterica subsp. salamae serovar 55:k:z39
0.002096	13	13	34	1.09	0.000347	1243602	no rank	                      Salmonella enterica subsp. salamae serovar 55:k:z39 str. 1315K
0.001451	9	9	22	1.09	0.0003307	1710356	no rank	                    Salmonella enterica subsp. salamae serovar 57:z29:z42
0.003225	20	17	45	1.13	0.0003448	59204	subspecies	                  Salmonella enterica subsp. diarizonae
0.0004837	3	0	6	1.17	0.0002585	1243611	no rank	                    Salmonella enterica subsp. diarizonae serovar 50:k:z
0.0004837	3	3	6	1.17	0.0002585	1243612	no rank	                      Salmonella enterica subsp. diarizonae serovar 50:k:z str. MZ0080
0.00258	16	13	36	1.06	0.0002461	59203	subspecies	                  Salmonella enterica subsp. arizonae
0.0003225	2	2	4	1	0.0001553	41514	no rank	                    Salmonella enterica subsp. arizonae serovar 62:z4,z23:-
0.0001612	1	0	2	1	7.092e-05	41515	no rank	                    Salmonella enterica subsp. arizonae serovar 62:z36:-
0.0001612	1	1	2	1	7.092e-05	1386967	no rank	                      Salmonella enterica subsp. arizonae serovar 62:z36:- str. RKS2983
0.002096	13	0	20	1.2	0.0002047	59205	subspecies	                  Salmonella enterica subsp. houtenae
0.002096	13	13	20	1.2	0.0002047	523831	no rank	                    Salmonella enterica subsp. houtenae str. ATCC BAA-1581
0.002741	17	1	60	1.2	2.813e-05	561	genus	              Escherichia
0.00258	16	14	53	1.19	3.166e-05	562	species	                Escherichia coli
0.0001612	1	1	1	2	0.0008628	741093	no rank	                  Escherichia coli Xuzhou21
0.0001612	1	1	1	1	0.000173	83334	no rank	                  Escherichia coli O157:H7
0.0008062	5	1	23	1.09	7.807e-06	570	genus	              Klebsiella
0.0003225	2	2	6	1	6.954e-06	573	species	                Klebsiella pneumoniae
0.0001612	1	1	4	1	3.388e-05	2026240	species	                Klebsiella quasivariicola
0.0001612	1	1	4	1	1.289e-05	548	species	                Klebsiella aerogenes
0.0001612	1	0	40	1.02	1.547e-05	544	genus	              Citrobacter
0.0001612	1	0	19	1	1.519e-05	1344959	species group	                Citrobacter freundii complex
0.0001612	1	0	7	1	1.268e-05	546	species	                  Citrobacter freundii
0.0001612	1	1	5	1	4.514e-05	1333848	no rank	                    Citrobacter freundii CFNIH1
0.0001612	1	0	29	1.17	7.592e-06	547	genus	              Enterobacter
0.0001612	1	0	22	1.14	7.637e-06	354276	species group	                Enterobacter cloacae complex
0.0001612	1	1	5	1.2	4.626e-06	550	species	                  Enterobacter cloacae
0.0001612	1	0	5	1	5.248e-06	191675	no rank	              unclassified Enterobacteriaceae
0.0001612	1	0	1	1	1.66e-06	84563	no rank	                ant, tsetse, mealybug, aphid, etc. endosymbionts
0.0001612	1	0	1	1	4.056e-06	146507	no rank	                  aphid secondary symbionts
0.0001612	1	0	1	1	7.705e-06	568987	genus	                    Candidatus Hamiltonella
0.0001612	1	1	1	1	7.705e-06	138072	species	                      Candidatus Hamiltonella defensa
0.0001612	1	0	4	1	7.877e-06	1330545	genus	              Lelliottia
0.0001612	1	1	4	1	1.207e-05	61646	species	                Lelliottia amnigena
0.0001612	1	0	22	1	3.26e-06	1903411	family	            Yersiniaceae
0.0001612	1	0	11	1	3.032e-06	613	genus	              Serratia
0.0001612	1	1	1	1	5.308e-06	61651	species	                Serratia ficaria
0.0001612	1	0	10	1	2.497e-06	1903409	family	            Erwiniaceae
0.0001612	1	0	6	1	2.589e-06	53335	genus	              Pantoea
0.0001612	1	0	1	1	4.9e-06	66269	species	                Pantoea stewartii
0.0001612	1	0	1	1	4.9e-06	66271	subspecies	                  Pantoea stewartii subsp. stewartii
0.0001612	1	1	1	1	4.9e-06	660596	no rank	                    Pantoea stewartii subsp. stewartii DC283
0.0001612	1	0	9	1	1.817e-06	1903410	family	            Pectobacteriaceae
0.0001612	1	0	3	1	6.074e-06	84565	genus	              Sodalis
0.0001612	1	0	1	1	1.108e-05	1486991	species	                Candidatus Sodalis pierantonius
0.0001612	1	1	1	1	1.108e-05	2342	no rank	                  Candidatus Sodalis pierantonius str. SOPE
0.000645	4	0	14	1.21	3.205e-07	72274	order	          Pseudomonadales
0.0004837	3	0	13	1.23	3.432e-07	135621	family	            Pseudomonadaceae
0.0004837	3	0	12	1.25	3.231e-07	286	genus	              Pseudomonas
0.0004837	3	0	4	1.5	1.228e-06	136845	species group	                Pseudomonas putida group
0.0004837	3	0	4	1.5	1.854e-06	303	species	                  Pseudomonas putida
0.0004837	3	3	3	1.67	0.000324	1193499	no rank	                    Pseudomonas putida SJTE-1
0.0001612	1	0	1	1	1.725e-07	468	family	            Moraxellaceae
0.0001612	1	1	1	1	2.676e-07	469	genus	              Acinetobacter
0.0001612	1	0	6	1.17	3.711e-07	135622	order	          Alteromonadales
0.0001612	1	0	1	1	2.104e-07	267890	family	            Shewanellaceae
0.0001612	1	0	1	1	2.104e-07	22	genus	              Shewanella
0.0001612	1	0	1	1	1.716e-06	62322	species	                Shewanella baltica
0.0001612	1	1	1	1	0.0004191	693971	no rank	                  Shewanella baltica OS183
0.0001612	1	0	2	1.5	4.568e-07	135613	order	          Chromatiales
0.0001612	1	0	2	1.5	1.046e-06	72276	family	            Ectothiorhodospiraceae
0.0001612	1	0	1	2	2.15e-06	1765964	genus	              Acidihalobacter
0.0001612	1	1	1	2	6.604e-06	1765967	species	                Acidihalobacter ferrooxidans
0.003064	19	2	43	1.19	5.572e-07	28211	class	        Alphaproteobacteria
0.001612	10	0	18	1.11	1.449e-06	204455	order	          Rhodobacterales
0.001612	10	2	18	1.11	1.528e-06	31989	family	            Rhodobacteraceae
0.0008062	5	1	7	1.14	9.085e-06	265	genus	              Paracoccus
0.0003225	2	2	2	1	1e-05	147645	species	                Paracoccus yeei
0.0001612	1	0	2	1.5	9.07e-06	266	species	                Paracoccus denitrificans
0.0001612	1	1	2	1.5	9.07e-06	318586	no rank	                  Paracoccus denitrificans PD1222
0.0001612	1	1	1	1	7.577e-06	1945662	species	                Paracoccus contaminans
0.0001612	1	0	2	1	3.839e-06	875170	genus	              Celeribacter
0.0001612	1	1	2	1	9.899e-06	1208324	species	                Celeribacter indicus
0.0001612	1	0	1	1	9.01e-07	1060	genus	              Rhodobacter
0.0001612	1	1	1	1	6.471e-06	1850250	species	                Rhodobacter sp. LPB0142
0.0001612	1	0	1	1	6.373e-06	159345	genus	              Roseibacterium
0.0001612	1	0	1	1	6.373e-06	159346	species	                Roseibacterium elongatum
0.0001612	1	1	1	1	6.373e-06	1294273	no rank	                  Roseibacterium elongatum DSM 19469
0.0009674	6	1	12	1.17	3.098e-07	356	order	          Rhizobiales
0.0004837	3	0	7	1	5.259e-07	82115	family	            Rhizobiaceae
0.0004837	3	0	6	1	6.759e-07	227290	no rank	              Rhizobium/Agrobacterium group
0.0004837	3	0	5	1	7.791e-07	379	genus	                Rhizobium
0.0001612	1	1	1	1	4.963e-06	1981173	species	                  Rhizobium sp. NXC14
0.0001612	1	0	1	1	5.659e-07	384	species	                  Rhizobium leguminosarum
0.0001612	1	0	1	1	1.77e-06	387	no rank	                    Rhizobium leguminosarum bv. viciae
0.0001612	1	1	1	1	5.708e-06	216596	no rank	                      Rhizobium leguminosarum bv. viciae 3841
0.0001612	1	1	1	1	5.034e-06	1125847	species	                  Rhizobium sp. NT-26
0.0001612	1	0	1	2	7.104e-07	772	family	            Bartonellaceae
0.0001612	1	0	1	2	7.104e-07	773	genus	              Bartonella
0.0001612	1	1	1	2	1.61e-05	774	species	                Bartonella bacilliformis
0.0001612	1	0	1	1	2.362e-06	119042	no rank	            unclassified Rhizobiales
0.0001612	1	0	1	1	3.726e-06	1734920	genus	              Pseudorhodoplanes
0.0001612	1	1	1	1	3.726e-06	1235591	species	                Pseudorhodoplanes sinuspersici
0.0001612	1	0	3	2	1.173e-06	204458	order	          Caulobacterales
0.0001612	1	0	3	2	1.173e-06	76892	family	            Caulobacteraceae
0.0001612	1	0	3	2	3.108e-06	41275	genus	              Brevundimonas
0.0001612	1	1	2	2	1.409e-05	1532555	species	                Brevundimonas sp. DS20
0.0982	609	245	131	30.9	5.39e-07	1783272	no rank	      Terrabacteria group
0.05531	343	337	55	58.7	5.898e-07	1239	phylum	        Firmicutes
0.0008062	5	0	16	1.19	2.44e-07	91061	class	          Bacilli
0.0008062	5	0	12	1.17	6.371e-07	186826	order	            Lactobacillales
0.0004837	3	0	7	1.14	1.135e-06	1300	family	              Streptococcaceae
0.0004837	3	0	7	1.14	1.355e-06	1301	genus	                Streptococcus
0.0001612	1	0	4	1	2.393e-05	28037	species	                  Streptococcus mitis
0.0001612	1	1	4	1	7.833e-05	365659	no rank	                    Streptococcus mitis B6
0.0001612	1	1	1	2	3.581e-05	1839799	species	                  Streptococcus sp. FDAARGOS_192
0.0001612	1	1	2	1	9.108e-06	1311	species	                  Streptococcus agalactiae
0.0001612	1	0	3	1	4.072e-07	33958	family	              Lactobacillaceae
0.0001612	1	0	3	1	4.363e-07	1578	genus	                Lactobacillus
0.0001612	1	1	3	1	3.172e-05	1601	species	                  Lactobacillus agilis
0.0001612	1	0	1	2	4.072e-07	81852	family	              Enterococcaceae
0.0001612	1	0	1	2	5.077e-07	1350	genus	                Enterococcus
0.0001612	1	1	1	2	2.989e-06	1352	species	                  Enterococcus faecium
0.0001612	1	0	11	2	4.606e-07	186801	class	          Clostridia
0.0001612	1	0	10	2	4.935e-07	186802	order	            Clostridiales
0.0001612	1	0	10	2	3.583e-06	186803	family	              Lachnospiraceae
0.0001612	1	0	10	2	6.702e-05	186928	no rank	                unclassified Lachnospiraceae
0.0001612	1	0	10	2	6.702e-05	39491	species	                  [Eubacterium] rectale
0.0001612	1	1	10	2	6.702e-05	515619	no rank	                    [Eubacterium] rectale ATCC 33656
0.003064	19	0	58	1.52	5.155e-07	201174	phylum	        Actinobacteria
0.003064	19	3	57	1.51	5.216e-07	1760	class	          Actinobacteria
0.0009674	6	0	18	1.33	2.615e-05	1643682	order	            Geodermatophilales
0.0009674	6	0	18	1.33	2.615e-05	85030	family	              Geodermatophilaceae
0.0004837	3	0	4	1.25	1.65e-05	88138	genus	                Modestobacter
0.0004837	3	3	4	1.25	1.65e-05	477641	species	                  Modestobacter marinus
0.0003225	2	0	3	1.67	1.301e-05	1860	genus	                Geodermatophilus
0.0003225	2	0	3	1.67	1.301e-05	1861	species	                  Geodermatophilus obscurus
0.0003225	2	2	3	1.67	1.301e-05	526225	no rank	                    Geodermatophilus obscurus DSM 43160
0.0001612	1	0	7	1	3.321e-05	38501	genus	                Blastococcus
0.0001612	1	0	7	1	3.321e-05	138336	species	                  Blastococcus saxobsidens
0.0001612	1	1	7	1	3.321e-05	1146883	no rank	                    Blastococcus saxobsidens DD2
0.0008062	5	1	9	1.89	5.163e-07	85006	order	            Micrococcales
0.0004837	3	0	6	1.83	1.101e-06	1268	family	              Micrococcaceae
0.0003225	2	0	3	2	5.186e-06	57493	genus	                Kocuria
0.0003225	2	2	3	2	2.411e-05	71999	species	                  Kocuria palustris
0.0001612	1	0	2	2	1.86e-05	1269	genus	                Micrococcus
0.0001612	1	1	2	2	1.86e-05	1270	species	                  Micrococcus luteus
0.0001612	1	0	1	2	1.534e-07	85023	family	              Microbacteriaceae
0.0001612	1	0	1	2	3.142e-06	518733	genus	                Microterricola
0.0001612	1	1	1	2	3.142e-06	412690	species	                  Microterricola viridarii
0.0003225	2	0	6	1.5	2.163e-07	85011	order	            Streptomycetales
0.0003225	2	0	6	1.5	2.163e-07	2062	family	              Streptomycetaceae
0.0003225	2	1	6	1.5	2.248e-07	1883	genus	                Streptomyces
0.0001612	1	1	1	2	3.794e-06	1561022	species	                  Streptomyces sp. CCM_MD2014
0.0001612	1	0	4	1.5	1.396e-07	85007	order	            Corynebacteriales
0.0001612	1	0	1	1	7.166e-07	85026	family	              Gordoniaceae
0.0001612	1	0	1	1	7.166e-07	2053	genus	                Gordonia
0.0001612	1	1	1	1	5.203e-06	1136941	species	                  Gordonia sp. QH-11
0.0001612	1	0	3	1	3.907e-07	85008	order	            Micromonosporales
0.0001612	1	0	3	1	3.907e-07	28056	family	              Micromonosporaceae
0.0001612	1	1	2	1	4.426e-07	1873	genus	                Micromonospora
0.0001612	1	0	2	1.5	2.171e-07	85010	order	            Pseudonocardiales
0.0001612	1	0	2	1.5	2.171e-07	2070	family	              Pseudonocardiaceae
0.0001612	1	0	1	1	4.873e-07	1813	genus	                Amycolatopsis
0.0001612	1	1	1	1	2.227e-06	33910	species	                  Amycolatopsis mediterranei
0.0003225	2	0	13	2	4.715e-07	1798711	no rank	        Cyanobacteria/Melainabacteria group
0.0003225	2	0	13	2	4.715e-07	1117	phylum	          Cyanobacteria
0.0003225	2	0	13	2	4.311e-05	1890505	order	            Chroococcidiopsidales
0.0003225	2	0	13	2	4.311e-05	1890528	family	              Chroococcidiopsidaceae
0.0003225	2	0	13	2	4.311e-05	54298	genus	                Chroococcidiopsis
0.0003225	2	0	13	2	4.311e-05	54299	species	                  Chroococcidiopsis thermalis
0.0003225	2	2	13	2	4.311e-05	251229	no rank	                    Chroococcidiopsis thermalis PCC 7203
0.0001612	1	0	16	1.69	3.483e-07	1783270	no rank	      FCB group
0.0001612	1	0	16	1.69	3.538e-07	68336	no rank	        Bacteroidetes/Chlorobi group
0.0001612	1	0	15	1.73	3.473e-07	976	phylum	          Bacteroidetes
0.0001612	1	0	11	2	1.443e-06	200643	class	            Bacteroidia
0.0001612	1	0	11	2	1.638e-06	171549	order	              Bacteroidales
0.0001612	1	0	11	2	4.093e-06	815	family	                Bacteroidaceae
0.0001612	1	0	11	2	4.093e-06	816	genus	                  Bacteroides
0.0001612	1	1	11	2	5.209e-05	821	species	                    Bacteroides vulgatus
